{
  "Name": "BHPEMPLACCIDENT",
  "Type": "Table",
  "Description": "PR27608",
  "Children": [
    {
      "Name": "ACCIDENT",
      "Type": "Field",
      "Description": ""
    },
    {
      "Name": "DESCRIPT",
      "Type": "Field",
      "Description": ""
    },
    {
      "Name": "EMPLFUNC",
      "Type": "Field",
      "Description": ""
    },
    {
      "Name": "EMPLOYEE",
      "Type": "Field",
      "Description": ""
    },
    {
      "Name": "EXAMDATE",
      "Type": "Field",
      "Description": ""
    },
    {
      "Name": "REF",
      "Type": "Field",
      "Description": ""
    },
    {
      "Name": "WORKPOST",
      "Type": "Field",
      "Description": ""
    }
  ]
}