{
  "Name": "BHPSORTDEF",
  "Type": "Table",
  "Description": "Sort odziezowy(BHP)",
  "Children": [
    {
      "Name": "NAME",
      "Type": "Field",
      "Description": ""
    },
    {
      "Name": "SYMBOL",
      "Type": "Field",
      "Description": ""
    },
    {
      "Name": "WORKPOST",
      "Type": "Field",
      "Description": ""
    }
  ]
}