{
  "Name": "BHPTIMEUNITS",
  "Type": "Table",
  "Description": "PR27173",
  "Children": [
    {
      "Name": "DAYSCOUNT",
      "Type": "Field",
      "Description": ""
    },
    {
      "Name": "DEF4PERIOD",
      "Type": "Field",
      "Description": ""
    },
    {
      "Name": "DEF4WASH",
      "Type": "Field",
      "Description": ""
    },
    {
      "Name": "MONTHSCOUNT",
      "Type": "Field",
      "Description": ""
    },
    {
      "Name": "NAME",
      "Type": "Field",
      "Description": ""
    },
    {
      "Name": "REF",
      "Type": "Field",
      "Description": ""
    }
  ]
}