{
  "Name": "BTRANSFERS",
  "Type": "Table",
  "Description": "Tabe;la przelewów\r\nTYP - typ przelewu\r\n  0 - drukowany\r\n  1 - elektroniczny, jełsi konto na to pozwala\r\nSTATUS - 0 - wygenerowany\r\n         1 - zaakceptowany\r\n         2 - zrealizowany(wyslany)\r\n         3 - na raporcie\r\n         4 - zaksiegowany\r\n         5 - odrzucony przez bank",
  "Children": [
    {
      "Name": "AMOUNT",
      "Type": "Field",
      "Description": ""
    },
    {
      "Name": "AUTOBTRANSFER",
      "Type": "Field",
      "Description": ""
    },
    {
      "Name": "BANKACC",
      "Type": "Field",
      "Description": ""
    },
    {
      "Name": "BKIND",
      "Type": "Field",
      "Description": ""
    },
    {
      "Name": "BTRANGROUP",
      "Type": "Field",
      "Description": ""
    },
    {
      "Name": "BTYPE",
      "Type": "Field",
      "Description": ""
    },
    {
      "Name": "COMPANY",
      "Type": "Field",
      "Description": ""
    },
    {
      "Name": "CURR",
      "Type": "Field",
      "Description": ""
    },
    {
      "Name": "DATA",
      "Type": "Field",
      "Description": ""
    },
    {
      "Name": "DATAAKC",
      "Type": "Field",
      "Description": ""
    },
    {
      "Name": "DATAOPEN",
      "Type": "Field",
      "Description": ""
    },
    {
      "Name": "DATASEND",
      "Type": "Field",
      "Description": ""
    },
    {
      "Name": "GENGROUP",
      "Type": "Field",
      "Description": ""
    },
    {
      "Name": "ID1ST",
      "Type": "Field",
      "Description": ""
    },
    {
      "Name": "ID2ND",
      "Type": "Field",
      "Description": ""
    },
    {
      "Name": "IDTYPE",
      "Type": "Field",
      "Description": ""
    },
    {
      "Name": "NUMBER",
      "Type": "Field",
      "Description": ""
    },
    {
      "Name": "OPERACK",
      "Type": "Field",
      "Description": ""
    },
    {
      "Name": "OPERSEND",
      "Type": "Field",
      "Description": ""
    },
    {
      "Name": "REF",
      "Type": "Field",
      "Description": ""
    },
    {
      "Name": "RIGHTS",
      "Type": "Field",
      "Description": ""
    },
    {
      "Name": "RIGHTSGRUP",
      "Type": "Field",
      "Description": ""
    },
    {
      "Name": "SENDGROUP",
      "Type": "Field",
      "Description": ""
    },
    {
      "Name": "SLODEF",
      "Type": "Field",
      "Description": ""
    },
    {
      "Name": "SLOKODKS",
      "Type": "Field",
      "Description": ""
    },
    {
      "Name": "SLOPOZ",
      "Type": "Field",
      "Description": ""
    },
    {
      "Name": "STATUS",
      "Type": "Field",
      "Description": ""
    },
    {
      "Name": "TOACC",
      "Type": "Field",
      "Description": ""
    },
    {
      "Name": "TOADRESS",
      "Type": "Field",
      "Description": ""
    },
    {
      "Name": "TODESCRIPT",
      "Type": "Field",
      "Description": ""
    },
    {
      "Name": "TODESCRIPT1",
      "Type": "Field",
      "Description": ""
    },
    {
      "Name": "TODESCRIPT2",
      "Type": "Field",
      "Description": ""
    },
    {
      "Name": "TOWHO",
      "Type": "Field",
      "Description": ""
    },
    {
      "Name": "TYP",
      "Type": "Field",
      "Description": ""
    },
    {
      "Name": "USDCLSYMBOL",
      "Type": "Field",
      "Description": ""
    },
    {
      "Name": "USPAYMNTID",
      "Type": "Field",
      "Description": ""
    },
    {
      "Name": "USPERIOD",
      "Type": "Field",
      "Description": ""
    },
    {
      "Name": "USPERIODNR",
      "Type": "Field",
      "Description": ""
    },
    {
      "Name": "USPERIODTYPE",
      "Type": "Field",
      "Description": ""
    },
    {
      "Name": "ZUSDCL",
      "Type": "Field",
      "Description": ""
    },
    {
      "Name": "ZUSDCLNR",
      "Type": "Field",
      "Description": ""
    },
    {
      "Name": "ZUSDECISIONNR",
      "Type": "Field",
      "Description": ""
    },
    {
      "Name": "ZUSPAYMNTTYPE",
      "Type": "Field",
      "Description": ""
    }
  ]
}