{
  "Name": "BUDGPLAN",
  "Type": "Table",
  "Description": "PR15289",
  "Children": [
    {
      "Name": "ACC",
      "Type": "Field",
      "Description": ""
    },
    {
      "Name": "COMPANY",
      "Type": "Field",
      "Description": ""
    },
    {
      "Name": "DATEPL",
      "Type": "Field",
      "Description": ""
    },
    {
      "Name": "DECREES",
      "Type": "Field",
      "Description": ""
    },
    {
      "Name": "DECRIPT",
      "Type": "Field",
      "Description": ""
    },
    {
      "Name": "FROMPERIOD",
      "Type": "Field",
      "Description": ""
    },
    {
      "Name": "SYMBOL",
      "Type": "Field",
      "Description": ""
    },
    {
      "Name": "TOPERIOD",
      "Type": "Field",
      "Description": ""
    },
    {
      "Name": "YEARBP",
      "Type": "Field",
      "Description": ""
    }
  ]
}