{
  "Name": "CDEFKATAL",
  "Type": "Table",
  "Description": "definicje kategorii danych dodatkowych z CRM",
  "Children": [
    {
      "Name": "NAZWA",
      "Type": "Field",
      "Description": ""
    },
    {
      "Name": "PIKTOGRAM",
      "Type": "Field",
      "Description": ""
    },
    {
      "Name": "REF",
      "Type": "Field",
      "Description": ""
    },
    {
      "Name": "SLODEF",
      "Type": "Field",
      "Description": ""
    },
    {
      "Name": "TYP",
      "Type": "Field",
      "Description": ""
    },
    {
      "Name": "WIELOPOZ",
      "Type": "Field",
      "Description": ""
    }
  ]
}