{
  "Name": "CENNIKIZEWNIMP",
  "Type": "Table",
  "Description": "Definicje importów cenników zewnetrznych\r\nSYMBOL - symbol definicji importu\r\nTYP typ sterownika importu",
  "Children": [
    {
      "Name": "BAZA",
      "Type": "Field",
      "Description": ""
    },
    {
      "Name": "FCENAFAB",
      "Type": "Field",
      "Description": ""
    },
    {
      "Name": "FCENAZAKN",
      "Type": "Field",
      "Description": ""
    },
    {
      "Name": "FKODKRESK",
      "Type": "Field",
      "Description": ""
    },
    {
      "Name": "FMIARA",
      "Type": "Field",
      "Description": ""
    },
    {
      "Name": "FNAZWA",
      "Type": "Field",
      "Description": ""
    },
    {
      "Name": "FOBJETOSC",
      "Type": "Field",
      "Description": ""
    },
    {
      "Name": "FOPIS",
      "Type": "Field",
      "Description": ""
    },
    {
      "Name": "FPKWIU",
      "Type": "Field",
      "Description": ""
    },
    {
      "Name": "FRABAT",
      "Type": "Field",
      "Description": ""
    },
    {
      "Name": "FSYMBOL",
      "Type": "Field",
      "Description": ""
    },
    {
      "Name": "FVAT",
      "Type": "Field",
      "Description": ""
    },
    {
      "Name": "FWAGA",
      "Type": "Field",
      "Description": ""
    },
    {
      "Name": "OPIS",
      "Type": "Field",
      "Description": ""
    },
    {
      "Name": "SYMBOL",
      "Type": "Field",
      "Description": ""
    },
    {
      "Name": "TABELA",
      "Type": "Field",
      "Description": ""
    },
    {
      "Name": "TYP",
      "Type": "Field",
      "Description": ""
    }
  ]
}