{
  "Name": "CENNIK",
  "Type": "Table",
  "Description": "pozycje cenników systemowych\r\nSTALACENA:\r\n1 - cena nie ulega przeliczeniu przy automatycznej aktualizacji\r\n2 - marza lub narzut nie ulega zmianie, cena przelicza sie wg nich",
  "Children": [
    {
      "Name": "AKT",
      "Type": "Field",
      "Description": ""
    },
    {
      "Name": "CENABRU",
      "Type": "Field",
      "Description": ""
    },
    {
      "Name": "CENANET",
      "Type": "Field",
      "Description": ""
    },
    {
      "Name": "CENAPBRU",
      "Type": "Field",
      "Description": ""
    },
    {
      "Name": "CENAPNET",
      "Type": "Field",
      "Description": ""
    },
    {
      "Name": "CENNIK",
      "Type": "Field",
      "Description": ""
    },
    {
      "Name": "DATABAZOWA",
      "Type": "Field",
      "Description": ""
    },
    {
      "Name": "DATAZMIANY",
      "Type": "Field",
      "Description": ""
    },
    {
      "Name": "INT_ID",
      "Type": "Field",
      "Description": "ZG115055"
    },
    {
      "Name": "INT_ZRODLO",
      "Type": "Field",
      "Description": "ZG115055"
    },
    {
      "Name": "JEDN",
      "Type": "Field",
      "Description": ""
    },
    {
      "Name": "KTM",
      "Type": "Field",
      "Description": ""
    },
    {
      "Name": "MAGAZYN",
      "Type": "Field",
      "Description": ""
    },
    {
      "Name": "MARZA",
      "Type": "Field",
      "Description": ""
    },
    {
      "Name": "NARZUT",
      "Type": "Field",
      "Description": ""
    },
    {
      "Name": "NAZWAT",
      "Type": "Field",
      "Description": ""
    },
    {
      "Name": "PREC",
      "Type": "Field",
      "Description": ""
    },
    {
      "Name": "PROCENTMIES",
      "Type": "Field",
      "Description": ""
    },
    {
      "Name": "REPLICAT",
      "Type": "Field",
      "Description": ""
    },
    {
      "Name": "STALACENA",
      "Type": "Field",
      "Description": ""
    },
    {
      "Name": "STATE",
      "Type": "Field",
      "Description": ""
    },
    {
      "Name": "TOKEN",
      "Type": "Field",
      "Description": ""
    },
    {
      "Name": "WALUTA",
      "Type": "Field",
      "Description": ""
    },
    {
      "Name": "WERSJA",
      "Type": "Field",
      "Description": ""
    },
    {
      "Name": "WERSJAREF",
      "Type": "Field",
      "Description": ""
    }
  ]
}