{
  "Name": "CFAZY",
  "Type": "Table",
  "Description": "tabela zawiera fazy spraw (np.zgłoszen serwisowych CRM)",
  "Children": [
    {
      "Name": "AKTYWNE",
      "Type": "Field",
      "Description": ""
    },
    {
      "Name": "CONTRTYPE",
      "Type": "Field",
      "Description": ""
    },
    {
      "Name": "DEFAULTSRVPOSENABLED",
      "Type": "Field",
      "Description": ""
    },
    {
      "Name": "DOCUMENT",
      "Type": "Field",
      "Description": ""
    },
    {
      "Name": "GRUPA",
      "Type": "Field",
      "Description": ""
    },
    {
      "Name": "MSGTEXT",
      "Type": "Field",
      "Description": ""
    },
    {
      "Name": "NAZWA",
      "Type": "Field",
      "Description": ""
    },
    {
      "Name": "NUMER",
      "Type": "Field",
      "Description": ""
    },
    {
      "Name": "REF",
      "Type": "Field",
      "Description": ""
    },
    {
      "Name": "STATE",
      "Type": "Field",
      "Description": ""
    },
    {
      "Name": "STOPIEN",
      "Type": "Field",
      "Description": ""
    },
    {
      "Name": "TOKEN",
      "Type": "Field",
      "Description": ""
    },
    {
      "Name": "ZAKONCZONO",
      "Type": "Field",
      "Description": ""
    }
  ]
}