{
  "Name": "CPALEJA",
  "Type": "Table",
  "Description": "typy adresów (np. ulica, plac)",
  "Children": [
    {
      "Name": "KOD",
      "Type": "Field",
      "Description": ""
    },
    {
      "Name": "OPIS",
      "Type": "Field",
      "Description": ""
    }
  ]
}