{
  "Name": "CPLKONTA",
  "Type": "Table",
  "Description": "konta punktowe uczestników programów lojalnosciowych",
  "Children": [
    {
      "Name": "CPLUCZEST",
      "Type": "Field",
      "Description": ""
    },
    {
      "Name": "MALLOW",
      "Type": "Field",
      "Description": ""
    },
    {
      "Name": "SALPKTM",
      "Type": "Field",
      "Description": ""
    },
    {
      "Name": "SALPKTP",
      "Type": "Field",
      "Description": ""
    },
    {
      "Name": "STATE",
      "Type": "Field",
      "Description": ""
    },
    {
      "Name": "SUMPKTM",
      "Type": "Field",
      "Description": ""
    },
    {
      "Name": "SUMPKTP",
      "Type": "Field",
      "Description": ""
    },
    {
      "Name": "TOKEN",
      "Type": "Field",
      "Description": ""
    },
    {
      "Name": "TYPPKT",
      "Type": "Field",
      "Description": ""
    }
  ]
}