{
  "Name": "CPLOPER",
  "Type": "Table",
  "Description": "operacje na kontach uczestników programów lojalnosciowych\r\n\r\nINOUT,\r\nPKOSOBA - pola wypalniane, jesli do operacji tworzony jest kontakt.\r\n   Interfejs powinien podawać do redakcji te pola, jesli typ operacji ma\r\n   KONTAKT rozny od NULL, i umozliwiać redagowanie Wyjscie/wejsie,\r\n   jak rowniez osobę kontaktowa, jesli sam podmiot nie jest osoba.\r\n   (CPLUCZEST.PKOSOBA = NULL),inczaej ten parametr podpowie sie z uczestnika.",
  "Children": [
    {
      "Name": "CENAPKT",
      "Type": "Field",
      "Description": ""
    },
    {
      "Name": "CPL",
      "Type": "Field",
      "Description": ""
    },
    {
      "Name": "CPLNAGZAM",
      "Type": "Field",
      "Description": ""
    },
    {
      "Name": "CPLREGULA",
      "Type": "Field",
      "Description": ""
    },
    {
      "Name": "CPLUCZEST",
      "Type": "Field",
      "Description": ""
    },
    {
      "Name": "CRMCLAIM",
      "Type": "Field",
      "Description": ""
    },
    {
      "Name": "CRMCLAIMBILL",
      "Type": "Field",
      "Description": ""
    },
    {
      "Name": "DATA",
      "Type": "Field",
      "Description": ""
    },
    {
      "Name": "DATAOPER",
      "Type": "Field",
      "Description": ""
    },
    {
      "Name": "DOKDATA",
      "Type": "Field",
      "Description": ""
    },
    {
      "Name": "DOKDATAACK",
      "Type": "Field",
      "Description": ""
    },
    {
      "Name": "DOKKONTRAH",
      "Type": "Field",
      "Description": ""
    },
    {
      "Name": "DOKODDZIAL",
      "Type": "Field",
      "Description": ""
    },
    {
      "Name": "DOKSYMBOL",
      "Type": "Field",
      "Description": ""
    },
    {
      "Name": "ILOSC",
      "Type": "Field",
      "Description": ""
    },
    {
      "Name": "ILPKT",
      "Type": "Field",
      "Description": ""
    },
    {
      "Name": "INOUT",
      "Type": "Field",
      "Description": ""
    },
    {
      "Name": "KONTAKT",
      "Type": "Field",
      "Description": ""
    },
    {
      "Name": "NAGRODA",
      "Type": "Field",
      "Description": ""
    },
    {
      "Name": "NRKARTY",
      "Type": "Field",
      "Description": ""
    },
    {
      "Name": "ODDZIAL",
      "Type": "Field",
      "Description": ""
    },
    {
      "Name": "OPERACJA",
      "Type": "Field",
      "Description": ""
    },
    {
      "Name": "OPERATOR",
      "Type": "Field",
      "Description": ""
    },
    {
      "Name": "OPIS",
      "Type": "Field",
      "Description": ""
    },
    {
      "Name": "PKOSOBA",
      "Type": "Field",
      "Description": ""
    },
    {
      "Name": "PM",
      "Type": "Field",
      "Description": ""
    },
    {
      "Name": "REF",
      "Type": "Field",
      "Description": ""
    },
    {
      "Name": "REFDOK",
      "Type": "Field",
      "Description": ""
    },
    {
      "Name": "STATE",
      "Type": "Field",
      "Description": ""
    },
    {
      "Name": "TOKEN",
      "Type": "Field",
      "Description": ""
    },
    {
      "Name": "TYPDOK",
      "Type": "Field",
      "Description": ""
    },
    {
      "Name": "TYPPKT",
      "Type": "Field",
      "Description": ""
    },
    {
      "Name": "ZREAL",
      "Type": "Field",
      "Description": ""
    }
  ]
}