{
  "Name": "CPLREGULYPARAM",
  "Type": "Table",
  "Description": "parametry reguł programów lojalnościowych",
  "Children": [
    {
      "Name": "AKRONIM",
      "Type": "Field",
      "Description": ""
    },
    {
      "Name": "ILOSCPKT",
      "Type": "Field",
      "Description": ""
    },
    {
      "Name": "NAZWA",
      "Type": "Field",
      "Description": ""
    },
    {
      "Name": "REGULA",
      "Type": "Field",
      "Description": ""
    },
    {
      "Name": "WARTOSC",
      "Type": "Field",
      "Description": ""
    }
  ]
}