{
  "Name": "CPLTYPYPKT",
  "Type": "Table",
  "Description": "typy punktów w programach lojalnosciowych",
  "Children": [
    {
      "Name": "CPL",
      "Type": "Field",
      "Description": ""
    },
    {
      "Name": "NAZWA",
      "Type": "Field",
      "Description": ""
    },
    {
      "Name": "REF",
      "Type": "Field",
      "Description": ""
    },
    {
      "Name": "STATE",
      "Type": "Field",
      "Description": ""
    },
    {
      "Name": "TOKEN",
      "Type": "Field",
      "Description": ""
    }
  ]
}