{
  "Name": "CPODMIOTY",
  "Type": "Table",
  "Description": "podmioty CRM\r\nKORESPOND:\r\n0 - firmowy\r\n1 - inny \r\n2 - prywatny (tylko dla podmiotow fizycznych)",
  "Children": [
    {
      "Name": "AKTYWNY",
      "Type": "Field",
      "Description": ""
    },
    {
      "Name": "ANCESTORS",
      "Type": "Field",
      "Description": ""
    },
    {
      "Name": "BANK",
      "Type": "Field",
      "Description": ""
    },
    {
      "Name": "BRANZA",
      "Type": "Field",
      "Description": ""
    },
    {
      "Name": "COMPANY",
      "Type": "Field",
      "Description": ""
    },
    {
      "Name": "CPALEJA",
      "Type": "Field",
      "Description": ""
    },
    {
      "Name": "CPOWIATY",
      "Type": "Field",
      "Description": ""
    },
    {
      "Name": "CPWOJ16M",
      "Type": "Field",
      "Description": ""
    },
    {
      "Name": "CSTATUS",
      "Type": "Field",
      "Description": ""
    },
    {
      "Name": "CSTATUSNAZWA",
      "Type": "Field",
      "Description": ""
    },
    {
      "Name": "DATAROZP",
      "Type": "Field",
      "Description": ""
    },
    {
      "Name": "DATAUR",
      "Type": "Field",
      "Description": ""
    },
    {
      "Name": "DATAZAK",
      "Type": "Field",
      "Description": ""
    },
    {
      "Name": "DATAZAL",
      "Type": "Field",
      "Description": ""
    },
    {
      "Name": "DZIALZASAD",
      "Type": "Field",
      "Description": ""
    },
    {
      "Name": "EKD",
      "Type": "Field",
      "Description": ""
    },
    {
      "Name": "EMAIL",
      "Type": "Field",
      "Description": ""
    },
    {
      "Name": "EMAILWINDYK",
      "Type": "Field",
      "Description": ""
    },
    {
      "Name": "FAX",
      "Type": "Field",
      "Description": ""
    },
    {
      "Name": "FIRMA",
      "Type": "Field",
      "Description": ""
    },
    {
      "Name": "FLAGI",
      "Type": "Field",
      "Description": ""
    },
    {
      "Name": "FNIP",
      "Type": "Field",
      "Description": ""
    },
    {
      "Name": "FORMA",
      "Type": "Field",
      "Description": ""
    },
    {
      "Name": "HASLO",
      "Type": "Field",
      "Description": ""
    },
    {
      "Name": "HISTORIA",
      "Type": "Field",
      "Description": ""
    },
    {
      "Name": "I1",
      "Type": "Field",
      "Description": ""
    },
    {
      "Name": "IMIE",
      "Type": "Field",
      "Description": ""
    },
    {
      "Name": "IMIONARODZ",
      "Type": "Field",
      "Description": ""
    },
    {
      "Name": "KKODP",
      "Type": "Field",
      "Description": ""
    },
    {
      "Name": "KKRAJ",
      "Type": "Field",
      "Description": ""
    },
    {
      "Name": "KMIASTO",
      "Type": "Field",
      "Description": ""
    },
    {
      "Name": "KNRDOMU",
      "Type": "Field",
      "Description": ""
    },
    {
      "Name": "KNRLOKALU",
      "Type": "Field",
      "Description": ""
    },
    {
      "Name": "KODP",
      "Type": "Field",
      "Description": ""
    },
    {
      "Name": "KODZEWN",
      "Type": "Field",
      "Description": ""
    },
    {
      "Name": "KOMORKA",
      "Type": "Field",
      "Description": ""
    },
    {
      "Name": "KONTOFK",
      "Type": "Field",
      "Description": ""
    },
    {
      "Name": "KORESPOND",
      "Type": "Field",
      "Description": ""
    },
    {
      "Name": "KPOCZTA",
      "Type": "Field",
      "Description": ""
    },
    {
      "Name": "KRAJ",
      "Type": "Field",
      "Description": ""
    },
    {
      "Name": "KULICA",
      "Type": "Field",
      "Description": ""
    },
    {
      "Name": "LOGIN",
      "Type": "Field",
      "Description": ""
    },
    {
      "Name": "MIASTO",
      "Type": "Field",
      "Description": ""
    },
    {
      "Name": "MIEJSCEURODZ",
      "Type": "Field",
      "Description": ""
    },
    {
      "Name": "NADRZEDNY",
      "Type": "Field",
      "Description": ""
    },
    {
      "Name": "NAZWA",
      "Type": "Field",
      "Description": ""
    },
    {
      "Name": "NAZWAFIRMY",
      "Type": "Field",
      "Description": ""
    },
    {
      "Name": "NAZWISKO",
      "Type": "Field",
      "Description": ""
    },
    {
      "Name": "NAZWISKOROD",
      "Type": "Field",
      "Description": ""
    },
    {
      "Name": "NIEWYPLAC",
      "Type": "Field",
      "Description": ""
    },
    {
      "Name": "NIP",
      "Type": "Field",
      "Description": ""
    },
    {
      "Name": "NRDOMU",
      "Type": "Field",
      "Description": ""
    },
    {
      "Name": "NRDOW",
      "Type": "Field",
      "Description": ""
    },
    {
      "Name": "NRKONTA",
      "Type": "Field",
      "Description": ""
    },
    {
      "Name": "NRLOKALU",
      "Type": "Field",
      "Description": ""
    },
    {
      "Name": "OBYWATELSTWO",
      "Type": "Field",
      "Description": ""
    },
    {
      "Name": "OPEROPIEK",
      "Type": "Field",
      "Description": ""
    },
    {
      "Name": "OPEROPIEKNAZWA",
      "Type": "Field",
      "Description": ""
    },
    {
      "Name": "OPERUPRAWN",
      "Type": "Field",
      "Description": ""
    },
    {
      "Name": "OPERZAL",
      "Type": "Field",
      "Description": ""
    },
    {
      "Name": "PARENT",
      "Type": "Field",
      "Description": ""
    },
    {
      "Name": "PCPALEJA",
      "Type": "Field",
      "Description": ""
    },
    {
      "Name": "PEMAIL",
      "Type": "Field",
      "Description": ""
    },
    {
      "Name": "PESEL",
      "Type": "Field",
      "Description": ""
    },
    {
      "Name": "PFAX",
      "Type": "Field",
      "Description": ""
    },
    {
      "Name": "PKD2007",
      "Type": "Field",
      "Description": ""
    },
    {
      "Name": "PKODP",
      "Type": "Field",
      "Description": ""
    },
    {
      "Name": "PKOMORKA",
      "Type": "Field",
      "Description": ""
    },
    {
      "Name": "PKRAJ",
      "Type": "Field",
      "Description": ""
    },
    {
      "Name": "PLEC",
      "Type": "Field",
      "Description": ""
    },
    {
      "Name": "PMIASTO",
      "Type": "Field",
      "Description": ""
    },
    {
      "Name": "PNRDOMU",
      "Type": "Field",
      "Description": ""
    },
    {
      "Name": "PNRLOKALU",
      "Type": "Field",
      "Description": ""
    },
    {
      "Name": "POCZTA",
      "Type": "Field",
      "Description": ""
    },
    {
      "Name": "PPOCZTA",
      "Type": "Field",
      "Description": ""
    },
    {
      "Name": "PRAWA",
      "Type": "Field",
      "Description": ""
    },
    {
      "Name": "PRAWAGRUP",
      "Type": "Field",
      "Description": ""
    },
    {
      "Name": "PROSTYNIP",
      "Type": "Field",
      "Description": ""
    },
    {
      "Name": "PTELEFON",
      "Type": "Field",
      "Description": ""
    },
    {
      "Name": "PULICA",
      "Type": "Field",
      "Description": ""
    },
    {
      "Name": "REF",
      "Type": "Field",
      "Description": ""
    },
    {
      "Name": "REGION",
      "Type": "Field",
      "Description": ""
    },
    {
      "Name": "REGON",
      "Type": "Field",
      "Description": ""
    },
    {
      "Name": "SKROT",
      "Type": "Field",
      "Description": ""
    },
    {
      "Name": "SLODEF",
      "Type": "Field",
      "Description": ""
    },
    {
      "Name": "SLODEFNAZWA",
      "Type": "Field",
      "Description": ""
    },
    {
      "Name": "SLOPOZ",
      "Type": "Field",
      "Description": ""
    },
    {
      "Name": "STATE",
      "Type": "Field",
      "Description": ""
    },
    {
      "Name": "SYNCHRO",
      "Type": "Field",
      "Description": ""
    },
    {
      "Name": "TELEFON",
      "Type": "Field",
      "Description": ""
    },
    {
      "Name": "TOKEN",
      "Type": "Field",
      "Description": ""
    },
    {
      "Name": "TYP",
      "Type": "Field",
      "Description": ""
    },
    {
      "Name": "ULICA",
      "Type": "Field",
      "Description": ""
    },
    {
      "Name": "UWAGI",
      "Type": "Field",
      "Description": ""
    },
    {
      "Name": "WWW",
      "Type": "Field",
      "Description": ""
    },
    {
      "Name": "WYKSZTAL",
      "Type": "Field",
      "Description": ""
    },
    {
      "Name": "ZASIEG",
      "Type": "Field",
      "Description": ""
    },
    {
      "Name": "ZAWOD",
      "Type": "Field",
      "Description": ""
    },
    {
      "Name": "ZRODLO",
      "Type": "Field",
      "Description": ""
    }
  ]
}