{
  "Name": "CZASIEG",
  "Type": "Table",
  "Description": "słownik zasiegów terytorialnych podmiotów CRM",
  "Children": [
    {
      "Name": "NAZWA",
      "Type": "Field",
      "Description": ""
    },
    {
      "Name": "REF",
      "Type": "Field",
      "Description": ""
    },
    {
      "Name": "SYMBOL",
      "Type": "Field",
      "Description": ""
    }
  ]
}