{
  "Name": "DCTEMPLETPOSDIST",
  "Type": "Table",
  "Description": "PR39604;",
  "Children": [
    {
      "Name": "CREDIT",
      "Type": "Field",
      "Description": ""
    },
    {
      "Name": "DCTEMPLETPOS",
      "Type": "Field",
      "Description": ""
    },
    {
      "Name": "DEBIT",
      "Type": "Field",
      "Description": ""
    },
    {
      "Name": "DESCRIPT",
      "Type": "Field",
      "Description": ""
    },
    {
      "Name": "DIST1DEF",
      "Type": "Field",
      "Description": ""
    },
    {
      "Name": "DIST1SYMBOL",
      "Type": "Field",
      "Description": ""
    },
    {
      "Name": "DIST2DEF",
      "Type": "Field",
      "Description": ""
    },
    {
      "Name": "DIST2SYMBOL",
      "Type": "Field",
      "Description": ""
    },
    {
      "Name": "DIST3DEF",
      "Type": "Field",
      "Description": ""
    },
    {
      "Name": "DIST3SYMBOL",
      "Type": "Field",
      "Description": ""
    },
    {
      "Name": "DIST4DEF",
      "Type": "Field",
      "Description": ""
    },
    {
      "Name": "DIST4SYMBOL",
      "Type": "Field",
      "Description": ""
    },
    {
      "Name": "DIST5DEF",
      "Type": "Field",
      "Description": ""
    },
    {
      "Name": "DIST5SYMBOL",
      "Type": "Field",
      "Description": ""
    },
    {
      "Name": "DIST6DEF",
      "Type": "Field",
      "Description": ""
    },
    {
      "Name": "DIST6SYMBOL",
      "Type": "Field",
      "Description": ""
    },
    {
      "Name": "REF",
      "Type": "Field",
      "Description": ""
    }
  ]
}