{
  "Name": "DEFBLEDY",
  "Type": "Table",
  "Description": "typy błedów",
  "Children": [
    {
      "Name": "REF",
      "Type": "Field",
      "Description": ""
    },
    {
      "Name": "STATE",
      "Type": "Field",
      "Description": ""
    },
    {
      "Name": "TEKST",
      "Type": "Field",
      "Description": ""
    }
  ]
}