{
  "Name": "DEFDOKWIT",
  "Type": "Table",
  "Description": "Tabela zawiera definicje dokumentów witryny.\r\n\r\nWięzy\r\n- pole FORMA związane z polem ODEFFORMY.SYMBOL",
  "Children": [
    {
      "Name": "FORMA",
      "Type": "Field",
      "Description": ""
    },
    {
      "Name": "ID",
      "Type": "Field",
      "Description": ""
    },
    {
      "Name": "REF",
      "Type": "Field",
      "Description": ""
    },
    {
      "Name": "STATE",
      "Type": "Field",
      "Description": ""
    },
    {
      "Name": "TYTUL",
      "Type": "Field",
      "Description": ""
    }
  ]
}