{
  "Name": "DEFOPERWER",
  "Type": "Table",
  "Description": "Rekord tabeli zawiera definicję weryfikacji\r\npojedynczego pola na zamówieniu.\r\n\r\nWięzy:\r\n- pole OPERACJA związane z polem DEFOPERZAM.SYMBOL (cascade)\r\n\r\nNowe pola:\r\n- TYP - typ weryfikacji\r\n   ZAM - weryfikacja zamówienia\r\n   ROZ - rozpisanie zamówienia\r\n   MOD - modyfikacje zamówienia\r\n   MAG - operacje magazynowe\r\n   FAK - wystawienie faktury\r\n   LIS - obsluga listy przewozowej\r\n   WYD - weryfikacja warunków wydruku\r\n\r\n- WYDRUK - numer wydruku na liście wydruków\r\n- WYNIK - czy dana weryfikacja zrywa całosc operacji, czy tylko anuluje biezacy etap weryfikowany\r\n        - 0 - zrywa operacje\r\n        - 1 - omija etap oeracji\r\n        - weryfikacje ZAM moga byc jedynie rwace\r\n- PRZED - 0 - po danym etapie/operacji. Mogą byc jedynie z wynikiem = 0\r\n        - 1 - przed danym etapem operacji",
  "Children": [
    {
      "Name": "NUMER",
      "Type": "Field",
      "Description": ""
    },
    {
      "Name": "OPERACJA",
      "Type": "Field",
      "Description": ""
    },
    {
      "Name": "ORD",
      "Type": "Field",
      "Description": ""
    },
    {
      "Name": "PARAMETR",
      "Type": "Field",
      "Description": ""
    },
    {
      "Name": "POLE",
      "Type": "Field",
      "Description": ""
    },
    {
      "Name": "PRZED",
      "Type": "Field",
      "Description": ""
    },
    {
      "Name": "REF",
      "Type": "Field",
      "Description": ""
    },
    {
      "Name": "REGULA",
      "Type": "Field",
      "Description": ""
    },
    {
      "Name": "TRESC",
      "Type": "Field",
      "Description": ""
    },
    {
      "Name": "TYP",
      "Type": "Field",
      "Description": ""
    },
    {
      "Name": "WYNIK",
      "Type": "Field",
      "Description": ""
    },
    {
      "Name": "ZAMPOZ",
      "Type": "Field",
      "Description": ""
    }
  ]
}