{
  "Name": "DEFREJZAM",
  "Type": "Table",
  "Description": "Rekord tabeli zawiera definicję rejestru zamówień.\r\n\r\nSTANMAG - domyślny stan rezerwacji zamówienia zakładanego \r\n  w danym rejestrze\r\nDLAWYSYLKI - zamowienia z tego rejestru są brane pod uwage przy dodawaniu \r\n  zamówień do listy wyslkowej (jesli nei posiadaja przypisanej wysylki)",
  "Children": [
    {
      "Name": "ALTALLOW",
      "Type": "Field",
      "Description": ""
    },
    {
      "Name": "ARCHIWALNY",
      "Type": "Field",
      "Description": ""
    },
    {
      "Name": "CHECKILOSC",
      "Type": "Field",
      "Description": ""
    },
    {
      "Name": "CHECKKLIENTPR",
      "Type": "Field",
      "Description": ""
    },
    {
      "Name": "DLAWYSYLKI",
      "Type": "Field",
      "Description": ""
    },
    {
      "Name": "DODPOZ",
      "Type": "Field",
      "Description": ""
    },
    {
      "Name": "DODZAM",
      "Type": "Field",
      "Description": ""
    },
    {
      "Name": "EDITSERIAL",
      "Type": "Field",
      "Description": ""
    },
    {
      "Name": "GENPOZ",
      "Type": "Field",
      "Description": ""
    },
    {
      "Name": "GRUPA",
      "Type": "Field",
      "Description": ""
    },
    {
      "Name": "GRUPAICON",
      "Type": "Field",
      "Description": ""
    },
    {
      "Name": "GRUPANR",
      "Type": "Field",
      "Description": ""
    },
    {
      "Name": "MODARD",
      "Type": "Field",
      "Description": ""
    },
    {
      "Name": "MODDATA",
      "Type": "Field",
      "Description": ""
    },
    {
      "Name": "MODMAG",
      "Type": "Field",
      "Description": ""
    },
    {
      "Name": "MODMAG2",
      "Type": "Field",
      "Description": ""
    },
    {
      "Name": "MODPOZ",
      "Type": "Field",
      "Description": ""
    },
    {
      "Name": "MODSDO",
      "Type": "Field",
      "Description": ""
    },
    {
      "Name": "MODSZA",
      "Type": "Field",
      "Description": ""
    },
    {
      "Name": "MODTDO",
      "Type": "Field",
      "Description": ""
    },
    {
      "Name": "MODTZA",
      "Type": "Field",
      "Description": ""
    },
    {
      "Name": "MODZAM",
      "Type": "Field",
      "Description": ""
    },
    {
      "Name": "NAZWA",
      "Type": "Field",
      "Description": ""
    },
    {
      "Name": "NAZWADRUK",
      "Type": "Field",
      "Description": ""
    },
    {
      "Name": "NUMBER_GEN",
      "Type": "Field",
      "Description": ""
    },
    {
      "Name": "POPCENN",
      "Type": "Field",
      "Description": ""
    },
    {
      "Name": "POPCENW",
      "Type": "Field",
      "Description": ""
    },
    {
      "Name": "POPILO",
      "Type": "Field",
      "Description": ""
    },
    {
      "Name": "POPKTM",
      "Type": "Field",
      "Description": ""
    },
    {
      "Name": "POPWER",
      "Type": "Field",
      "Description": ""
    },
    {
      "Name": "POZFILTR",
      "Type": "Field",
      "Description": ""
    },
    {
      "Name": "REDUSL",
      "Type": "Field",
      "Description": ""
    },
    {
      "Name": "RIGHTALTALLOW",
      "Type": "Field",
      "Description": ""
    },
    {
      "Name": "RIGHTDODPOZ",
      "Type": "Field",
      "Description": ""
    },
    {
      "Name": "RIGHTDODZAM",
      "Type": "Field",
      "Description": ""
    },
    {
      "Name": "RIGHTGENPOZ",
      "Type": "Field",
      "Description": ""
    },
    {
      "Name": "RIGHTMODARD",
      "Type": "Field",
      "Description": ""
    },
    {
      "Name": "RIGHTMODMAG",
      "Type": "Field",
      "Description": ""
    },
    {
      "Name": "RIGHTMODMAG2",
      "Type": "Field",
      "Description": ""
    },
    {
      "Name": "RIGHTMODPOZ",
      "Type": "Field",
      "Description": ""
    },
    {
      "Name": "RIGHTMODSDO",
      "Type": "Field",
      "Description": ""
    },
    {
      "Name": "RIGHTMODSZA",
      "Type": "Field",
      "Description": ""
    },
    {
      "Name": "RIGHTMODTDO",
      "Type": "Field",
      "Description": ""
    },
    {
      "Name": "RIGHTMODTZA",
      "Type": "Field",
      "Description": ""
    },
    {
      "Name": "RIGHTMODZAM",
      "Type": "Field",
      "Description": ""
    },
    {
      "Name": "RIGHTPOPCENN",
      "Type": "Field",
      "Description": ""
    },
    {
      "Name": "RIGHTPOPCENW",
      "Type": "Field",
      "Description": ""
    },
    {
      "Name": "RIGHTPOPILO",
      "Type": "Field",
      "Description": ""
    },
    {
      "Name": "RIGHTPOPKTM",
      "Type": "Field",
      "Description": ""
    },
    {
      "Name": "RIGHTPOPWER",
      "Type": "Field",
      "Description": ""
    },
    {
      "Name": "RIGHTUSUPOZ",
      "Type": "Field",
      "Description": ""
    },
    {
      "Name": "RIGHTUSUZAM",
      "Type": "Field",
      "Description": ""
    },
    {
      "Name": "STAN",
      "Type": "Field",
      "Description": ""
    },
    {
      "Name": "STANMAG",
      "Type": "Field",
      "Description": ""
    },
    {
      "Name": "STATE",
      "Type": "Field",
      "Description": ""
    },
    {
      "Name": "SYMBOL",
      "Type": "Field",
      "Description": ""
    },
    {
      "Name": "SZKICE",
      "Type": "Field",
      "Description": ""
    },
    {
      "Name": "TOKEN",
      "Type": "Field",
      "Description": ""
    },
    {
      "Name": "TYPZAM",
      "Type": "Field",
      "Description": ""
    },
    {
      "Name": "USUNPOCHODNE",
      "Type": "Field",
      "Description": ""
    },
    {
      "Name": "USUPOZ",
      "Type": "Field",
      "Description": ""
    },
    {
      "Name": "USUZAM",
      "Type": "Field",
      "Description": ""
    }
  ]
}