{
  "Name": "DEFZADAN",
  "Type": "Table",
  "Description": "tabela zawiera typy zada? z CRM\r\nREJDOK:\r\n- 0 = nic\r\n- 1 = twórz nowy\r\n- 2 = kopiuj dokument z...\r\n- 3 = przenieś dokument z...\r\nREDAGDOK:\r\n- 1 = redaguj dokument\r\nSEGREGATOR - domyslny segr. docelowy dokumentu",
  "Children": [
    {
      "Name": "AUTOZREAL",
      "Type": "Field",
      "Description": ""
    },
    {
      "Name": "CHARAKTER",
      "Type": "Field",
      "Description": ""
    },
    {
      "Name": "CPL",
      "Type": "Field",
      "Description": ""
    },
    {
      "Name": "CPLDEFOPER",
      "Type": "Field",
      "Description": ""
    },
    {
      "Name": "DOKUMENTY",
      "Type": "Field",
      "Description": ""
    },
    {
      "Name": "DOMSTATUS",
      "Type": "Field",
      "Description": ""
    },
    {
      "Name": "DOMYSLNE",
      "Type": "Field",
      "Description": ""
    },
    {
      "Name": "FOLDER",
      "Type": "Field",
      "Description": ""
    },
    {
      "Name": "ILPKT",
      "Type": "Field",
      "Description": ""
    },
    {
      "Name": "INOUT",
      "Type": "Field",
      "Description": ""
    },
    {
      "Name": "KOPIUJDOK",
      "Type": "Field",
      "Description": ""
    },
    {
      "Name": "KROKMILOWY",
      "Type": "Field",
      "Description": ""
    },
    {
      "Name": "OPIS",
      "Type": "Field",
      "Description": ""
    },
    {
      "Name": "OPISKON",
      "Type": "Field",
      "Description": ""
    },
    {
      "Name": "OPISOPER",
      "Type": "Field",
      "Description": ""
    },
    {
      "Name": "OPISZAD",
      "Type": "Field",
      "Description": ""
    },
    {
      "Name": "PLIKI",
      "Type": "Field",
      "Description": ""
    },
    {
      "Name": "PM",
      "Type": "Field",
      "Description": ""
    },
    {
      "Name": "REDAGDOK",
      "Type": "Field",
      "Description": ""
    },
    {
      "Name": "REDAGKON",
      "Type": "Field",
      "Description": ""
    },
    {
      "Name": "REDAGMAIL",
      "Type": "Field",
      "Description": ""
    },
    {
      "Name": "REDAGOPISWYK",
      "Type": "Field",
      "Description": ""
    },
    {
      "Name": "REDAGZAD",
      "Type": "Field",
      "Description": ""
    },
    {
      "Name": "REF",
      "Type": "Field",
      "Description": ""
    },
    {
      "Name": "REJDOK",
      "Type": "Field",
      "Description": ""
    },
    {
      "Name": "RODZAJ",
      "Type": "Field",
      "Description": ""
    },
    {
      "Name": "SEGREGATOR",
      "Type": "Field",
      "Description": ""
    },
    {
      "Name": "SLODEF",
      "Type": "Field",
      "Description": ""
    },
    {
      "Name": "STATUS",
      "Type": "Field",
      "Description": ""
    },
    {
      "Name": "TWORZCPLOPER",
      "Type": "Field",
      "Description": ""
    },
    {
      "Name": "TWORZKON",
      "Type": "Field",
      "Description": ""
    },
    {
      "Name": "TYPPKT",
      "Type": "Field",
      "Description": ""
    },
    {
      "Name": "WYDARZENIE",
      "Type": "Field",
      "Description": ""
    },
    {
      "Name": "WYDRUKI",
      "Type": "Field",
      "Description": ""
    },
    {
      "Name": "WYSMAIL",
      "Type": "Field",
      "Description": ""
    },
    {
      "Name": "WZORZEC",
      "Type": "Field",
      "Description": ""
    },
    {
      "Name": "ZMIENSTATUS",
      "Type": "Field",
      "Description": ""
    }
  ]
}