{
  "Name": "DOKUMNOT",
  "Type": "Table",
  "Description": "Naglowki not korygujacych magazynowych.\r\n\r\n\r\nDOKUMNAGKOR - jesli nota jest redagowana, do do konkretnego dokumentu \r\nprzychodowego z pozycjami niezaleznymi.\r\n\r\nWARTOSC - wartosc korekty\r\nFAKTURA - jesli dokument zostal wygenerowany przez dok. VAT, to wóczas ma tu powiazanie\r\nGRUPA - identyfikator grupy dokumentów. Następuje automatyczne akceptowanie dokumentów całej grupy.",
  "Children": [
    {
      "Name": "AKCEPT",
      "Type": "Field",
      "Description": ""
    },
    {
      "Name": "BKBLOCK",
      "Type": "Field",
      "Description": ""
    },
    {
      "Name": "BKBLOCKDESCRIPT",
      "Type": "Field",
      "Description": ""
    },
    {
      "Name": "BLOKADA",
      "Type": "Field",
      "Description": ""
    },
    {
      "Name": "COMPANY",
      "Type": "Field",
      "Description": ""
    },
    {
      "Name": "DATA",
      "Type": "Field",
      "Description": ""
    },
    {
      "Name": "DATAAKC",
      "Type": "Field",
      "Description": ""
    },
    {
      "Name": "DOKUMNAGKOR",
      "Type": "Field",
      "Description": ""
    },
    {
      "Name": "FAKTURA",
      "Type": "Field",
      "Description": ""
    },
    {
      "Name": "GRUPA",
      "Type": "Field",
      "Description": ""
    },
    {
      "Name": "MAG2",
      "Type": "Field",
      "Description": ""
    },
    {
      "Name": "MAGAZYN",
      "Type": "Field",
      "Description": ""
    },
    {
      "Name": "NUMER",
      "Type": "Field",
      "Description": ""
    },
    {
      "Name": "ODDZIAL",
      "Type": "Field",
      "Description": ""
    },
    {
      "Name": "OKRES",
      "Type": "Field",
      "Description": ""
    },
    {
      "Name": "OLDBKDOCNUM",
      "Type": "Field",
      "Description": ""
    },
    {
      "Name": "OPERATOR",
      "Type": "Field",
      "Description": ""
    },
    {
      "Name": "REF",
      "Type": "Field",
      "Description": ""
    },
    {
      "Name": "RODZAJ",
      "Type": "Field",
      "Description": ""
    },
    {
      "Name": "SLODEF",
      "Type": "Field",
      "Description": ""
    },
    {
      "Name": "SLOPOZ",
      "Type": "Field",
      "Description": ""
    },
    {
      "Name": "STATE",
      "Type": "Field",
      "Description": ""
    },
    {
      "Name": "SYMBOL",
      "Type": "Field",
      "Description": ""
    },
    {
      "Name": "TOKEN",
      "Type": "Field",
      "Description": ""
    },
    {
      "Name": "TYP",
      "Type": "Field",
      "Description": ""
    },
    {
      "Name": "UWAGI",
      "Type": "Field",
      "Description": ""
    },
    {
      "Name": "WARTOSC",
      "Type": "Field",
      "Description": ""
    },
    {
      "Name": "WASDEAKCEPT",
      "Type": "Field",
      "Description": ""
    }
  ]
}