{
  "Name": "DZIALATR",
  "Type": "Table",
  "Description": "Rekord opisuje atrybut artykułu.\r\n\r\nWięzy:\r\n- pole ARTYKUL związane z polem ARTYKULY.REF",
  "Children": [
    {
      "Name": "ARTYKUL",
      "Type": "Field",
      "Description": ""
    },
    {
      "Name": "DEFDZIALATR",
      "Type": "Field",
      "Description": ""
    },
    {
      "Name": "NAZWA",
      "Type": "Field",
      "Description": ""
    },
    {
      "Name": "NUMER",
      "Type": "Field",
      "Description": ""
    },
    {
      "Name": "REF",
      "Type": "Field",
      "Description": ""
    },
    {
      "Name": "WARTOSC",
      "Type": "Field",
      "Description": ""
    }
  ]
}