{
  "Name": "EASEMPLAPPR",
  "Type": "Table",
  "Description": "PR02877",
  "Children": [
    {
      "Name": "APPRDATE",
      "Type": "Field",
      "Description": ""
    },
    {
      "Name": "APPREMPLOYEE",
      "Type": "Field",
      "Description": ""
    },
    {
      "Name": "EASSETOFCOMP",
      "Type": "Field",
      "Description": ""
    },
    {
      "Name": "EMPLNOTICE",
      "Type": "Field",
      "Description": ""
    },
    {
      "Name": "EMPLOYEE",
      "Type": "Field",
      "Description": ""
    },
    {
      "Name": "ENDRATE",
      "Type": "Field",
      "Description": ""
    },
    {
      "Name": "REASONS",
      "Type": "Field",
      "Description": ""
    },
    {
      "Name": "REF",
      "Type": "Field",
      "Description": ""
    }
  ]
}