{
  "Name": "EASRESULT",
  "Type": "Table",
  "Description": "PR02877",
  "Children": [
    {
      "Name": "EASEMPLAPPR",
      "Type": "Field",
      "Description": ""
    },
    {
      "Name": "EASSETOFCOMP",
      "Type": "Field",
      "Description": ""
    },
    {
      "Name": "NAME",
      "Type": "Field",
      "Description": ""
    },
    {
      "Name": "REF",
      "Type": "Field",
      "Description": ""
    }
  ]
}