{
  "Name": "ECALDAYS",
  "Type": "Table",
  "Description": "BS76187;\r\n\r\ntabela zawiera dni kalendarza z Personel",
  "Children": [
    {
      "Name": "CALENDAR",
      "Type": "Field",
      "Description": ""
    },
    {
      "Name": "CDATE",
      "Type": "Field",
      "Description": ""
    },
    {
      "Name": "CDAY",
      "Type": "Field",
      "Description": ""
    },
    {
      "Name": "CMONTH",
      "Type": "Field",
      "Description": ""
    },
    {
      "Name": "CYEAR",
      "Type": "Field",
      "Description": ""
    },
    {
      "Name": "DAYKIND",
      "Type": "Field",
      "Description": ""
    },
    {
      "Name": "DAYOFWEEK",
      "Type": "Field",
      "Description": ""
    },
    {
      "Name": "DESCRIPT",
      "Type": "Field",
      "Description": ""
    },
    {
      "Name": "PRWORKTIME",
      "Type": "Field",
      "Description": ""
    },
    {
      "Name": "REF",
      "Type": "Field",
      "Description": ""
    },
    {
      "Name": "WORKEND",
      "Type": "Field",
      "Description": ""
    },
    {
      "Name": "WORKEND2",
      "Type": "Field",
      "Description": ""
    },
    {
      "Name": "WORKENDSTR",
      "Type": "Field",
      "Description": ""
    },
    {
      "Name": "WORKENDSTR2",
      "Type": "Field",
      "Description": ""
    },
    {
      "Name": "WORKHOURS",
      "Type": "Field",
      "Description": ""
    },
    {
      "Name": "WORKSTART",
      "Type": "Field",
      "Description": ""
    },
    {
      "Name": "WORKSTART2",
      "Type": "Field",
      "Description": ""
    },
    {
      "Name": "WORKSTARTSTR",
      "Type": "Field",
      "Description": ""
    },
    {
      "Name": "WORKSTARTSTR2",
      "Type": "Field",
      "Description": ""
    },
    {
      "Name": "WORKTIME",
      "Type": "Field",
      "Description": ""
    },
    {
      "Name": "WORKTIMESTR",
      "Type": "Field",
      "Description": ""
    }
  ]
}