{
  "Name": "ECANDIDATES",
  "Type": "Table",
  "Description": "tabela zawiera kandydatów z Personel\r\nOstatnia akcja w której brali udzial",
  "Children": [
    {
      "Name": "AVAILABLEDATE",
      "Type": "Field",
      "Description": ""
    },
    {
      "Name": "BIRTHDATE",
      "Type": "Field",
      "Description": ""
    },
    {
      "Name": "BIRTHYEAR",
      "Type": "Field",
      "Description": ""
    },
    {
      "Name": "CITY",
      "Type": "Field",
      "Description": ""
    },
    {
      "Name": "CONTACT",
      "Type": "Field",
      "Description": ""
    },
    {
      "Name": "DEPARTMENTSTUDY",
      "Type": "Field",
      "Description": ""
    },
    {
      "Name": "DESCRIPT",
      "Type": "Field",
      "Description": ""
    },
    {
      "Name": "EDUCATION",
      "Type": "Field",
      "Description": ""
    },
    {
      "Name": "EMAIL",
      "Type": "Field",
      "Description": ""
    },
    {
      "Name": "EMPLOYED",
      "Type": "Field",
      "Description": ""
    },
    {
      "Name": "EMPLOYEE",
      "Type": "Field",
      "Description": ""
    },
    {
      "Name": "FIELDOFSTUDY",
      "Type": "Field",
      "Description": ""
    },
    {
      "Name": "FNAME",
      "Type": "Field",
      "Description": ""
    },
    {
      "Name": "LASTRECRUIT",
      "Type": "Field",
      "Description": ""
    },
    {
      "Name": "PERSONNAMES",
      "Type": "Field",
      "Description": ""
    },
    {
      "Name": "PHONE",
      "Type": "Field",
      "Description": ""
    },
    {
      "Name": "POSTCODE",
      "Type": "Field",
      "Description": ""
    },
    {
      "Name": "REF",
      "Type": "Field",
      "Description": ""
    },
    {
      "Name": "REFERRER",
      "Type": "Field",
      "Description": ""
    },
    {
      "Name": "REGDATE",
      "Type": "Field",
      "Description": ""
    },
    {
      "Name": "REGOPER",
      "Type": "Field",
      "Description": ""
    },
    {
      "Name": "SALEXPECTATION",
      "Type": "Field",
      "Description": ""
    },
    {
      "Name": "SALPROPOSITION",
      "Type": "Field",
      "Description": ""
    },
    {
      "Name": "SEX",
      "Type": "Field",
      "Description": ""
    },
    {
      "Name": "SNAME",
      "Type": "Field",
      "Description": ""
    },
    {
      "Name": "STREET",
      "Type": "Field",
      "Description": ""
    },
    {
      "Name": "SUBMITDATE",
      "Type": "Field",
      "Description": ""
    },
    {
      "Name": "YEAROFSTUDY",
      "Type": "Field",
      "Description": ""
    }
  ]
}