{
  "Name": "ECOLTYPES",
  "Type": "Table",
  "Description": "Predefiniowane typy rubryk:\r\n1-Standardowa\r\n2-Nieobecnosci\r\n3-Kredyt\r\n4-Skladka",
  "Children": [
    {
      "Name": "COLTYPE",
      "Type": "Field",
      "Description": ""
    },
    {
      "Name": "DECRIPT",
      "Type": "Field",
      "Description": ""
    },
    {
      "Name": "ISUNIQUE",
      "Type": "Field",
      "Description": ""
    }
  ]
}