{
  "Name": "ECONTRTYPECONDITS",
  "Type": "Table",
  "Description": "PR60106;",
  "Children": [
    {
      "Name": "COMPANY",
      "Type": "Field",
      "Description": ""
    },
    {
      "Name": "CONTRCONDIT",
      "Type": "Field",
      "Description": ""
    },
    {
      "Name": "CONTRTYPE",
      "Type": "Field",
      "Description": ""
    }
  ]
}