{
  "Name": "ECREDINSTALS",
  "Type": "Table",
  "Description": "moduł Personel, raty kredytów",
  "Children": [
    {
      "Name": "CREDIT",
      "Type": "Field",
      "Description": ""
    },
    {
      "Name": "DOCUMENT",
      "Type": "Field",
      "Description": ""
    },
    {
      "Name": "EPRPOS",
      "Type": "Field",
      "Description": ""
    },
    {
      "Name": "INSTDATE",
      "Type": "Field",
      "Description": ""
    },
    {
      "Name": "INSVALUE",
      "Type": "Field",
      "Description": ""
    },
    {
      "Name": "REF",
      "Type": "Field",
      "Description": ""
    }
  ]
}