{
  "Name": "EDAYKINDS",
  "Type": "Table",
  "Description": "PR53741;",
  "Children": [
    {
      "Name": "DAYKIND",
      "Type": "Field",
      "Description": ""
    },
    {
      "Name": "DAYTYPE",
      "Type": "Field",
      "Description": ""
    },
    {
      "Name": "FULLNAME",
      "Type": "Field",
      "Description": ""
    },
    {
      "Name": "NAME",
      "Type": "Field",
      "Description": ""
    },
    {
      "Name": "REF",
      "Type": "Field",
      "Description": ""
    }
  ]
}