{
  "Name": "EDECLPOS",
  "Type": "Table",
  "Description": "PR29134",
  "Children": [
    {
      "Name": "EDECLARATION",
      "Type": "Field",
      "Description": ""
    },
    {
      "Name": "EDECLPOSDEF",
      "Type": "Field",
      "Description": "PR36269;PR106431;"
    },
    {
      "Name": "FIELD",
      "Type": "Field",
      "Description": ""
    },
    {
      "Name": "FIELDSYMBOL",
      "Type": "Field",
      "Description": ""
    },
    {
      "Name": "ORIGIN",
      "Type": "Field",
      "Description": ""
    },
    {
      "Name": "PVALUE",
      "Type": "Field",
      "Description": ""
    },
    {
      "Name": "REF",
      "Type": "Field",
      "Description": ""
    }
  ]
}