{
  "Name": "EDELCALCPARS",
  "Type": "Table",
  "Description": "PR02410",
  "Children": [
    {
      "Name": "CALC",
      "Type": "Field",
      "Description": ""
    },
    {
      "Name": "DESCRIPT",
      "Type": "Field",
      "Description": ""
    },
    {
      "Name": "DVALUE",
      "Type": "Field",
      "Description": ""
    },
    {
      "Name": "SYMBOL",
      "Type": "Field",
      "Description": ""
    }
  ]
}