{
  "Name": "EDELCALCS",
  "Type": "Table",
  "Description": "PR02410",
  "Children": [
    {
      "Name": "DESCRIPT",
      "Type": "Field",
      "Description": ""
    },
    {
      "Name": "SQLPROC",
      "Type": "Field",
      "Description": ""
    },
    {
      "Name": "SYMBOL",
      "Type": "Field",
      "Description": ""
    }
  ]
}