{
  "Name": "EDELDAYS",
  "Type": "Table",
  "Description": "PR02410",
  "Children": [
    {
      "Name": "ACCOMMODATION",
      "Type": "Field",
      "Description": ""
    },
    {
      "Name": "BREAKFAST",
      "Type": "Field",
      "Description": ""
    },
    {
      "Name": "CITYTRANSPORT",
      "Type": "Field",
      "Description": ""
    },
    {
      "Name": "DAYCOUNTER",
      "Type": "Field",
      "Description": ""
    },
    {
      "Name": "DELEGATION",
      "Type": "Field",
      "Description": ""
    },
    {
      "Name": "DINNER",
      "Type": "Field",
      "Description": ""
    },
    {
      "Name": "FROMDATE",
      "Type": "Field",
      "Description": ""
    },
    {
      "Name": "HOURS",
      "Type": "Field",
      "Description": ""
    },
    {
      "Name": "INCOUNTRY",
      "Type": "Field",
      "Description": ""
    },
    {
      "Name": "MEALS",
      "Type": "Field",
      "Description": ""
    },
    {
      "Name": "NOTTOCOUNT",
      "Type": "Field",
      "Description": ""
    },
    {
      "Name": "REF",
      "Type": "Field",
      "Description": ""
    },
    {
      "Name": "SUPPER",
      "Type": "Field",
      "Description": ""
    },
    {
      "Name": "TOAIRPORT",
      "Type": "Field",
      "Description": ""
    }
  ]
}