{
  "Name": "EDICTLANGS",
  "Type": "Table",
  "Description": "modul Personel, slownik jezyków dla kartoteki ELANGSKILLS",
  "Children": [
    {
      "Name": "LANGUAGE",
      "Type": "Field",
      "Description": ""
    },
    {
      "Name": "REF",
      "Type": "Field",
      "Description": ""
    }
  ]
}