{
  "Name": "EDICTWORKSYSTEMS",
  "Type": "Table",
  "Description": "PR27532",
  "Children": [
    {
      "Name": "FULLNAME",
      "Type": "Field",
      "Description": ""
    },
    {
      "Name": "NORM_PER_DAY",
      "Type": "Field",
      "Description": ""
    },
    {
      "Name": "NORM_PER_WEEK",
      "Type": "Field",
      "Description": ""
    },
    {
      "Name": "REF",
      "Type": "Field",
      "Description": ""
    },
    {
      "Name": "SHORTNAME",
      "Type": "Field",
      "Description": ""
    }
  ]
}