{
  "Name": "EDICTETERMINATIONS",
  "Type": "Table",
  "Description": "PR23959",
  "Children": [
    {
      "Name": "DESCRIPT",
      "Type": "Field",
      "Description": ""
    },
    {
      "Name": "REF",
      "Type": "Field",
      "Description": ""
    }
  ]
}