{
  "Name": "EFUNDS",
  "Type": "Table",
  "Description": "moduł Personel, ró.nego rodzaju fundusze, w których pracownicy gromadza swoje składki.\r\nFundusz Socjalny - Skadki",
  "Children": [
    {
      "Name": "COMPANY",
      "Type": "Field",
      "Description": ""
    },
    {
      "Name": "DEPOSIT",
      "Type": "Field",
      "Description": ""
    },
    {
      "Name": "EMPLOYEE",
      "Type": "Field",
      "Description": ""
    },
    {
      "Name": "ENTERDATE",
      "Type": "Field",
      "Description": ""
    },
    {
      "Name": "ENTRYFEE",
      "Type": "Field",
      "Description": ""
    },
    {
      "Name": "FUNDTYPE",
      "Type": "Field",
      "Description": ""
    },
    {
      "Name": "PREMIUM",
      "Type": "Field",
      "Description": ""
    },
    {
      "Name": "REF",
      "Type": "Field",
      "Description": ""
    }
  ]
}