{
  "Name": "EMPLTRAININGS",
  "Type": "Table",
  "Description": "moduł Personel, szkolenia przebyte przez pracowników.",
  "Children": [
    {
      "Name": "COMPLDATE",
      "Type": "Field",
      "Description": ""
    },
    {
      "Name": "EMPLOYEE",
      "Type": "Field",
      "Description": ""
    },
    {
      "Name": "LOYALITYFROM",
      "Type": "Field",
      "Description": ""
    },
    {
      "Name": "LOYALITYTO",
      "Type": "Field",
      "Description": ""
    },
    {
      "Name": "MARK",
      "Type": "Field",
      "Description": ""
    },
    {
      "Name": "REF",
      "Type": "Field",
      "Description": ""
    },
    {
      "Name": "STATUS",
      "Type": "Field",
      "Description": ""
    },
    {
      "Name": "TRAINING",
      "Type": "Field",
      "Description": ""
    }
  ]
}