{
  "Name": "EPAYROLLS",
  "Type": "Table",
  "Description": "Personel: dane dotyczace plac. W zaleznosci o rodzaju umowy z pracownikiem (EMPLTYPE) sa to:\r\n1 - Listy plac\r\n2 - rachunki do umów zleceń\r\n3 - Wyplaty dla Rady nadzorczej",
  "Children": [
    {
      "Name": "ADVANCE",
      "Type": "Field",
      "Description": ""
    },
    {
      "Name": "BAILIFFBTR",
      "Type": "Field",
      "Description": ""
    },
    {
      "Name": "BILLDATE",
      "Type": "Field",
      "Description": ""
    },
    {
      "Name": "BTRANSFER",
      "Type": "Field",
      "Description": ""
    },
    {
      "Name": "COMPANY",
      "Type": "Field",
      "Description": ""
    },
    {
      "Name": "CORLUMPSUMTAX",
      "Type": "Field",
      "Description": ""
    },
    {
      "Name": "CPER",
      "Type": "Field",
      "Description": ""
    },
    {
      "Name": "DESCRIPT",
      "Type": "Field",
      "Description": ""
    },
    {
      "Name": "EALGTYPE",
      "Type": "Field",
      "Description": ""
    },
    {
      "Name": "EHRMSTATUS",
      "Type": "Field",
      "Description": ""
    },
    {
      "Name": "EMPLCONTRACT",
      "Type": "Field",
      "Description": ""
    },
    {
      "Name": "EMPLTYPE",
      "Type": "Field",
      "Description": ""
    },
    {
      "Name": "ESYMBOL",
      "Type": "Field",
      "Description": ""
    },
    {
      "Name": "IPER",
      "Type": "Field",
      "Description": ""
    },
    {
      "Name": "ISADDIT",
      "Type": "Field",
      "Description": ""
    },
    {
      "Name": "LUMPSUMTAX",
      "Type": "Field",
      "Description": ""
    },
    {
      "Name": "NAME",
      "Type": "Field",
      "Description": ""
    },
    {
      "Name": "NUMBER",
      "Type": "Field",
      "Description": ""
    },
    {
      "Name": "PAYDAY",
      "Type": "Field",
      "Description": ""
    },
    {
      "Name": "PRTYPE",
      "Type": "Field",
      "Description": ""
    },
    {
      "Name": "PVALUE",
      "Type": "Field",
      "Description": ""
    },
    {
      "Name": "REF",
      "Type": "Field",
      "Description": ""
    },
    {
      "Name": "REGDATE",
      "Type": "Field",
      "Description": ""
    },
    {
      "Name": "SEPARATE",
      "Type": "Field",
      "Description": ""
    },
    {
      "Name": "SREF",
      "Type": "Field",
      "Description": ""
    },
    {
      "Name": "STABLE",
      "Type": "Field",
      "Description": ""
    },
    {
      "Name": "STATUS",
      "Type": "Field",
      "Description": ""
    },
    {
      "Name": "SYMBOL",
      "Type": "Field",
      "Description": ""
    },
    {
      "Name": "TOSBASE",
      "Type": "Field",
      "Description": ""
    },
    {
      "Name": "TOVBASE",
      "Type": "Field",
      "Description": ""
    },
    {
      "Name": "TPER",
      "Type": "Field",
      "Description": ""
    }
  ]
}