{
  "Name": "EPERPENSION",
  "Type": "Table",
  "Description": "PR16401",
  "Children": [
    {
      "Name": "FROMDATE",
      "Type": "Field",
      "Description": ""
    },
    {
      "Name": "NUMBER",
      "Type": "Field",
      "Description": ""
    },
    {
      "Name": "ORDERBY",
      "Type": "Field",
      "Description": ""
    },
    {
      "Name": "PERSON",
      "Type": "Field",
      "Description": "BS81346;BS106281;"
    },
    {
      "Name": "REF",
      "Type": "Field",
      "Description": ""
    },
    {
      "Name": "TODATE",
      "Type": "Field",
      "Description": ""
    },
    {
      "Name": "TYPEPENS",
      "Type": "Field",
      "Description": ""
    }
  ]
}