{
  "Name": "EQUESTPOSANSDEF",
  "Type": "Table",
  "Description": "PR58114",
  "Children": [
    {
      "Name": "DESCRIPT",
      "Type": "Field",
      "Description": ""
    },
    {
      "Name": "EQUESTPOSDEF",
      "Type": "Field",
      "Description": ""
    },
    {
      "Name": "LP",
      "Type": "Field",
      "Description": ""
    },
    {
      "Name": "REF",
      "Type": "Field",
      "Description": ""
    }
  ]
}