{
  "Name": "EQUESTHEADER",
  "Type": "Table",
  "Description": "PR58114",
  "Children": [
    {
      "Name": "ECANDIDATE",
      "Type": "Field",
      "Description": ""
    },
    {
      "Name": "ERECCAND",
      "Type": "Field",
      "Description": ""
    },
    {
      "Name": "ERECRUIT",
      "Type": "Field",
      "Description": ""
    },
    {
      "Name": "REF",
      "Type": "Field",
      "Description": ""
    },
    {
      "Name": "REGDATE",
      "Type": "Field",
      "Description": ""
    }
  ]
}