{
  "Name": "ERECATTR",
  "Type": "Table",
  "Description": "moduł Personel-rekrutacja, cechy wymagane do objecia wakatu.",
  "Children": [
    {
      "Name": "ATTRIBUTE",
      "Type": "Field",
      "Description": ""
    },
    {
      "Name": "RECPOST",
      "Type": "Field",
      "Description": ""
    },
    {
      "Name": "REF",
      "Type": "Field",
      "Description": ""
    },
    {
      "Name": "WEIGHT",
      "Type": "Field",
      "Description": ""
    }
  ]
}