{
  "Name": "ERECMARK",
  "Type": "Table",
  "Description": "PR58114",
  "Children": [
    {
      "Name": "DESCRIPT",
      "Type": "Field",
      "Description": ""
    },
    {
      "Name": "MARK",
      "Type": "Field",
      "Description": ""
    }
  ]
}