{
  "Name": "ERECSTATUS",
  "Type": "Table",
  "Description": "PR58114",
  "Children": [
    {
      "Name": "NAME",
      "Type": "Field",
      "Description": ""
    },
    {
      "Name": "REF",
      "Type": "Field",
      "Description": ""
    },
    {
      "Name": "REFUSECAUSE",
      "Type": "Field",
      "Description": ""
    },
    {
      "Name": "REPORT",
      "Type": "Field",
      "Description": ""
    },
    {
      "Name": "REPORTORDER",
      "Type": "Field",
      "Description": ""
    },
    {
      "Name": "TODO",
      "Type": "Field",
      "Description": ""
    },
    {
      "Name": "WAITING",
      "Type": "Field",
      "Description": ""
    }
  ]
}