{
  "Name": "EXPIMP",
  "Type": "Table",
  "Description": "tabela pomocnicza przy np. transferach (export/import i obróbka danych)",
  "Children": [
    {
      "Name": "REF",
      "Type": "Field",
      "Description": ""
    },
    {
      "Name": "S1",
      "Type": "Field",
      "Description": ""
    },
    {
      "Name": "S10",
      "Type": "Field",
      "Description": ""
    },
    {
      "Name": "S11",
      "Type": "Field",
      "Description": ""
    },
    {
      "Name": "S12",
      "Type": "Field",
      "Description": ""
    },
    {
      "Name": "S13",
      "Type": "Field",
      "Description": ""
    },
    {
      "Name": "S14",
      "Type": "Field",
      "Description": ""
    },
    {
      "Name": "S15",
      "Type": "Field",
      "Description": ""
    },
    {
      "Name": "S16",
      "Type": "Field",
      "Description": ""
    },
    {
      "Name": "S17",
      "Type": "Field",
      "Description": ""
    },
    {
      "Name": "S18",
      "Type": "Field",
      "Description": ""
    },
    {
      "Name": "S19",
      "Type": "Field",
      "Description": ""
    },
    {
      "Name": "S2",
      "Type": "Field",
      "Description": ""
    },
    {
      "Name": "S20",
      "Type": "Field",
      "Description": ""
    },
    {
      "Name": "S21",
      "Type": "Field",
      "Description": ""
    },
    {
      "Name": "S22",
      "Type": "Field",
      "Description": ""
    },
    {
      "Name": "S23",
      "Type": "Field",
      "Description": ""
    },
    {
      "Name": "S24",
      "Type": "Field",
      "Description": ""
    },
    {
      "Name": "S25",
      "Type": "Field",
      "Description": ""
    },
    {
      "Name": "S26",
      "Type": "Field",
      "Description": ""
    },
    {
      "Name": "S27",
      "Type": "Field",
      "Description": ""
    },
    {
      "Name": "S28",
      "Type": "Field",
      "Description": ""
    },
    {
      "Name": "S29",
      "Type": "Field",
      "Description": ""
    },
    {
      "Name": "S3",
      "Type": "Field",
      "Description": ""
    },
    {
      "Name": "S30",
      "Type": "Field",
      "Description": ""
    },
    {
      "Name": "S4",
      "Type": "Field",
      "Description": ""
    },
    {
      "Name": "S5",
      "Type": "Field",
      "Description": ""
    },
    {
      "Name": "S6",
      "Type": "Field",
      "Description": ""
    },
    {
      "Name": "S7",
      "Type": "Field",
      "Description": ""
    },
    {
      "Name": "S71",
      "Type": "Field",
      "Description": ""
    },
    {
      "Name": "S8",
      "Type": "Field",
      "Description": ""
    },
    {
      "Name": "S9",
      "Type": "Field",
      "Description": ""
    }
  ]
}