{
  "Name": "FRFTEMPVALS",
  "Type": "Table",
  "Description": "BS40441;",
  "Children": [
    {
      "Name": "FIELD_ID",
      "Type": "Field",
      "Description": ""
    },
    {
      "Name": "FRVHDR",
      "Type": "Field",
      "Description": ""
    },
    {
      "Name": "REF",
      "Type": "Field",
      "Description": ""
    },
    {
      "Name": "VAL",
      "Type": "Field",
      "Description": ""
    }
  ]
}