{
  "Name": "FRHDRS",
  "Type": "Table",
  "Description": "PR15163;\r\n\r\nnag?ówki definicji sprawozda? finansowych",
  "Children": [
    {
      "Name": "APPLICATION",
      "Type": "Field",
      "Description": ""
    },
    {
      "Name": "AUTOREFILLED",
      "Type": "Field",
      "Description": ""
    },
    {
      "Name": "CHKTYPE",
      "Type": "Field",
      "Description": ""
    },
    {
      "Name": "COMPANY",
      "Type": "Field",
      "Description": ""
    },
    {
      "Name": "FIRSTBO",
      "Type": "Field",
      "Description": ""
    },
    {
      "Name": "FRHDRTYPE",
      "Type": "Field",
      "Description": ""
    },
    {
      "Name": "FRPRECISION",
      "Type": "Field",
      "Description": ""
    },
    {
      "Name": "GENERALIZATION",
      "Type": "Field",
      "Description": ""
    },
    {
      "Name": "NAME",
      "Type": "Field",
      "Description": ""
    },
    {
      "Name": "PLANED",
      "Type": "Field",
      "Description": ""
    },
    {
      "Name": "PRINTERPATTERN",
      "Type": "Field",
      "Description": ""
    },
    {
      "Name": "RAPORTINGPERIOD",
      "Type": "Field",
      "Description": ""
    },
    {
      "Name": "SHORTNAME",
      "Type": "Field",
      "Description": ""
    },
    {
      "Name": "STATUS",
      "Type": "Field",
      "Description": ""
    },
    {
      "Name": "SYMBOL",
      "Type": "Field",
      "Description": ""
    },
    {
      "Name": "TIMEDIMEN",
      "Type": "Field",
      "Description": ""
    },
    {
      "Name": "TIMEFRDIMHIER",
      "Type": "Field",
      "Description": ""
    }
  ]
}