{
  "Name": "GRVAT",
  "Type": "Table",
  "Description": "tabela zawiera typy grup podatku VAT\r\nDEBITED\r\n0 - nie do odliczenia\r\n1 - podlegajacy odliczeniu\r\nVTYPE\r\n0 - zakup\r\n1 - sprzedaż",
  "Children": [
    {
      "Name": "DEBITED",
      "Type": "Field",
      "Description": ""
    },
    {
      "Name": "DEBITEDPROCENT",
      "Type": "Field",
      "Description": ""
    },
    {
      "Name": "DEFAULTDEBITTYPE",
      "Type": "Field",
      "Description": ""
    },
    {
      "Name": "DESCRIPT",
      "Type": "Field",
      "Description": ""
    },
    {
      "Name": "FUELREGISTRY",
      "Type": "Field",
      "Description": ""
    },
    {
      "Name": "SYMBOL",
      "Type": "Field",
      "Description": ""
    },
    {
      "Name": "VATREGTYPE",
      "Type": "Field",
      "Description": ""
    },
    {
      "Name": "VTYPE",
      "Type": "Field",
      "Description": ""
    }
  ]
}