{
  "Name": "HISTZAM",
  "Type": "Table",
  "Description": "Rekord tabela zawiera wpis z historii operacji\r\nwykonanych na zamówieniu.\r\n\r\nWięzy:\r\n- pole ZAMOWIENIE związane z polem NAGZAM.REF\r\n- pole OPERACJA związane z polem DEFOPERZAM.SYMBOL\r\n\r\nOgólenie w tabeli są wartości, jakie obowiązywały na nagłówku zamówienia PRZED wykonaniem operacji.\r\n- DATAZM - data wejścia do danego rejestru, pole DATAZM nagłówka\r\n- FAKTURA - ref do faktury, pole FAKTURA z NAGZAM\r\n- ORG_ID - pole z nagłówka ORG_ID, świadczy o tym, że zamówienie jest realizacja.\r\n\r\n- REALOUT - dana operacja, która dokonała wpisu do historii, stworzyła osobną realizację, w związku z czym danej operacji nie mozna cofac.\r\n    Ustawioane przez OPER_CHECK_REALIZACJA\r\n- SKAD - zrodlo operacji\r\n - 0 - z reliacji zamowienia\r\n - 1 - z akceptacji dokumentu magazynowego\r\n - 2 - z akceptacji dokumentu faktury\r\n - 3 - z realizacji przewodnika produkcyjnego\r\n- DOKUMENTMAIN - ref dokumentu okreslonego w SKAD",
  "Children": [
    {
      "Name": "CINOUT",
      "Type": "Field",
      "Description": ""
    },
    {
      "Name": "DATA",
      "Type": "Field",
      "Description": ""
    },
    {
      "Name": "DATAZM",
      "Type": "Field",
      "Description": ""
    },
    {
      "Name": "DBOUT",
      "Type": "Field",
      "Description": ""
    },
    {
      "Name": "DDOUT",
      "Type": "Field",
      "Description": ""
    },
    {
      "Name": "DKOUT",
      "Type": "Field",
      "Description": ""
    },
    {
      "Name": "DOKUMENTMAIN",
      "Type": "Field",
      "Description": ""
    },
    {
      "Name": "DPOUT",
      "Type": "Field",
      "Description": ""
    },
    {
      "Name": "FAKTURA",
      "Type": "Field",
      "Description": ""
    },
    {
      "Name": "KISREAL",
      "Type": "Field",
      "Description": ""
    },
    {
      "Name": "MAGTOFAKJOINED",
      "Type": "Field",
      "Description": ""
    },
    {
      "Name": "MAINHISTZAM",
      "Type": "Field",
      "Description": ""
    },
    {
      "Name": "MAINZAM",
      "Type": "Field",
      "Description": ""
    },
    {
      "Name": "NOBACK",
      "Type": "Field",
      "Description": ""
    },
    {
      "Name": "OLDFAKTURA",
      "Type": "Field",
      "Description": ""
    },
    {
      "Name": "OPERACJA",
      "Type": "Field",
      "Description": ""
    },
    {
      "Name": "OPERATOR",
      "Type": "Field",
      "Description": ""
    },
    {
      "Name": "OPIS",
      "Type": "Field",
      "Description": ""
    },
    {
      "Name": "ORG_BLOKADA",
      "Type": "Field",
      "Description": ""
    },
    {
      "Name": "ORG_ID",
      "Type": "Field",
      "Description": ""
    },
    {
      "Name": "ORG_KSTAN",
      "Type": "Field",
      "Description": ""
    },
    {
      "Name": "ORG_REJ",
      "Type": "Field",
      "Description": ""
    },
    {
      "Name": "ORG_STAN",
      "Type": "Field",
      "Description": ""
    },
    {
      "Name": "PROPERSRAP",
      "Type": "Field",
      "Description": ""
    },
    {
      "Name": "PRSHORTAGE",
      "Type": "Field",
      "Description": ""
    },
    {
      "Name": "REALOUT",
      "Type": "Field",
      "Description": ""
    },
    {
      "Name": "REF",
      "Type": "Field",
      "Description": ""
    },
    {
      "Name": "REFROMDOKREF",
      "Type": "Field",
      "Description": ""
    },
    {
      "Name": "SKAD",
      "Type": "Field",
      "Description": ""
    },
    {
      "Name": "STATUS",
      "Type": "Field",
      "Description": ""
    },
    {
      "Name": "WYSYLKA",
      "Type": "Field",
      "Description": ""
    },
    {
      "Name": "ZAMOWIENIE",
      "Type": "Field",
      "Description": ""
    }
  ]
}