{
  "Name": "IMP_RULES",
  "Type": "Table",
  "Description": "Tabela przechowyujaca definicje eksportów\r\nSYMBOL - symbol unikalny\r\nNAME - nazwa\r\nTYP- OLE; FILE\r\nFUNCTIONNAME - nazwa funkcjji udostepnionej z poziomu C, która interpretuje dany import\r\nEXTENSIONS - lista po sredniku rozszewrzeń plików, które pasuja do danej reguly importu, lub\r\n   nazw typow obiektow OLE\r\nPARAMS - dodatkowe parametry dla procedury, parsowane",
  "Children": [
    {
      "Name": "ALLOWMAINWIN",
      "Type": "Field",
      "Description": ""
    },
    {
      "Name": "EXTENSIONS",
      "Type": "Field",
      "Description": ""
    },
    {
      "Name": "FUNCTIONNAME",
      "Type": "Field",
      "Description": ""
    },
    {
      "Name": "NAME",
      "Type": "Field",
      "Description": ""
    },
    {
      "Name": "PARAMS",
      "Type": "Field",
      "Description": ""
    },
    {
      "Name": "SYMBOL",
      "Type": "Field",
      "Description": ""
    },
    {
      "Name": "TYP",
      "Type": "Field",
      "Description": ""
    }
  ]
}