{
  "Name": "INT_IMP_TOW_KODYKRESKOWE",
  "Type": "Table",
  "Description": "ZG115055",
  "Children": [
    {
      "Name": "DATAINS",
      "Type": "Field",
      "Description": ""
    },
    {
      "Name": "DATAOSTPRZETW",
      "Type": "Field",
      "Description": ""
    },
    {
      "Name": "DATAPRZETW",
      "Type": "Field",
      "Description": ""
    },
    {
      "Name": "DEL",
      "Type": "Field",
      "Description": ""
    },
    {
      "Name": "ERROR",
      "Type": "Field",
      "Description": ""
    },
    {
      "Name": "ERRORMSG",
      "Type": "Field",
      "Description": ""
    },
    {
      "Name": "ERRORZALEZNE",
      "Type": "Field",
      "Description": ""
    },
    {
      "Name": "GLOWNY",
      "Type": "Field",
      "Description": ""
    },
    {
      "Name": "HASH",
      "Type": "Field",
      "Description": ""
    },
    {
      "Name": "JEDN",
      "Type": "Field",
      "Description": ""
    },
    {
      "Name": "JEDNOSTKA",
      "Type": "Field",
      "Description": ""
    },
    {
      "Name": "JEDNOSTKAID",
      "Type": "Field",
      "Description": ""
    },
    {
      "Name": "KODKRESKOWY",
      "Type": "Field",
      "Description": ""
    },
    {
      "Name": "KTM",
      "Type": "Field",
      "Description": ""
    },
    {
      "Name": "REC",
      "Type": "Field",
      "Description": ""
    },
    {
      "Name": "RECI",
      "Type": "Field",
      "Description": ""
    },
    {
      "Name": "RECS",
      "Type": "Field",
      "Description": ""
    },
    {
      "Name": "REF",
      "Type": "Field",
      "Description": ""
    },
    {
      "Name": "REF_TOWAR",
      "Type": "Field",
      "Description": "REF z INT_IMP_TOW_TOWARY"
    },
    {
      "Name": "SESJA",
      "Type": "Field",
      "Description": ""
    },
    {
      "Name": "SKADREF",
      "Type": "Field",
      "Description": ""
    },
    {
      "Name": "SKADTABELA",
      "Type": "Field",
      "Description": ""
    },
    {
      "Name": "STATUS",
      "Type": "Field",
      "Description": ""
    },
    {
      "Name": "TOWARID",
      "Type": "Field",
      "Description": ""
    },
    {
      "Name": "TOWJEDN",
      "Type": "Field",
      "Description": ""
    },
    {
      "Name": "TOWKODKRESK",
      "Type": "Field",
      "Description": ""
    },
    {
      "Name": "WERSJAREF",
      "Type": "Field",
      "Description": ""
    },
    {
      "Name": "ZRODLO",
      "Type": "Field",
      "Description": ""
    }
  ]
}