{
  "Name": "INT_IMP_ATRYBUTY",
  "Type": "Table",
  "Description": "ZG115055",
  "Children": [
    {
      "Name": "ATRYBUT",
      "Type": "Field",
      "Description": ""
    },
    {
      "Name": "ATRYBUTID",
      "Type": "Field",
      "Description": ""
    },
    {
      "Name": "DATAINS",
      "Type": "Field",
      "Description": ""
    },
    {
      "Name": "DATAOSTPRZETW",
      "Type": "Field",
      "Description": ""
    },
    {
      "Name": "DATAPRZETW",
      "Type": "Field",
      "Description": ""
    },
    {
      "Name": "DEFCECHW",
      "Type": "Field",
      "Description": ""
    },
    {
      "Name": "DEFCECHY",
      "Type": "Field",
      "Description": ""
    },
    {
      "Name": "DEL",
      "Type": "Field",
      "Description": ""
    },
    {
      "Name": "ERROR",
      "Type": "Field",
      "Description": ""
    },
    {
      "Name": "ERRORMSG",
      "Type": "Field",
      "Description": ""
    },
    {
      "Name": "ERRORZALEZNE",
      "Type": "Field",
      "Description": ""
    },
    {
      "Name": "HASH",
      "Type": "Field",
      "Description": ""
    },
    {
      "Name": "KTM",
      "Type": "Field",
      "Description": ""
    },
    {
      "Name": "OBIEKTID",
      "Type": "Field",
      "Description": "z zewnetrznego systemu"
    },
    {
      "Name": "OREF",
      "Type": "Field",
      "Description": ""
    },
    {
      "Name": "OTABLE",
      "Type": "Field",
      "Description": ""
    },
    {
      "Name": "REC",
      "Type": "Field",
      "Description": ""
    },
    {
      "Name": "RECI",
      "Type": "Field",
      "Description": ""
    },
    {
      "Name": "RECS",
      "Type": "Field",
      "Description": ""
    },
    {
      "Name": "REF",
      "Type": "Field",
      "Description": ""
    },
    {
      "Name": "SESJA",
      "Type": "Field",
      "Description": ""
    },
    {
      "Name": "SKADREF",
      "Type": "Field",
      "Description": ""
    },
    {
      "Name": "SKADTABELA",
      "Type": "Field",
      "Description": ""
    },
    {
      "Name": "STATUS",
      "Type": "Field",
      "Description": ""
    },
    {
      "Name": "TABELAID",
      "Type": "Field",
      "Description": "z zewnetrznego systemu"
    },
    {
      "Name": "WARTOSC",
      "Type": "Field",
      "Description": ""
    },
    {
      "Name": "WARTOSCID",
      "Type": "Field",
      "Description": ""
    },
    {
      "Name": "X_ATRYBUT",
      "Type": "Field",
      "Description": "REF z X_ATRYBUTY"
    },
    {
      "Name": "ZRODLO",
      "Type": "Field",
      "Description": ""
    }
  ]
}