{
  "Name": "KLIENCIEDI",
  "Type": "Table",
  "Description": "PR25935",
  "Children": [
    {
      "Name": "DOKUMTYPE",
      "Type": "Field",
      "Description": ""
    },
    {
      "Name": "EDITYPE",
      "Type": "Field",
      "Description": ""
    },
    {
      "Name": "FROMDATE",
      "Type": "Field",
      "Description": ""
    },
    {
      "Name": "KLIENT",
      "Type": "Field",
      "Description": ""
    },
    {
      "Name": "REF",
      "Type": "Field",
      "Description": ""
    },
    {
      "Name": "TODATE",
      "Type": "Field",
      "Description": ""
    }
  ]
}