{
  "Name": "KONFIG",
  "Type": "Table",
  "Description": "PR17608;\r\nPR09389;\r\nCOMMIT WORK;PR09331;\r\nCOMMIT WORK;PR07613;\r\nCOMMIT WORK;\r\nRekord tabeli zawiera parametr konfiguracyjny.\r\n\r\nWięzy integralnosci:\r\n- pole AKRONIM unikalne\r\n- order na polu NUMER zprefiksowanym na pole GRUPA\r\n\r\nNa witrynie wystarczą jedynie pola AKRONIM i WARTOSC.\r\n\r\nParametry zastrzeżone ( które być powinny ze względu na pracę ogólna esystemu):\r\n\r\nAKTUODDZIAL - aktualny oddzial\r\nAKTULOCAT - numer lokalizacji bieżącej, gdzie lezy baza\r\nAKTULOCATTRYB [M/S] - czy biezaca lkalizacja jest master czy slave\r\nAKTULOCATBIT - numer bitowy aktualnej lokalizacji\r\nAKTULOCATMBIT - suma numerów bitowych wszystkich lokalizacji master\r\nAKTULOCATNOTMBIT - suma numerow bitowych lokalizacji typu slave\r\nAKTULOCATSUMBIT - suma bitowa wszystkich lokalizacji \r\n                 ( AKTULOCATMBIT + AKTULOCATNOTMBIT)",
  "Children": [
    {
      "Name": "AKRONIM",
      "Type": "Field",
      "Description": ""
    },
    {
      "Name": "DICTBASE",
      "Type": "Field",
      "Description": ""
    },
    {
      "Name": "DICTFIELD",
      "Type": "Field",
      "Description": ""
    },
    {
      "Name": "DICTFILTER",
      "Type": "Field",
      "Description": ""
    },
    {
      "Name": "DICTINDEX",
      "Type": "Field",
      "Description": ""
    },
    {
      "Name": "DICTKEYFIELDS",
      "Type": "Field",
      "Description": ""
    },
    {
      "Name": "DICTPREFIX",
      "Type": "Field",
      "Description": ""
    },
    {
      "Name": "DICTTABLE",
      "Type": "Field",
      "Description": ""
    },
    {
      "Name": "GRUPA",
      "Type": "Field",
      "Description": ""
    },
    {
      "Name": "HISTORIA",
      "Type": "Field",
      "Description": ""
    },
    {
      "Name": "ISREPLICATE",
      "Type": "Field",
      "Description": ""
    },
    {
      "Name": "MULTI",
      "Type": "Field",
      "Description": ""
    },
    {
      "Name": "NAZWA",
      "Type": "Field",
      "Description": ""
    },
    {
      "Name": "NUMER",
      "Type": "Field",
      "Description": ""
    },
    {
      "Name": "ORD",
      "Type": "Field",
      "Description": ""
    },
    {
      "Name": "STATE",
      "Type": "Field",
      "Description": ""
    },
    {
      "Name": "TOKEN",
      "Type": "Field",
      "Description": ""
    },
    {
      "Name": "TYP",
      "Type": "Field",
      "Description": ""
    },
    {
      "Name": "WARTOSC",
      "Type": "Field",
      "Description": ""
    },
    {
      "Name": "WYSOKOSC",
      "Type": "Field",
      "Description": ""
    }
  ]
}