{
  "Name": "KOSZTDOST",
  "Type": "Table",
  "Description": "koszty dostaw dla sposobu dostawy",
  "Children": [
    {
      "Name": "ILOSCKART",
      "Type": "Field",
      "Description": ""
    },
    {
      "Name": "ILOSCKARTP",
      "Type": "Field",
      "Description": ""
    },
    {
      "Name": "ILOSCPAL",
      "Type": "Field",
      "Description": ""
    },
    {
      "Name": "ILOSCPALP",
      "Type": "Field",
      "Description": ""
    },
    {
      "Name": "KOSZT",
      "Type": "Field",
      "Description": ""
    },
    {
      "Name": "ODLEGLOSC",
      "Type": "Field",
      "Description": ""
    },
    {
      "Name": "ODLEGLOSCP",
      "Type": "Field",
      "Description": ""
    },
    {
      "Name": "REF",
      "Type": "Field",
      "Description": ""
    },
    {
      "Name": "SPEDYTOR",
      "Type": "Field",
      "Description": ""
    },
    {
      "Name": "SPOSDOSTCENNIK",
      "Type": "Field",
      "Description": ""
    },
    {
      "Name": "WAGA",
      "Type": "Field",
      "Description": ""
    },
    {
      "Name": "WAGAP",
      "Type": "Field",
      "Description": ""
    }
  ]
}