{
  "Name": "LISTYWYSDOPKRPT",
  "Type": "Table",
  "Description": "PR57121;",
  "Children": [
    {
      "Name": "DOKSPED",
      "Type": "Field",
      "Description": ""
    },
    {
      "Name": "FORMAT",
      "Type": "Field",
      "Description": "PR57121;"
    },
    {
      "Name": "OPK",
      "Type": "Field",
      "Description": ""
    },
    {
      "Name": "REF",
      "Type": "Field",
      "Description": ""
    },
    {
      "Name": "RPT",
      "Type": "Field",
      "Description": ""
    }
  ]
}