{
  "Name": "LISTYWYSDROZ",
  "Type": "Table",
  "Description": "PR31452",
  "Children": [
    {
      "Name": "DOSTAWA",
      "Type": "Field",
      "Description": ";RELEASE_PAKOWANIE;PR119265;"
    },
    {
      "Name": "ILOSCMAG",
      "Type": "Field",
      "Description": ""
    },
    {
      "Name": "KTM",
      "Type": "Field",
      "Description": ""
    },
    {
      "Name": "LISTYWYSD",
      "Type": "Field",
      "Description": ""
    },
    {
      "Name": "LISTYWYSDPOZ",
      "Type": "Field",
      "Description": ""
    },
    {
      "Name": "NAZWAT",
      "Type": "Field",
      "Description": ""
    },
    {
      "Name": "NRKARTONU",
      "Type": "Field",
      "Description": ""
    },
    {
      "Name": "OPAKOWANIA",
      "Type": "Field",
      "Description": ""
    },
    {
      "Name": "OPK",
      "Type": "Field",
      "Description": ""
    },
    {
      "Name": "PAKOWAL",
      "Type": "Field",
      "Description": ""
    },
    {
      "Name": "REF",
      "Type": "Field",
      "Description": ""
    },
    {
      "Name": "SERIALNUM",
      "Type": "Field",
      "Description": ""
    },
    {
      "Name": "STATUS",
      "Type": "Field",
      "Description": ""
    },
    {
      "Name": "WERSJAREF",
      "Type": "Field",
      "Description": ""
    },
    {
      "Name": "X_DATA_PAK",
      "Type": "Field",
      "Description": ""
    },
    {
      "Name": "X_MWS_PARTIE",
      "Type": "Field",
      "Description": ""
    },
    {
      "Name": "X_MWS_SERIE",
      "Type": "Field",
      "Description": ""
    },
    {
      "Name": "X_MWS_SLOWNIKI_EHRLE",
      "Type": "Field",
      "Description": ""
    }
  ]
}