{
  "Name": "LISTYWYSDSTATUSY",
  "Type": "Table",
  "Description": "PR70075;FEDEX;",
  "Children": [
    {
      "Name": "DATA",
      "Type": "Field",
      "Description": ""
    },
    {
      "Name": "KOD",
      "Type": "Field",
      "Description": ""
    },
    {
      "Name": "KODOPIS",
      "Type": "Field",
      "Description": ""
    },
    {
      "Name": "KODPUNKTU",
      "Type": "Field",
      "Description": ""
    },
    {
      "Name": "LISTWYSD",
      "Type": "Field",
      "Description": ""
    },
    {
      "Name": "OPIS",
      "Type": "Field",
      "Description": ""
    },
    {
      "Name": "OPKSYMBOLSPED",
      "Type": "Field",
      "Description": ""
    },
    {
      "Name": "REF",
      "Type": "Field",
      "Description": ""
    },
    {
      "Name": "SYMBOLSPED",
      "Type": "Field",
      "Description": ""
    },
    {
      "Name": "X_OPK",
      "Type": "Field",
      "Description": "ML przenoszone ups z lobosu"
    },
    {
      "Name": "X_PODPIS",
      "Type": "Field",
      "Description": "ML przenoszenie ups z lobosu"
    }
  ]
}