{
  "Name": "LISTYWYSDPOZ",
  "Type": "Table",
  "Description": "Tabela pozycji towarowych dok. spedycyjnych ( powiązańz pozycjami dok. właściwych)\r\nDOKUMENT - ref dok. spedycyjnego\r\nDOKTYP - typ dokumentu,z którego pochodzi pozycja towarowa:\r\n  M - dok. magazynowy\r\n  Z - zamówienie\r\nDOKREF - ref dokumentu, którego dotyczy dany",
  "Children": [
    {
      "Name": "ALTPOSMODE",
      "Type": "Field",
      "Description": ""
    },
    {
      "Name": "DOKPOZ",
      "Type": "Field",
      "Description": ""
    },
    {
      "Name": "DOKREF",
      "Type": "Field",
      "Description": ""
    },
    {
      "Name": "DOKTYP",
      "Type": "Field",
      "Description": ""
    },
    {
      "Name": "DOKUMENT",
      "Type": "Field",
      "Description": ""
    },
    {
      "Name": "ILOSC",
      "Type": "Field",
      "Description": ""
    },
    {
      "Name": "ILOSCDOROZB",
      "Type": "Field",
      "Description": ""
    },
    {
      "Name": "ILOSCMAX",
      "Type": "Field",
      "Description": ""
    },
    {
      "Name": "ILOSCO",
      "Type": "Field",
      "Description": ""
    },
    {
      "Name": "ILOSCORG",
      "Type": "Field",
      "Description": ""
    },
    {
      "Name": "ILOSCSPK",
      "Type": "Field",
      "Description": ""
    },
    {
      "Name": "JEDNO",
      "Type": "Field",
      "Description": ""
    },
    {
      "Name": "KOSZTDOST",
      "Type": "Field",
      "Description": ""
    },
    {
      "Name": "KOSZTSPED",
      "Type": "Field",
      "Description": ""
    },
    {
      "Name": "MIARAO",
      "Type": "Field",
      "Description": ""
    },
    {
      "Name": "OBJETOSC",
      "Type": "Field",
      "Description": ""
    },
    {
      "Name": "ODDZIAL",
      "Type": "Field",
      "Description": ""
    },
    {
      "Name": "OPIS",
      "Type": "Field",
      "Description": ""
    },
    {
      "Name": "POZZAM",
      "Type": "Field",
      "Description": ""
    },
    {
      "Name": "PRZEBIEG",
      "Type": "Field",
      "Description": ""
    },
    {
      "Name": "REF",
      "Type": "Field",
      "Description": ""
    },
    {
      "Name": "SERIAL",
      "Type": "Field",
      "Description": ""
    },
    {
      "Name": "SPEDCENA",
      "Type": "Field",
      "Description": ""
    },
    {
      "Name": "SPEDILOSC",
      "Type": "Field",
      "Description": ""
    },
    {
      "Name": "SPEDJEDN",
      "Type": "Field",
      "Description": ""
    },
    {
      "Name": "SPEDWARTOSC",
      "Type": "Field",
      "Description": ""
    },
    {
      "Name": "WAGA",
      "Type": "Field",
      "Description": ""
    },
    {
      "Name": "WERSJAREF",
      "Type": "Field",
      "Description": ""
    },
    {
      "Name": "X_INFO",
      "Type": "Field",
      "Description": ""
    },
    {
      "Name": "X_KOLOR",
      "Type": "Field",
      "Description": ""
    },
    {
      "Name": "X_SPAKOWANO",
      "Type": "Field",
      "Description": ""
    },
    {
      "Name": "X_TIME",
      "Type": "Field",
      "Description": ""
    },
    {
      "Name": "ZLECCENA",
      "Type": "Field",
      "Description": ""
    },
    {
      "Name": "ZLECILOSC",
      "Type": "Field",
      "Description": ""
    },
    {
      "Name": "ZLECJEDN",
      "Type": "Field",
      "Description": ""
    },
    {
      "Name": "ZLECWARTOSC",
      "Type": "Field",
      "Description": ""
    }
  ]
}