{
  "Name": "LOG_FILE",
  "Type": "Table",
  "Description": "ogi (używane np. w replikacji)",
  "Children": [
    {
      "Name": "COPY",
      "Type": "Field",
      "Description": ""
    },
    {
      "Name": "KEY1",
      "Type": "Field",
      "Description": ""
    },
    {
      "Name": "KEY2",
      "Type": "Field",
      "Description": ""
    },
    {
      "Name": "KEY3",
      "Type": "Field",
      "Description": ""
    },
    {
      "Name": "KEY4",
      "Type": "Field",
      "Description": ""
    },
    {
      "Name": "KEY5",
      "Type": "Field",
      "Description": ""
    },
    {
      "Name": "REF",
      "Type": "Field",
      "Description": ""
    },
    {
      "Name": "STATE",
      "Type": "Field",
      "Description": ""
    },
    {
      "Name": "STATECOUNT",
      "Type": "Field",
      "Description": ""
    },
    {
      "Name": "TABLE_NAME",
      "Type": "Field",
      "Description": ""
    },
    {
      "Name": "TIME_STAMP",
      "Type": "Field",
      "Description": ""
    }
  ]
}