{
  "Name": "MSGORDTYPES",
  "Type": "Table",
  "Description": "Typy zlecen informacyjnych -\r\nSYMBOL - identyfikator\r\nNAZWA\r\nRODZAJ - 0 - WYDRUK\r\n         1 - KOMUNIKAT\r\nMEDIUM  - dla wydruków - nazwa wydruku\r\n          dla komunikatow - medium komunikatu (WIADOMOSC, EMAIL, SMS)",
  "Children": [
    {
      "Name": "MEDIUM",
      "Type": "Field",
      "Description": ""
    },
    {
      "Name": "NAZWA",
      "Type": "Field",
      "Description": ""
    },
    {
      "Name": "RODZAJ",
      "Type": "Field",
      "Description": ""
    },
    {
      "Name": "SYMBOL",
      "Type": "Field",
      "Description": ""
    }
  ]
}