{
  "Name": "MWS_ABC_GOODS",
  "Type": "Table",
  "Description": "PR15847",
  "Children": [
    {
      "Name": "GOODTYPE",
      "Type": "Field",
      "Description": ""
    },
    {
      "Name": "REF",
      "Type": "Field",
      "Description": ""
    },
    {
      "Name": "WERSJAREF",
      "Type": "Field",
      "Description": ""
    },
    {
      "Name": "WH",
      "Type": "Field",
      "Description": ""
    }
  ]
}