{
  "Name": "MWSACTS",
  "Type": "Table",
  "Description": "PR15847;",
  "Children": [
    {
      "Name": "ACCEPTTIME",
      "Type": "Field",
      "Description": ""
    },
    {
      "Name": "AUTOGEN",
      "Type": "Field",
      "Description": ""
    },
    {
      "Name": "BADBARCODE",
      "Type": "Field",
      "Description": ""
    },
    {
      "Name": "BADLABEL",
      "Type": "Field",
      "Description": ""
    },
    {
      "Name": "BADLABELTIME",
      "Type": "Field",
      "Description": ""
    },
    {
      "Name": "BADMWSCONSTLOC",
      "Type": "Field",
      "Description": ""
    },
    {
      "Name": "BGOOD",
      "Type": "Field",
      "Description": ""
    },
    {
      "Name": "BLOCKCONSTLOCCHANGE",
      "Type": "Field",
      "Description": ""
    },
    {
      "Name": "BMWSCONSTLOCL",
      "Type": "Field",
      "Description": ""
    },
    {
      "Name": "BMWSCONSTLOCP",
      "Type": "Field",
      "Description": ""
    },
    {
      "Name": "BMWSPALLOCL",
      "Type": "Field",
      "Description": ""
    },
    {
      "Name": "BMWSPALLOCP",
      "Type": "Field",
      "Description": ""
    },
    {
      "Name": "BVERS",
      "Type": "Field",
      "Description": ""
    },
    {
      "Name": "CATEGORY",
      "Type": "Field",
      "Description": ""
    },
    {
      "Name": "CHECKED",
      "Type": "Field",
      "Description": ""
    },
    {
      "Name": "CLONEFROMMWSACT",
      "Type": "Field",
      "Description": ""
    },
    {
      "Name": "CLOSEPALLOC",
      "Type": "Field",
      "Description": ""
    },
    {
      "Name": "COMMITTIME",
      "Type": "Field",
      "Description": ""
    },
    {
      "Name": "CORTOMWSACT",
      "Type": "Field",
      "Description": ""
    },
    {
      "Name": "DATESTOP",
      "Type": "Field",
      "Description": ""
    },
    {
      "Name": "DATESTOPDECL",
      "Type": "Field",
      "Description": ""
    },
    {
      "Name": "DEEPL",
      "Type": "Field",
      "Description": ""
    },
    {
      "Name": "DEEPP",
      "Type": "Field",
      "Description": ""
    },
    {
      "Name": "DESCRIPT",
      "Type": "Field",
      "Description": ""
    },
    {
      "Name": "DISTTOGO",
      "Type": "Field",
      "Description": ""
    },
    {
      "Name": "DOCGROUP",
      "Type": "Field",
      "Description": ""
    },
    {
      "Name": "DOCID",
      "Type": "Field",
      "Description": ""
    },
    {
      "Name": "DOCPOSID",
      "Type": "Field",
      "Description": ""
    },
    {
      "Name": "DOCTYPE",
      "Type": "Field",
      "Description": ""
    },
    {
      "Name": "EMWSCONSTLOC",
      "Type": "Field",
      "Description": ""
    },
    {
      "Name": "FLAGS",
      "Type": "Field",
      "Description": ""
    },
    {
      "Name": "FROMDOCPOS2PREPARE",
      "Type": "Field",
      "Description": ""
    },
    {
      "Name": "FROMMWSACT",
      "Type": "Field",
      "Description": ""
    },
    {
      "Name": "GOOD",
      "Type": "Field",
      "Description": ""
    },
    {
      "Name": "GROUPCOMMIT",
      "Type": "Field",
      "Description": ""
    },
    {
      "Name": "H",
      "Type": "Field",
      "Description": ""
    },
    {
      "Name": "ISPAL",
      "Type": "Field",
      "Description": ""
    },
    {
      "Name": "KEYA",
      "Type": "Field",
      "Description": ""
    },
    {
      "Name": "KEYB",
      "Type": "Field",
      "Description": ""
    },
    {
      "Name": "KEYC",
      "Type": "Field",
      "Description": ""
    },
    {
      "Name": "KEYD",
      "Type": "Field",
      "Description": ""
    },
    {
      "Name": "L",
      "Type": "Field",
      "Description": ""
    },
    {
      "Name": "LOADPERCENT",
      "Type": "Field",
      "Description": ""
    },
    {
      "Name": "LOCKEDIT",
      "Type": "Field",
      "Description": ""
    },
    {
      "Name": "LOT",
      "Type": "Field",
      "Description": ""
    },
    {
      "Name": "MANMWSACTS",
      "Type": "Field",
      "Description": ""
    },
    {
      "Name": "MAXLEVEL",
      "Type": "Field",
      "Description": ""
    },
    {
      "Name": "MINREALTIME",
      "Type": "Field",
      "Description": ""
    },
    {
      "Name": "MISTAKESCNT",
      "Type": "Field",
      "Description": ""
    },
    {
      "Name": "MISTAKESCNTQ",
      "Type": "Field",
      "Description": ""
    },
    {
      "Name": "MIXEDPALLGROUP",
      "Type": "Field",
      "Description": ""
    },
    {
      "Name": "MIXLEAVEPAL",
      "Type": "Field",
      "Description": ""
    },
    {
      "Name": "MIXMWSCONSTLOCL",
      "Type": "Field",
      "Description": ""
    },
    {
      "Name": "MIXMWSPALLOCL",
      "Type": "Field",
      "Description": ""
    },
    {
      "Name": "MIXTAKEPAL",
      "Type": "Field",
      "Description": ""
    },
    {
      "Name": "MULTIVERSGOOD",
      "Type": "Field",
      "Description": ""
    },
    {
      "Name": "MWSACCESSORY",
      "Type": "Field",
      "Description": ""
    },
    {
      "Name": "MWSCONSTLOC",
      "Type": "Field",
      "Description": ""
    },
    {
      "Name": "MWSCONSTLOCCHANGE",
      "Type": "Field",
      "Description": ""
    },
    {
      "Name": "MWSCONSTLOCL",
      "Type": "Field",
      "Description": ""
    },
    {
      "Name": "MWSCONSTLOCP",
      "Type": "Field",
      "Description": ""
    },
    {
      "Name": "MWSORD",
      "Type": "Field",
      "Description": ""
    },
    {
      "Name": "MWSORDSTATUS",
      "Type": "Field",
      "Description": ""
    },
    {
      "Name": "MWSORDTYPE",
      "Type": "Field",
      "Description": ""
    },
    {
      "Name": "MWSORDTYPEDEST",
      "Type": "Field",
      "Description": ""
    },
    {
      "Name": "MWSPALLOCL",
      "Type": "Field",
      "Description": ""
    },
    {
      "Name": "MWSPALLOCP",
      "Type": "Field",
      "Description": ""
    },
    {
      "Name": "MWSPALLOCSIZE",
      "Type": "Field",
      "Description": ""
    },
    {
      "Name": "MWSPALLOCSYM",
      "Type": "Field",
      "Description": ""
    },
    {
      "Name": "NUMBER",
      "Type": "Field",
      "Description": ""
    },
    {
      "Name": "OPERATOR",
      "Type": "Field",
      "Description": ""
    },
    {
      "Name": "OPTDIST",
      "Type": "Field",
      "Description": ""
    },
    {
      "Name": "OPTNUMBER",
      "Type": "Field",
      "Description": ""
    },
    {
      "Name": "ORD",
      "Type": "Field",
      "Description": ""
    },
    {
      "Name": "PACKMETH",
      "Type": "Field",
      "Description": ""
    },
    {
      "Name": "PACKQUANTITY",
      "Type": "Field",
      "Description": ""
    },
    {
      "Name": "PACKSYMBOL",
      "Type": "Field",
      "Description": ""
    },
    {
      "Name": "PALGROUP",
      "Type": "Field",
      "Description": ""
    },
    {
      "Name": "PALPACKMETH",
      "Type": "Field",
      "Description": ""
    },
    {
      "Name": "PALPACKMETHSHORT",
      "Type": "Field",
      "Description": ""
    },
    {
      "Name": "PALPACKQUANTITY",
      "Type": "Field",
      "Description": ""
    },
    {
      "Name": "PARAMD1",
      "Type": "Field",
      "Description": ""
    },
    {
      "Name": "PARAMD2",
      "Type": "Field",
      "Description": ""
    },
    {
      "Name": "PARAMD3",
      "Type": "Field",
      "Description": ""
    },
    {
      "Name": "PARAMD4",
      "Type": "Field",
      "Description": ""
    },
    {
      "Name": "PARAMN1",
      "Type": "Field",
      "Description": ""
    },
    {
      "Name": "PARAMN10",
      "Type": "Field",
      "Description": ""
    },
    {
      "Name": "PARAMN11",
      "Type": "Field",
      "Description": ""
    },
    {
      "Name": "PARAMN12",
      "Type": "Field",
      "Description": ""
    },
    {
      "Name": "PARAMN2",
      "Type": "Field",
      "Description": ""
    },
    {
      "Name": "PARAMN3",
      "Type": "Field",
      "Description": ""
    },
    {
      "Name": "PARAMN4",
      "Type": "Field",
      "Description": ""
    },
    {
      "Name": "PARAMN5",
      "Type": "Field",
      "Description": ""
    },
    {
      "Name": "PARAMN6",
      "Type": "Field",
      "Description": ""
    },
    {
      "Name": "PARAMN7",
      "Type": "Field",
      "Description": ""
    },
    {
      "Name": "PARAMN8",
      "Type": "Field",
      "Description": ""
    },
    {
      "Name": "PARAMN9",
      "Type": "Field",
      "Description": ""
    },
    {
      "Name": "PARAMS1",
      "Type": "Field",
      "Description": ""
    },
    {
      "Name": "PARAMS10",
      "Type": "Field",
      "Description": ""
    },
    {
      "Name": "PARAMS11",
      "Type": "Field",
      "Description": ""
    },
    {
      "Name": "PARAMS12",
      "Type": "Field",
      "Description": ""
    },
    {
      "Name": "PARAMS2",
      "Type": "Field",
      "Description": ""
    },
    {
      "Name": "PARAMS3",
      "Type": "Field",
      "Description": ""
    },
    {
      "Name": "PARAMS4",
      "Type": "Field",
      "Description": ""
    },
    {
      "Name": "PARAMS5",
      "Type": "Field",
      "Description": ""
    },
    {
      "Name": "PARAMS6",
      "Type": "Field",
      "Description": ""
    },
    {
      "Name": "PARAMS7",
      "Type": "Field",
      "Description": ""
    },
    {
      "Name": "PARAMS8",
      "Type": "Field",
      "Description": ""
    },
    {
      "Name": "PARAMS9",
      "Type": "Field",
      "Description": ""
    },
    {
      "Name": "PLANMWSCONSTLOCL",
      "Type": "Field",
      "Description": ""
    },
    {
      "Name": "PLANWHAREAL",
      "Type": "Field",
      "Description": ""
    },
    {
      "Name": "PLANWHAREALOGL",
      "Type": "Field",
      "Description": ""
    },
    {
      "Name": "PLUS",
      "Type": "Field",
      "Description": ""
    },
    {
      "Name": "PRIORITY",
      "Type": "Field",
      "Description": ""
    },
    {
      "Name": "QUANTITY",
      "Type": "Field",
      "Description": ""
    },
    {
      "Name": "QUANTITYC",
      "Type": "Field",
      "Description": ""
    },
    {
      "Name": "QUANTITYL",
      "Type": "Field",
      "Description": ""
    },
    {
      "Name": "QUANTITYP",
      "Type": "Field",
      "Description": ""
    },
    {
      "Name": "QUANTITYREM",
      "Type": "Field",
      "Description": ""
    },
    {
      "Name": "QUANTITYSTRING",
      "Type": "Field",
      "Description": ""
    },
    {
      "Name": "QUANTITYV",
      "Type": "Field",
      "Description": ""
    },
    {
      "Name": "QUICKSTOCKTACKING",
      "Type": "Field",
      "Description": ""
    },
    {
      "Name": "REALTIME",
      "Type": "Field",
      "Description": ""
    },
    {
      "Name": "REALTIMEDECL",
      "Type": "Field",
      "Description": ""
    },
    {
      "Name": "RECDOC",
      "Type": "Field",
      "Description": ""
    },
    {
      "Name": "REF",
      "Type": "Field",
      "Description": ""
    },
    {
      "Name": "REFILLTRY",
      "Type": "Field",
      "Description": ""
    },
    {
      "Name": "REGTIME",
      "Type": "Field",
      "Description": ""
    },
    {
      "Name": "SEGTYPE",
      "Type": "Field",
      "Description": ""
    },
    {
      "Name": "SETTLMODE",
      "Type": "Field",
      "Description": ""
    },
    {
      "Name": "SLODEF",
      "Type": "Field",
      "Description": ""
    },
    {
      "Name": "SLOKOD",
      "Type": "Field",
      "Description": ""
    },
    {
      "Name": "SLOPOZ",
      "Type": "Field",
      "Description": ""
    },
    {
      "Name": "STANCEN",
      "Type": "Field",
      "Description": ""
    },
    {
      "Name": "STATUS",
      "Type": "Field",
      "Description": ""
    },
    {
      "Name": "STATUSBLOCK",
      "Type": "Field",
      "Description": ""
    },
    {
      "Name": "STOCKREQUIRED",
      "Type": "Field",
      "Description": ""
    },
    {
      "Name": "STOCKTAKING",
      "Type": "Field",
      "Description": ""
    },
    {
      "Name": "STOPNEXTMWSACTS",
      "Type": "Field",
      "Description": ""
    },
    {
      "Name": "TIMESTART",
      "Type": "Field",
      "Description": ""
    },
    {
      "Name": "TIMESTARTDECL",
      "Type": "Field",
      "Description": ""
    },
    {
      "Name": "TIMESTOP",
      "Type": "Field",
      "Description": ""
    },
    {
      "Name": "TIMESTOPDECL",
      "Type": "Field",
      "Description": ""
    },
    {
      "Name": "UNITP",
      "Type": "Field",
      "Description": ""
    },
    {
      "Name": "VERS",
      "Type": "Field",
      "Description": ""
    },
    {
      "Name": "VOLUME",
      "Type": "Field",
      "Description": ""
    },
    {
      "Name": "VOLUMEREM",
      "Type": "Field",
      "Description": ""
    },
    {
      "Name": "W",
      "Type": "Field",
      "Description": ""
    },
    {
      "Name": "WEIGHT",
      "Type": "Field",
      "Description": ""
    },
    {
      "Name": "WH",
      "Type": "Field",
      "Description": ""
    },
    {
      "Name": "WH2",
      "Type": "Field",
      "Description": ""
    },
    {
      "Name": "WHAREA",
      "Type": "Field",
      "Description": ""
    },
    {
      "Name": "WHAREAL",
      "Type": "Field",
      "Description": ""
    },
    {
      "Name": "WHAREALOGL",
      "Type": "Field",
      "Description": ""
    },
    {
      "Name": "WHAREALOGP",
      "Type": "Field",
      "Description": ""
    },
    {
      "Name": "WHAREAP",
      "Type": "Field",
      "Description": ""
    },
    {
      "Name": "WHSEC",
      "Type": "Field",
      "Description": ""
    },
    {
      "Name": "X_HAVEFAKE_VERS",
      "Type": "Field",
      "Description": "Wersja havefake dla ktorego ta pozycja jest fake'em"
    },
    {
      "Name": "X_INSHELVES",
      "Type": "Field",
      "Description": "ZG 137078 Czy przyjecie prosto w pólki"
    },
    {
      "Name": "X_PARTIA",
      "Type": "Field",
      "Description": "data (zazwyczaj produkcji) będąca jednoczesnie numerem partii"
    },
    {
      "Name": "X_SERIAL_NO",
      "Type": "Field",
      "Description": "numer seryjny (ref tabeli X_MWS_SERIE)"
    },
    {
      "Name": "X_SLOWNIK",
      "Type": "Field",
      "Description": "Ref tabeli X_SLOWNIKIE_EHRELE (slownik kontraktow myjni, programow komputerowych)"
    }
  ]
}