{
  "Name": "MWSACCESSORYROWS",
  "Type": "Table",
  "Description": "PR15847",
  "Children": [
    {
      "Name": "MWSACCESSORY",
      "Type": "Field",
      "Description": ""
    },
    {
      "Name": "SYSCHANGETIME",
      "Type": "Field",
      "Description": ""
    },
    {
      "Name": "WHSECROW",
      "Type": "Field",
      "Description": ""
    }
  ]
}