{
  "Name": "MWSACCESSORYTYPES",
  "Type": "Table",
  "Description": "PR15847",
  "Children": [
    {
      "Name": "ACTSPEROPER",
      "Type": "Field",
      "Description": ""
    },
    {
      "Name": "APPLICATION",
      "Type": "Field",
      "Description": ""
    },
    {
      "Name": "NAME",
      "Type": "Field",
      "Description": ""
    },
    {
      "Name": "REF",
      "Type": "Field",
      "Description": ""
    },
    {
      "Name": "REGDISTANCE",
      "Type": "Field",
      "Description": ""
    },
    {
      "Name": "SYMBOL",
      "Type": "Field",
      "Description": ""
    }
  ]
}