{
  "Name": "MWSACCESSORIES",
  "Type": "Table",
  "Description": "PR15847",
  "Children": [
    {
      "Name": "ACCELERATION",
      "Type": "Field",
      "Description": ""
    },
    {
      "Name": "ACT",
      "Type": "Field",
      "Description": ""
    },
    {
      "Name": "AKTUOPERATOR",
      "Type": "Field",
      "Description": ""
    },
    {
      "Name": "CAPACITY",
      "Type": "Field",
      "Description": ""
    },
    {
      "Name": "DESCRIPTION",
      "Type": "Field",
      "Description": ""
    },
    {
      "Name": "DISTANCE",
      "Type": "Field",
      "Description": ""
    },
    {
      "Name": "LIFTDOWNSPEED",
      "Type": "Field",
      "Description": ""
    },
    {
      "Name": "LIFTDOWNSPEEDWITHLOAD",
      "Type": "Field",
      "Description": ""
    },
    {
      "Name": "LIFTHIGHT",
      "Type": "Field",
      "Description": ""
    },
    {
      "Name": "LIFTUPSPEED",
      "Type": "Field",
      "Description": ""
    },
    {
      "Name": "LIFTUPSPEEDWITHLOAD",
      "Type": "Field",
      "Description": ""
    },
    {
      "Name": "MWSACCESSORYTYPE",
      "Type": "Field",
      "Description": ""
    },
    {
      "Name": "MWSCONSTLOC",
      "Type": "Field",
      "Description": ""
    },
    {
      "Name": "MWSCONSTLOCTYPE",
      "Type": "Field",
      "Description": ""
    },
    {
      "Name": "NAME",
      "Type": "Field",
      "Description": ""
    },
    {
      "Name": "REF",
      "Type": "Field",
      "Description": ""
    },
    {
      "Name": "RESTCAPACITY",
      "Type": "Field",
      "Description": ""
    },
    {
      "Name": "RIDESPEED",
      "Type": "Field",
      "Description": ""
    },
    {
      "Name": "RIDESPEEDWITHLOAD",
      "Type": "Field",
      "Description": ""
    },
    {
      "Name": "SYMBOL",
      "Type": "Field",
      "Description": ""
    },
    {
      "Name": "TIME1TO1",
      "Type": "Field",
      "Description": ""
    },
    {
      "Name": "TIME1TO2",
      "Type": "Field",
      "Description": ""
    },
    {
      "Name": "TIME2TO1",
      "Type": "Field",
      "Description": ""
    },
    {
      "Name": "TIME2TO2",
      "Type": "Field",
      "Description": ""
    },
    {
      "Name": "TIME3TO1",
      "Type": "Field",
      "Description": ""
    },
    {
      "Name": "TIME3TO2",
      "Type": "Field",
      "Description": ""
    },
    {
      "Name": "TIME4TO1",
      "Type": "Field",
      "Description": ""
    },
    {
      "Name": "TIME4TO2",
      "Type": "Field",
      "Description": ""
    },
    {
      "Name": "TIME5TO1",
      "Type": "Field",
      "Description": ""
    },
    {
      "Name": "TIME5TO2",
      "Type": "Field",
      "Description": ""
    },
    {
      "Name": "WH",
      "Type": "Field",
      "Description": ""
    }
  ]
}