{
  "Name": "MWSACTDETS",
  "Type": "Table",
  "Description": "PR15847",
  "Children": [
    {
      "Name": "CORTOMWSACT",
      "Type": "Field",
      "Description": ""
    },
    {
      "Name": "DOCID",
      "Type": "Field",
      "Description": ""
    },
    {
      "Name": "DOCPOSID",
      "Type": "Field",
      "Description": ""
    },
    {
      "Name": "DOCTYPE",
      "Type": "Field",
      "Description": ""
    },
    {
      "Name": "GOOD",
      "Type": "Field",
      "Description": ""
    },
    {
      "Name": "LOT",
      "Type": "Field",
      "Description": ""
    },
    {
      "Name": "MWSACT",
      "Type": "Field",
      "Description": ""
    },
    {
      "Name": "MWSCONSTLOCL",
      "Type": "Field",
      "Description": ""
    },
    {
      "Name": "MWSCONSTLOCP",
      "Type": "Field",
      "Description": ""
    },
    {
      "Name": "MWSORD",
      "Type": "Field",
      "Description": ""
    },
    {
      "Name": "MWSPALLOCL",
      "Type": "Field",
      "Description": ""
    },
    {
      "Name": "MWSPALLOCP",
      "Type": "Field",
      "Description": ""
    },
    {
      "Name": "NUMBER",
      "Type": "Field",
      "Description": ""
    },
    {
      "Name": "PLUS",
      "Type": "Field",
      "Description": ""
    },
    {
      "Name": "QUANTITY",
      "Type": "Field",
      "Description": ""
    },
    {
      "Name": "QUANTITYC",
      "Type": "Field",
      "Description": ""
    },
    {
      "Name": "QUANTITYL",
      "Type": "Field",
      "Description": ""
    },
    {
      "Name": "REC",
      "Type": "Field",
      "Description": ""
    },
    {
      "Name": "REF",
      "Type": "Field",
      "Description": ""
    },
    {
      "Name": "STANCEN",
      "Type": "Field",
      "Description": ""
    },
    {
      "Name": "STATUS",
      "Type": "Field",
      "Description": ""
    },
    {
      "Name": "STOCKTAKING",
      "Type": "Field",
      "Description": ""
    },
    {
      "Name": "VERS",
      "Type": "Field",
      "Description": ""
    },
    {
      "Name": "WH",
      "Type": "Field",
      "Description": ""
    },
    {
      "Name": "WHAREA",
      "Type": "Field",
      "Description": ""
    },
    {
      "Name": "WHSEC",
      "Type": "Field",
      "Description": ""
    },
    {
      "Name": "X_PARTIA",
      "Type": "Field",
      "Description": "data (zazwyczaj produkcji) będąca jednoczesnie numerem partii"
    },
    {
      "Name": "X_SERIAL_NO",
      "Type": "Field",
      "Description": "numer seryjny (ref tabeli X_NUMERY_SER)"
    },
    {
      "Name": "X_SLOWNIK",
      "Type": "Field",
      "Description": "Ref tabeli X_SLOWNIKIE_EHRELE (slownik kontraktow myjni, programow komputerowych)"
    }
  ]
}