{
  "Name": "MWSCONSTLOCTYPES",
  "Type": "Table",
  "Description": "PR15847",
  "Children": [
    {
      "Name": "COORDSREQUIRED",
      "Type": "Field",
      "Description": ""
    },
    {
      "Name": "GOODAVMODE",
      "Type": "Field",
      "Description": ""
    },
    {
      "Name": "LOCDEST",
      "Type": "Field",
      "Description": ""
    },
    {
      "Name": "MAXPALLOCQ",
      "Type": "Field",
      "Description": ""
    },
    {
      "Name": "MINUSPOSSIBLE",
      "Type": "Field",
      "Description": ""
    },
    {
      "Name": "MWSACCESREQUIRED",
      "Type": "Field",
      "Description": ""
    },
    {
      "Name": "MWSACCESSORY",
      "Type": "Field",
      "Description": ""
    },
    {
      "Name": "PALLOCREQUIRED",
      "Type": "Field",
      "Description": ""
    },
    {
      "Name": "REF",
      "Type": "Field",
      "Description": ""
    },
    {
      "Name": "STOCKTAKING",
      "Type": "Field",
      "Description": ""
    },
    {
      "Name": "SYMBOL",
      "Type": "Field",
      "Description": ""
    }
  ]
}