{
  "Name": "MWSGOODSREFILL",
  "Type": "Table",
  "Description": "PR15847",
  "Children": [
    {
      "Name": "BLOCKMWSORDS",
      "Type": "Field",
      "Description": ""
    },
    {
      "Name": "CALCMIX",
      "Type": "Field",
      "Description": ""
    },
    {
      "Name": "COLINDEX",
      "Type": "Field",
      "Description": ""
    },
    {
      "Name": "DICTCODE",
      "Type": "Field",
      "Description": ""
    },
    {
      "Name": "DOCACCDATE",
      "Type": "Field",
      "Description": ""
    },
    {
      "Name": "DOCDATE",
      "Type": "Field",
      "Description": ""
    },
    {
      "Name": "DOCID",
      "Type": "Field",
      "Description": ""
    },
    {
      "Name": "DOCPOSID",
      "Type": "Field",
      "Description": ""
    },
    {
      "Name": "DOCTYPE",
      "Type": "Field",
      "Description": ""
    },
    {
      "Name": "GOOD",
      "Type": "Field",
      "Description": ""
    },
    {
      "Name": "LASTCHECK",
      "Type": "Field",
      "Description": ""
    },
    {
      "Name": "LOT",
      "Type": "Field",
      "Description": ""
    },
    {
      "Name": "ORDERED",
      "Type": "Field",
      "Description": ""
    },
    {
      "Name": "POSQUANTITY",
      "Type": "Field",
      "Description": ""
    },
    {
      "Name": "POSQUANTITYORG",
      "Type": "Field",
      "Description": ""
    },
    {
      "Name": "PREPAREGOODS",
      "Type": "Field",
      "Description": ""
    },
    {
      "Name": "PRIORITY",
      "Type": "Field",
      "Description": ""
    },
    {
      "Name": "QUANTITY",
      "Type": "Field",
      "Description": ""
    },
    {
      "Name": "REALDATE",
      "Type": "Field",
      "Description": ""
    },
    {
      "Name": "REALLATER",
      "Type": "Field",
      "Description": ""
    },
    {
      "Name": "REF",
      "Type": "Field",
      "Description": ""
    },
    {
      "Name": "SHIPPINGTYPE",
      "Type": "Field",
      "Description": ""
    },
    {
      "Name": "SHIPPINGTYPEDICT",
      "Type": "Field",
      "Description": ""
    },
    {
      "Name": "STATUS",
      "Type": "Field",
      "Description": ""
    },
    {
      "Name": "STOCKTAKING",
      "Type": "Field",
      "Description": ""
    },
    {
      "Name": "TRIED",
      "Type": "Field",
      "Description": ""
    },
    {
      "Name": "VERS",
      "Type": "Field",
      "Description": ""
    },
    {
      "Name": "WH",
      "Type": "Field",
      "Description": ""
    },
    {
      "Name": "X_PARTIA",
      "Type": "Field",
      "Description": ""
    },
    {
      "Name": "X_SERIAL_NO",
      "Type": "Field",
      "Description": ""
    },
    {
      "Name": "X_SLOWNIK",
      "Type": "Field",
      "Description": ""
    }
  ]
}