{
  "Name": "MWSORDDOCDIFF",
  "Type": "Table",
  "Description": "PR30480",
  "Children": [
    {
      "Name": "CENA",
      "Type": "Field",
      "Description": ""
    },
    {
      "Name": "CENAFROMROZ",
      "Type": "Field",
      "Description": ""
    },
    {
      "Name": "CENATOROZ",
      "Type": "Field",
      "Description": ""
    },
    {
      "Name": "DATA",
      "Type": "Field",
      "Description": ""
    },
    {
      "Name": "DOCID",
      "Type": "Field",
      "Description": ""
    },
    {
      "Name": "DOCTYPE",
      "Type": "Field",
      "Description": ""
    },
    {
      "Name": "DOKUMENT",
      "Type": "Field",
      "Description": ""
    },
    {
      "Name": "DOSTAWA",
      "Type": "Field",
      "Description": ""
    },
    {
      "Name": "FROMMWSACTDET",
      "Type": "Field",
      "Description": ""
    },
    {
      "Name": "GRUPA",
      "Type": "Field",
      "Description": ""
    },
    {
      "Name": "GRUPACEN",
      "Type": "Field",
      "Description": ""
    },
    {
      "Name": "ILOSC",
      "Type": "Field",
      "Description": ""
    },
    {
      "Name": "KTM",
      "Type": "Field",
      "Description": ""
    },
    {
      "Name": "MAGAZYN",
      "Type": "Field",
      "Description": ""
    },
    {
      "Name": "MWSORD",
      "Type": "Field",
      "Description": ""
    },
    {
      "Name": "NUMER",
      "Type": "Field",
      "Description": ""
    },
    {
      "Name": "OPERATOR",
      "Type": "Field",
      "Description": ""
    },
    {
      "Name": "POZYCJA",
      "Type": "Field",
      "Description": ""
    },
    {
      "Name": "REF",
      "Type": "Field",
      "Description": ""
    },
    {
      "Name": "ROZL",
      "Type": "Field",
      "Description": ""
    },
    {
      "Name": "SERIALNR",
      "Type": "Field",
      "Description": ""
    },
    {
      "Name": "SYSCHANGETIME",
      "Type": "Field",
      "Description": ""
    },
    {
      "Name": "WERSJA",
      "Type": "Field",
      "Description": ""
    },
    {
      "Name": "WERSJAREF",
      "Type": "Field",
      "Description": ""
    },
    {
      "Name": "WYDANIA",
      "Type": "Field",
      "Description": ""
    }
  ]
}