{
  "Name": "MWSPRINTSETTINGS",
  "Type": "Table",
  "Description": "PR15847",
  "Children": [
    {
      "Name": "MWSORDTYPEDETS",
      "Type": "Field",
      "Description": ""
    },
    {
      "Name": "OPERATOR",
      "Type": "Field",
      "Description": ""
    },
    {
      "Name": "PRINTER",
      "Type": "Field",
      "Description": ""
    },
    {
      "Name": "RPTSYMBOL",
      "Type": "Field",
      "Description": ""
    },
    {
      "Name": "SHIPPER",
      "Type": "Field",
      "Description": ""
    },
    {
      "Name": "STATUS",
      "Type": "Field",
      "Description": ""
    },
    {
      "Name": "WHAREA",
      "Type": "Field",
      "Description": ""
    }
  ]
}