{
  "Name": "MWSSUPCLR",
  "Type": "Table",
  "Description": "PR15847",
  "Children": [
    {
      "Name": "ATR1FROM",
      "Type": "Field",
      "Description": ""
    },
    {
      "Name": "ATR1TO",
      "Type": "Field",
      "Description": ""
    },
    {
      "Name": "ATR2FROM",
      "Type": "Field",
      "Description": ""
    },
    {
      "Name": "ATR2TO",
      "Type": "Field",
      "Description": ""
    },
    {
      "Name": "DICTSUPFROM",
      "Type": "Field",
      "Description": ""
    },
    {
      "Name": "DICTSUPTO",
      "Type": "Field",
      "Description": ""
    },
    {
      "Name": "DOCIDFROM",
      "Type": "Field",
      "Description": ""
    },
    {
      "Name": "DOCIDTO",
      "Type": "Field",
      "Description": ""
    },
    {
      "Name": "GOODFROM",
      "Type": "Field",
      "Description": ""
    },
    {
      "Name": "GOODTO",
      "Type": "Field",
      "Description": ""
    },
    {
      "Name": "GROUPID",
      "Type": "Field",
      "Description": ""
    },
    {
      "Name": "QUANTITYFROM",
      "Type": "Field",
      "Description": ""
    },
    {
      "Name": "QUANTITYTO",
      "Type": "Field",
      "Description": ""
    },
    {
      "Name": "REF",
      "Type": "Field",
      "Description": ""
    },
    {
      "Name": "REGDATE",
      "Type": "Field",
      "Description": ""
    },
    {
      "Name": "REGOPER",
      "Type": "Field",
      "Description": ""
    },
    {
      "Name": "SUPFROM",
      "Type": "Field",
      "Description": ""
    },
    {
      "Name": "SUPTO",
      "Type": "Field",
      "Description": ""
    },
    {
      "Name": "VERSFROM",
      "Type": "Field",
      "Description": ""
    },
    {
      "Name": "VERSTO",
      "Type": "Field",
      "Description": ""
    }
  ]
}