{
  "Name": "MWSSTANDS",
  "Type": "Table",
  "Description": "PR15847",
  "Children": [
    {
      "Name": "L",
      "Type": "Field",
      "Description": ""
    },
    {
      "Name": "LOADCAPACITY",
      "Type": "Field",
      "Description": ""
    },
    {
      "Name": "MWSSTANDSEGQ",
      "Type": "Field",
      "Description": ""
    },
    {
      "Name": "MWSSTANDTYPE",
      "Type": "Field",
      "Description": ""
    },
    {
      "Name": "NUMBER",
      "Type": "Field",
      "Description": ""
    },
    {
      "Name": "ORD",
      "Type": "Field",
      "Description": ""
    },
    {
      "Name": "REF",
      "Type": "Field",
      "Description": ""
    },
    {
      "Name": "STORIESQUANT",
      "Type": "Field",
      "Description": ""
    },
    {
      "Name": "SYMBOL",
      "Type": "Field",
      "Description": ""
    },
    {
      "Name": "W",
      "Type": "Field",
      "Description": ""
    },
    {
      "Name": "WH",
      "Type": "Field",
      "Description": ""
    },
    {
      "Name": "WHSEC",
      "Type": "Field",
      "Description": ""
    },
    {
      "Name": "WHSECDICT",
      "Type": "Field",
      "Description": ""
    },
    {
      "Name": "WHSECROW",
      "Type": "Field",
      "Description": ""
    },
    {
      "Name": "WHSECROWDICT",
      "Type": "Field",
      "Description": ""
    }
  ]
}