{
  "Name": "MWSSTANDSEGS",
  "Type": "Table",
  "Description": "PR15847",
  "Children": [
    {
      "Name": "L",
      "Type": "Field",
      "Description": ""
    },
    {
      "Name": "MWSCONSTLOCSQ",
      "Type": "Field",
      "Description": ""
    },
    {
      "Name": "MWSSTAND",
      "Type": "Field",
      "Description": ""
    },
    {
      "Name": "MWSSTANDNUMBER",
      "Type": "Field",
      "Description": ""
    },
    {
      "Name": "MWSSTANDSEGTYPE",
      "Type": "Field",
      "Description": ""
    },
    {
      "Name": "MWSSTANDSEGTYPEDICT",
      "Type": "Field",
      "Description": ""
    },
    {
      "Name": "REF",
      "Type": "Field",
      "Description": ""
    },
    {
      "Name": "SYMBOL",
      "Type": "Field",
      "Description": ""
    },
    {
      "Name": "W",
      "Type": "Field",
      "Description": ""
    },
    {
      "Name": "WH",
      "Type": "Field",
      "Description": ""
    },
    {
      "Name": "WHAREATYPE",
      "Type": "Field",
      "Description": ""
    },
    {
      "Name": "WHSEC",
      "Type": "Field",
      "Description": ""
    },
    {
      "Name": "WHSECDICT",
      "Type": "Field",
      "Description": ""
    },
    {
      "Name": "WHSECROW",
      "Type": "Field",
      "Description": ""
    },
    {
      "Name": "WHSECROWDICT",
      "Type": "Field",
      "Description": ""
    }
  ]
}