{
  "Name": "NOMINATIONS",
  "Type": "Table",
  "Description": "PR28609",
  "Children": [
    {
      "Name": "CURRENCY",
      "Type": "Field",
      "Description": ""
    },
    {
      "Name": "CVALUE",
      "Type": "Field",
      "Description": ""
    },
    {
      "Name": "REF",
      "Type": "Field",
      "Description": ""
    }
  ]
}