{
  "Name": "NOTIFPARAMS",
  "Type": "Table",
  "Description": "PR32783",
  "Children": [
    {
      "Name": "ATTACHMENTTYPE",
      "Type": "Field",
      "Description": ""
    },
    {
      "Name": "NOTIFSTEP",
      "Type": "Field",
      "Description": ""
    },
    {
      "Name": "PARAMNAME",
      "Type": "Field",
      "Description": ""
    },
    {
      "Name": "PARAMVALUE",
      "Type": "Field",
      "Description": ""
    },
    {
      "Name": "REF",
      "Type": "Field",
      "Description": ""
    }
  ]
}