{
  "Name": "NOTIFEXCELCOLS",
  "Type": "Table",
  "Description": "PR32783",
  "Children": [
    {
      "Name": "BACKCOLOUR",
      "Type": "Field",
      "Description": ""
    },
    {
      "Name": "BORDERS",
      "Type": "Field",
      "Description": ""
    },
    {
      "Name": "COLUMNNUMBER",
      "Type": "Field",
      "Description": ""
    },
    {
      "Name": "FONT",
      "Type": "Field",
      "Description": ""
    },
    {
      "Name": "FONTCOLOUR",
      "Type": "Field",
      "Description": ""
    },
    {
      "Name": "FONTSIZE",
      "Type": "Field",
      "Description": ""
    },
    {
      "Name": "LABEL",
      "Type": "Field",
      "Description": ""
    },
    {
      "Name": "NOTIFSTEP",
      "Type": "Field",
      "Description": ""
    },
    {
      "Name": "REF",
      "Type": "Field",
      "Description": ""
    },
    {
      "Name": "SHEETNAME",
      "Type": "Field",
      "Description": ""
    },
    {
      "Name": "STYLE",
      "Type": "Field",
      "Description": ""
    },
    {
      "Name": "VAL",
      "Type": "Field",
      "Description": ""
    }
  ]
}