{
  "Name": "ODEFFORMP",
  "Type": "Table",
  "Description": "tabela zawiera pozycje definicji formularzy z Witryny",
  "Children": [
    {
      "Name": "BLAD",
      "Type": "Field",
      "Description": ""
    },
    {
      "Name": "EXTRAS",
      "Type": "Field",
      "Description": ""
    },
    {
      "Name": "FORMA",
      "Type": "Field",
      "Description": ""
    },
    {
      "Name": "GRUPA",
      "Type": "Field",
      "Description": ""
    },
    {
      "Name": "HTMLID",
      "Type": "Field",
      "Description": ""
    },
    {
      "Name": "HTMLNAZWA",
      "Type": "Field",
      "Description": ""
    },
    {
      "Name": "HTMLTYP",
      "Type": "Field",
      "Description": ""
    },
    {
      "Name": "HTMLWARTOSC",
      "Type": "Field",
      "Description": ""
    },
    {
      "Name": "KOMENTARZ",
      "Type": "Field",
      "Description": ""
    },
    {
      "Name": "NUMER",
      "Type": "Field",
      "Description": ""
    },
    {
      "Name": "PARAM",
      "Type": "Field",
      "Description": ""
    },
    {
      "Name": "POZIOM",
      "Type": "Field",
      "Description": ""
    },
    {
      "Name": "ROZMIAR",
      "Type": "Field",
      "Description": ""
    },
    {
      "Name": "STATE",
      "Type": "Field",
      "Description": ""
    },
    {
      "Name": "TYTUL",
      "Type": "Field",
      "Description": ""
    },
    {
      "Name": "WARTOSCD",
      "Type": "Field",
      "Description": ""
    }
  ]
}