{
  "Name": "OPERACCESS",
  "Type": "Table",
  "Description": "PR59077;",
  "Children": [
    {
      "Name": "APPLICATIONS",
      "Type": "Field",
      "Description": ""
    },
    {
      "Name": "DEFAULTACCESS",
      "Type": "Field",
      "Description": ""
    },
    {
      "Name": "MODULES",
      "Type": "Field",
      "Description": ""
    },
    {
      "Name": "ODDZIAL",
      "Type": "Field",
      "Description": ""
    },
    {
      "Name": "OPERATOR",
      "Type": "Field",
      "Description": ""
    }
  ]
}