{
  "Name": "OPERMAG",
  "Type": "Table",
  "Description": "tabela zawiera powi?zania operatorów i magazynów",
  "Children": [
    {
      "Name": "CANCHANGEMWSCONSTLOCL",
      "Type": "Field",
      "Description": ""
    },
    {
      "Name": "CANTAKEMWSORDS",
      "Type": "Field",
      "Description": ""
    },
    {
      "Name": "DELDOKMAGFROMZAM",
      "Type": "Field",
      "Description": ""
    },
    {
      "Name": "DOKUMTYPESACCEPTBACKRIGHT",
      "Type": "Field",
      "Description": ""
    },
    {
      "Name": "DOKUMTYPESACCEPTRIGHT",
      "Type": "Field",
      "Description": ""
    },
    {
      "Name": "DOKUMTYPESCHANGERIGHT",
      "Type": "Field",
      "Description": ""
    },
    {
      "Name": "DOKUMTYPESNEWRIGHT",
      "Type": "Field",
      "Description": ""
    },
    {
      "Name": "GRANTS",
      "Type": "Field",
      "Description": ""
    },
    {
      "Name": "KONTROLAPAK",
      "Type": "Field",
      "Description": ""
    },
    {
      "Name": "MAGAZYN",
      "Type": "Field",
      "Description": ""
    },
    {
      "Name": "MWSORDSASSIGN",
      "Type": "Field",
      "Description": ""
    },
    {
      "Name": "OPERATOR",
      "Type": "Field",
      "Description": ""
    },
    {
      "Name": "SUPERVISOR",
      "Type": "Field",
      "Description": ""
    },
    {
      "Name": "UJEMNE",
      "Type": "Field",
      "Description": ""
    },
    {
      "Name": "VERIFYMWSCONSTLOC",
      "Type": "Field",
      "Description": ""
    },
    {
      "Name": "WHSEC",
      "Type": "Field",
      "Description": "PR118165"
    }
  ]
}