{
  "Name": "PERSONFILES",
  "Type": "Table",
  "Description": "PR18548",
  "Children": [
    {
      "Name": "DESCRIPT",
      "Type": "Field",
      "Description": ""
    },
    {
      "Name": "FILENAME",
      "Type": "Field",
      "Description": ""
    },
    {
      "Name": "FTYPE",
      "Type": "Field",
      "Description": ""
    },
    {
      "Name": "NAME",
      "Type": "Field",
      "Description": ""
    },
    {
      "Name": "PERSON",
      "Type": "Field",
      "Description": ""
    },
    {
      "Name": "REF",
      "Type": "Field",
      "Description": ""
    }
  ]
}