{
  "Name": "PLANS",
  "Type": "Table",
  "Description": "plany (sprzedaży, zakupów, produkcyjne)",
  "Children": [
    {
      "Name": "COMPANY",
      "Type": "Field",
      "Description": ""
    },
    {
      "Name": "KEYAMOUNT",
      "Type": "Field",
      "Description": ""
    },
    {
      "Name": "NAME",
      "Type": "Field",
      "Description": ""
    },
    {
      "Name": "PLANSTYPE",
      "Type": "Field",
      "Description": ""
    },
    {
      "Name": "PRDEPART",
      "Type": "Field",
      "Description": ""
    },
    {
      "Name": "REF",
      "Type": "Field",
      "Description": ""
    },
    {
      "Name": "SLODEF",
      "Type": "Field",
      "Description": ""
    },
    {
      "Name": "SLOPOZ",
      "Type": "Field",
      "Description": ""
    },
    {
      "Name": "SQLCOL",
      "Type": "Field",
      "Description": ""
    },
    {
      "Name": "SQLPROC",
      "Type": "Field",
      "Description": ""
    },
    {
      "Name": "SQLREAL",
      "Type": "Field",
      "Description": ""
    },
    {
      "Name": "SQLROW",
      "Type": "Field",
      "Description": ""
    },
    {
      "Name": "STATICKEYAMOUNT",
      "Type": "Field",
      "Description": ""
    },
    {
      "Name": "STATUS",
      "Type": "Field",
      "Description": ""
    },
    {
      "Name": "STEP",
      "Type": "Field",
      "Description": ""
    }
  ]
}