{
  "Name": "PLANSROW",
  "Type": "Table",
  "Description": "wiersz planów",
  "Children": [
    {
      "Name": "KEY1",
      "Type": "Field",
      "Description": ""
    },
    {
      "Name": "KEY2",
      "Type": "Field",
      "Description": ""
    },
    {
      "Name": "KEY3",
      "Type": "Field",
      "Description": ""
    },
    {
      "Name": "KEY4",
      "Type": "Field",
      "Description": ""
    },
    {
      "Name": "PLANS",
      "Type": "Field",
      "Description": ""
    },
    {
      "Name": "REF",
      "Type": "Field",
      "Description": ""
    }
  ]
}