{
  "Name": "PMPLANS",
  "Type": "Table",
  "Description": "PR07187;PMPLANS – plany operacyjne PMG\r\nREGDATE – data założenia\r\nREFOPER – założyciel(operator)\r\nNAME – nazwa zadania\r\nSYMBOL – numer planu / zlecenia\r\nCONTRTYPE – charakter planu (kontrakt zewnętrzny/TZB/inwestycja własna/remont własny/reklamacja/prefabrykacja)\r\nDESCRIPT – opis słowny inwestycji\r\nCUNTRY, REGION, CITY, STREET, PHONE, FAX – adres inwestycji\r\nPMCONTRACT – numer umowy z inwestorem (za słownika umów)\r\nMAGAZYN – symbol powiązanego magazynu\r\nFAZA – status (w przygotowaniu/oferta złożona/...)\r\nREADRIGHTS – lista operatorów uprawnionych do odczytu danych planu\r\nWRITERIGHTS - lista operatorów uprawnionych do zapisu danych planu\r\nPLSTARTDATE – planowana data rozpoczęcia inwestycji\r\nPLENDDATE – planowana data zakończniaa inwestycji\r\nPLCLOSEDATE – data odbioru końcowego inwestycji\r\nKLIENT – inwestor\r\nPLATNIK – płatnik\r\nPMVALLIMIT – odniesienie do słownika limitów wartościowych\r\nPMPLANMASTER – numer zlecenia nadrzędnego\r\nOSYMBOL – numer oferty\r\nOREGDATE – data wpłynięcia zaproszenia\r\nOINVITEDATE – data zaproszenia do składania ofert\r\nOPRODDATE – data i godzina składania oferty\r\nOPRODPLACE – miejsce składania oferty\r\nOOPENDATE – data i godzina otwarcia oferty\r\nOOPENPLACE – miejsce otwarcia oferty\r\nOSTARTDATE – pożądany termin rozpoczęcia\r\nOENDDATE – pożądany termin zakończenia\r\nODESCRIPT – zakres rzeczowy inwestycji (opis)\r\nOSTATUS – status firmy (oferent/podwykonawca/współkorsoncjant)\r\nOPUBLIC – znacznik, czy oferta podlega ustawie o zamówieniach publicznych\r\nOTYPE – rodzaj przetargu (zaproszenie/przetarg ograniczony/przetarg nieograniczony/ negocjacje)\r\nVADIUM – kwota wadium\r\nVADIUMDATE – termin wpłacenia wadium\r\nOPERSON – osoba kontaktowa\r\nOVALUE – wartość oferty\r\nOCURRENCY – waluta oferty\r\nOREPORT – raport z przetargu\r\nOREMARKS – uwagi\r\nOVALLID – okres ważności oferty (liczba dni)\r\nVERSION - wersja planu\r\nMAINREF - powiązanie z planem, który jest jego aktualną wersją",
  "Children": [
    {
      "Name": "BUDE",
      "Type": "Field",
      "Description": ""
    },
    {
      "Name": "BUDEVAL",
      "Type": "Field",
      "Description": ""
    },
    {
      "Name": "BUDMVAL",
      "Type": "Field",
      "Description": ""
    },
    {
      "Name": "BUDPROC",
      "Type": "Field",
      "Description": ""
    },
    {
      "Name": "BUDSUMVAL",
      "Type": "Field",
      "Description": ""
    },
    {
      "Name": "BUDSVAL",
      "Type": "Field",
      "Description": ""
    },
    {
      "Name": "BUDVAL",
      "Type": "Field",
      "Description": ""
    },
    {
      "Name": "BUDW",
      "Type": "Field",
      "Description": ""
    },
    {
      "Name": "BUDWVAL",
      "Type": "Field",
      "Description": ""
    },
    {
      "Name": "CALCE",
      "Type": "Field",
      "Description": ""
    },
    {
      "Name": "CALCEVAL",
      "Type": "Field",
      "Description": ""
    },
    {
      "Name": "CALCMVAL",
      "Type": "Field",
      "Description": ""
    },
    {
      "Name": "CALCSUMVAL",
      "Type": "Field",
      "Description": ""
    },
    {
      "Name": "CALCSVAL",
      "Type": "Field",
      "Description": ""
    },
    {
      "Name": "CALCVAL",
      "Type": "Field",
      "Description": ""
    },
    {
      "Name": "CALCW",
      "Type": "Field",
      "Description": ""
    },
    {
      "Name": "CALCWVAL",
      "Type": "Field",
      "Description": ""
    },
    {
      "Name": "CITY",
      "Type": "Field",
      "Description": ""
    },
    {
      "Name": "CONTRACT",
      "Type": "Field",
      "Description": ""
    },
    {
      "Name": "CONTRTYPE",
      "Type": "Field",
      "Description": ""
    },
    {
      "Name": "COUNTRY",
      "Type": "Field",
      "Description": ""
    },
    {
      "Name": "CPODMIOT",
      "Type": "Field",
      "Description": ""
    },
    {
      "Name": "DESCRIPT",
      "Type": "Field",
      "Description": ""
    },
    {
      "Name": "DISPLAYNAME",
      "Type": "Field",
      "Description": ""
    },
    {
      "Name": "EREALE",
      "Type": "Field",
      "Description": ""
    },
    {
      "Name": "EREALEVAL",
      "Type": "Field",
      "Description": ""
    },
    {
      "Name": "EREALMVAL",
      "Type": "Field",
      "Description": ""
    },
    {
      "Name": "EREALSUMVAL",
      "Type": "Field",
      "Description": ""
    },
    {
      "Name": "EREALSVAL",
      "Type": "Field",
      "Description": ""
    },
    {
      "Name": "EREALVAL",
      "Type": "Field",
      "Description": ""
    },
    {
      "Name": "EREALW",
      "Type": "Field",
      "Description": ""
    },
    {
      "Name": "EREALWVAL",
      "Type": "Field",
      "Description": ""
    },
    {
      "Name": "FAX",
      "Type": "Field",
      "Description": ""
    },
    {
      "Name": "FAZA",
      "Type": "Field",
      "Description": ""
    },
    {
      "Name": "GRUPA",
      "Type": "Field",
      "Description": ""
    },
    {
      "Name": "KLIENT",
      "Type": "Field",
      "Description": ""
    },
    {
      "Name": "MAGAZYN",
      "Type": "Field",
      "Description": ""
    },
    {
      "Name": "MAINREF",
      "Type": "Field",
      "Description": ""
    },
    {
      "Name": "MAINVERSION",
      "Type": "Field",
      "Description": ""
    },
    {
      "Name": "NAME",
      "Type": "Field",
      "Description": ""
    },
    {
      "Name": "OCURRENCY",
      "Type": "Field",
      "Description": ""
    },
    {
      "Name": "ODESCRIPT",
      "Type": "Field",
      "Description": ""
    },
    {
      "Name": "OENDDATE",
      "Type": "Field",
      "Description": ""
    },
    {
      "Name": "OINVITEDATE",
      "Type": "Field",
      "Description": ""
    },
    {
      "Name": "OOPENDATE",
      "Type": "Field",
      "Description": ""
    },
    {
      "Name": "OOPENPLACE",
      "Type": "Field",
      "Description": ""
    },
    {
      "Name": "OPERSON",
      "Type": "Field",
      "Description": ""
    },
    {
      "Name": "OPRODDATE",
      "Type": "Field",
      "Description": ""
    },
    {
      "Name": "OPRODPLACE",
      "Type": "Field",
      "Description": ""
    },
    {
      "Name": "OPUBLIC",
      "Type": "Field",
      "Description": ""
    },
    {
      "Name": "OREGDATE",
      "Type": "Field",
      "Description": ""
    },
    {
      "Name": "OREMARKS",
      "Type": "Field",
      "Description": ""
    },
    {
      "Name": "OREPORT",
      "Type": "Field",
      "Description": ""
    },
    {
      "Name": "OSTARTDATE",
      "Type": "Field",
      "Description": ""
    },
    {
      "Name": "OSTATUS",
      "Type": "Field",
      "Description": ""
    },
    {
      "Name": "OSYMBOL",
      "Type": "Field",
      "Description": ""
    },
    {
      "Name": "OTYPE",
      "Type": "Field",
      "Description": ""
    },
    {
      "Name": "OVALID",
      "Type": "Field",
      "Description": ""
    },
    {
      "Name": "OVALUE",
      "Type": "Field",
      "Description": ""
    },
    {
      "Name": "PHONE",
      "Type": "Field",
      "Description": ""
    },
    {
      "Name": "PLATNIK",
      "Type": "Field",
      "Description": ""
    },
    {
      "Name": "PLCLOSEDATE",
      "Type": "Field",
      "Description": ""
    },
    {
      "Name": "PLENDDATE",
      "Type": "Field",
      "Description": ""
    },
    {
      "Name": "PLSTARTDATE",
      "Type": "Field",
      "Description": ""
    },
    {
      "Name": "PMCONTRACT",
      "Type": "Field",
      "Description": ""
    },
    {
      "Name": "PMPLANMASTER",
      "Type": "Field",
      "Description": ""
    },
    {
      "Name": "PMPLANMASTERNAME",
      "Type": "Field",
      "Description": ""
    },
    {
      "Name": "PMVALLIMIT",
      "Type": "Field",
      "Description": ""
    },
    {
      "Name": "READRIGHTS",
      "Type": "Field",
      "Description": ""
    },
    {
      "Name": "READRIGHTSGROUP",
      "Type": "Field",
      "Description": ""
    },
    {
      "Name": "REALE",
      "Type": "Field",
      "Description": ""
    },
    {
      "Name": "REALEVAL",
      "Type": "Field",
      "Description": ""
    },
    {
      "Name": "REALMVAL",
      "Type": "Field",
      "Description": ""
    },
    {
      "Name": "REALSUMVAL",
      "Type": "Field",
      "Description": ""
    },
    {
      "Name": "REALSVAL",
      "Type": "Field",
      "Description": ""
    },
    {
      "Name": "REALVAL",
      "Type": "Field",
      "Description": ""
    },
    {
      "Name": "REALW",
      "Type": "Field",
      "Description": ""
    },
    {
      "Name": "REALWVAL",
      "Type": "Field",
      "Description": ""
    },
    {
      "Name": "REF",
      "Type": "Field",
      "Description": ""
    },
    {
      "Name": "REGDATE",
      "Type": "Field",
      "Description": ""
    },
    {
      "Name": "REGION",
      "Type": "Field",
      "Description": ""
    },
    {
      "Name": "REGOPER",
      "Type": "Field",
      "Description": ""
    },
    {
      "Name": "STREET",
      "Type": "Field",
      "Description": ""
    },
    {
      "Name": "SYMBOL",
      "Type": "Field",
      "Description": ""
    },
    {
      "Name": "VADIUM",
      "Type": "Field",
      "Description": ""
    },
    {
      "Name": "VADIUMDATE",
      "Type": "Field",
      "Description": ""
    },
    {
      "Name": "VERSION",
      "Type": "Field",
      "Description": ""
    },
    {
      "Name": "VERSIONNUM",
      "Type": "Field",
      "Description": ""
    },
    {
      "Name": "WRITERIGHTS",
      "Type": "Field",
      "Description": ""
    },
    {
      "Name": "WRITERIGHTSGROUP",
      "Type": "Field",
      "Description": ""
    }
  ]
}