{
  "Name": "POZZAMDYSP",
  "Type": "Table",
  "Description": "Tabela rozpisania zamówienia dla danej pozycji\r\n zamówienia bazowego.\r\n\r\nJEDN - jednostka zawsze zgodna z jednostka rozliczeniową zpzycji zamówienia, do której \r\n POZZAMDYSP jest tworozny\r\nJEDNO - opakowanie dyspozyci - może być różne od opakowania zamówienia \r\nTYP - typ dyspocji\r\n 1 - pośrednia\r\n 2 - bezpośrednia\r\n 3 - na montaz\r\n 4 - do dostawcy",
  "Children": [
    {
      "Name": "DOSTAWCA",
      "Type": "Field",
      "Description": ""
    },
    {
      "Name": "ILOSC",
      "Type": "Field",
      "Description": ""
    },
    {
      "Name": "ILOSCM",
      "Type": "Field",
      "Description": ""
    },
    {
      "Name": "ILOSCO",
      "Type": "Field",
      "Description": ""
    },
    {
      "Name": "JEDN",
      "Type": "Field",
      "Description": ""
    },
    {
      "Name": "JEDNO",
      "Type": "Field",
      "Description": ""
    },
    {
      "Name": "MAG2",
      "Type": "Field",
      "Description": ""
    },
    {
      "Name": "MAGAZYN",
      "Type": "Field",
      "Description": ""
    },
    {
      "Name": "POZZAM",
      "Type": "Field",
      "Description": ""
    },
    {
      "Name": "REF",
      "Type": "Field",
      "Description": ""
    },
    {
      "Name": "TYP",
      "Type": "Field",
      "Description": ""
    },
    {
      "Name": "ZAMOWIENIE",
      "Type": "Field",
      "Description": ""
    }
  ]
}