{
  "Name": "PRCALCCOLS",
  "Type": "Table",
  "Description": "kolumny kalkulacji produkcyjnych",
  "Children": [
    {
      "Name": "CALC",
      "Type": "Field",
      "Description": ""
    },
    {
      "Name": "CALCTOPARENT",
      "Type": "Field",
      "Description": ""
    },
    {
      "Name": "CALCTYPE",
      "Type": "Field",
      "Description": ""
    },
    {
      "Name": "COLOR",
      "Type": "Field",
      "Description": ""
    },
    {
      "Name": "CVALUE",
      "Type": "Field",
      "Description": ""
    },
    {
      "Name": "DESCRIPT",
      "Type": "Field",
      "Description": ""
    },
    {
      "Name": "EXCLUDED",
      "Type": "Field",
      "Description": ""
    },
    {
      "Name": "EXPR",
      "Type": "Field",
      "Description": ""
    },
    {
      "Name": "FROMPRCALCCOL",
      "Type": "Field",
      "Description": ""
    },
    {
      "Name": "FROMPRCALCCOLPAR",
      "Type": "Field",
      "Description": ""
    },
    {
      "Name": "FROMPRSHMAT",
      "Type": "Field",
      "Description": ""
    },
    {
      "Name": "FROMPRSHOPER",
      "Type": "Field",
      "Description": ""
    },
    {
      "Name": "FROMPRSHTOOL",
      "Type": "Field",
      "Description": ""
    },
    {
      "Name": "ICON",
      "Type": "Field",
      "Description": ""
    },
    {
      "Name": "ISALT",
      "Type": "Field",
      "Description": ""
    },
    {
      "Name": "KEY1",
      "Type": "Field",
      "Description": ""
    },
    {
      "Name": "KEY2",
      "Type": "Field",
      "Description": ""
    },
    {
      "Name": "MODIFIED",
      "Type": "Field",
      "Description": ""
    },
    {
      "Name": "PARENT",
      "Type": "Field",
      "Description": ""
    },
    {
      "Name": "PRCOLUMN",
      "Type": "Field",
      "Description": ""
    },
    {
      "Name": "PREFIX",
      "Type": "Field",
      "Description": ""
    },
    {
      "Name": "PRSHOPERALT",
      "Type": "Field",
      "Description": ""
    },
    {
      "Name": "REF",
      "Type": "Field",
      "Description": ""
    }
  ]
}