{
  "Name": "PRDGROUPS",
  "Type": "Table",
  "Description": "grupy RMK",
  "Children": [
    {
      "Name": "DESCRIPT",
      "Type": "Field",
      "Description": ""
    },
    {
      "Name": "SYMBOL",
      "Type": "Field",
      "Description": ""
    }
  ]
}