{
  "Name": "PRGENORDSPREPARE",
  "Type": "Table",
  "Description": "PR45221;",
  "Children": [
    {
      "Name": "AMOUNT",
      "Type": "Field",
      "Description": ""
    },
    {
      "Name": "AMOUNTGEN",
      "Type": "Field",
      "Description": ""
    },
    {
      "Name": "AMOUNTINORD",
      "Type": "Field",
      "Description": ""
    },
    {
      "Name": "AMOUNTINPRORD",
      "Type": "Field",
      "Description": ""
    },
    {
      "Name": "AMOUNTINWH",
      "Type": "Field",
      "Description": ""
    },
    {
      "Name": "AMOUNTMAX",
      "Type": "Field",
      "Description": ""
    },
    {
      "Name": "AMOUNTMIN",
      "Type": "Field",
      "Description": ""
    },
    {
      "Name": "AUTOSCHED",
      "Type": "Field",
      "Description": ""
    },
    {
      "Name": "DESCRIPT",
      "Type": "Field",
      "Description": ""
    },
    {
      "Name": "GRUPAGEN",
      "Type": "Field",
      "Description": ""
    },
    {
      "Name": "MODE",
      "Type": "Field",
      "Description": ""
    },
    {
      "Name": "NAGZAM",
      "Type": "Field",
      "Description": ""
    },
    {
      "Name": "OREF",
      "Type": "Field",
      "Description": ""
    },
    {
      "Name": "OTABLE",
      "Type": "Field",
      "Description": ""
    },
    {
      "Name": "PARAMD1",
      "Type": "Field",
      "Description": ""
    },
    {
      "Name": "PARAMD2",
      "Type": "Field",
      "Description": ""
    },
    {
      "Name": "PARAMD3",
      "Type": "Field",
      "Description": ""
    },
    {
      "Name": "PARAMD4",
      "Type": "Field",
      "Description": ""
    },
    {
      "Name": "PARAMN1",
      "Type": "Field",
      "Description": ""
    },
    {
      "Name": "PARAMN10",
      "Type": "Field",
      "Description": ""
    },
    {
      "Name": "PARAMN11",
      "Type": "Field",
      "Description": ""
    },
    {
      "Name": "PARAMN12",
      "Type": "Field",
      "Description": ""
    },
    {
      "Name": "PARAMN2",
      "Type": "Field",
      "Description": ""
    },
    {
      "Name": "PARAMN3",
      "Type": "Field",
      "Description": ""
    },
    {
      "Name": "PARAMN4",
      "Type": "Field",
      "Description": ""
    },
    {
      "Name": "PARAMN5",
      "Type": "Field",
      "Description": ""
    },
    {
      "Name": "PARAMN6",
      "Type": "Field",
      "Description": ""
    },
    {
      "Name": "PARAMN7",
      "Type": "Field",
      "Description": ""
    },
    {
      "Name": "PARAMN8",
      "Type": "Field",
      "Description": ""
    },
    {
      "Name": "PARAMN9",
      "Type": "Field",
      "Description": ""
    },
    {
      "Name": "PARAMS1",
      "Type": "Field",
      "Description": ""
    },
    {
      "Name": "PARAMS10",
      "Type": "Field",
      "Description": ""
    },
    {
      "Name": "PARAMS11",
      "Type": "Field",
      "Description": ""
    },
    {
      "Name": "PARAMS12",
      "Type": "Field",
      "Description": ""
    },
    {
      "Name": "PARAMS2",
      "Type": "Field",
      "Description": ""
    },
    {
      "Name": "PARAMS3",
      "Type": "Field",
      "Description": ""
    },
    {
      "Name": "PARAMS4",
      "Type": "Field",
      "Description": ""
    },
    {
      "Name": "PARAMS5",
      "Type": "Field",
      "Description": ""
    },
    {
      "Name": "PARAMS6",
      "Type": "Field",
      "Description": ""
    },
    {
      "Name": "PARAMS7",
      "Type": "Field",
      "Description": ""
    },
    {
      "Name": "PARAMS8",
      "Type": "Field",
      "Description": ""
    },
    {
      "Name": "PARAMS9",
      "Type": "Field",
      "Description": ""
    },
    {
      "Name": "POZZAM",
      "Type": "Field",
      "Description": ""
    },
    {
      "Name": "PRDEPART",
      "Type": "Field",
      "Description": ""
    },
    {
      "Name": "PRNAGZAM",
      "Type": "Field",
      "Description": ""
    },
    {
      "Name": "PRORD",
      "Type": "Field",
      "Description": ""
    },
    {
      "Name": "PRPOZZAM",
      "Type": "Field",
      "Description": ""
    },
    {
      "Name": "PRSCHEDZAMDATE",
      "Type": "Field",
      "Description": ""
    },
    {
      "Name": "PRSHEET",
      "Type": "Field",
      "Description": ""
    },
    {
      "Name": "REF",
      "Type": "Field",
      "Description": ""
    },
    {
      "Name": "REJESTR",
      "Type": "Field",
      "Description": ""
    },
    {
      "Name": "STATUS",
      "Type": "Field",
      "Description": ""
    },
    {
      "Name": "TERMDOST",
      "Type": "Field",
      "Description": ""
    },
    {
      "Name": "WERSJAREF",
      "Type": "Field",
      "Description": ""
    }
  ]
}