{
  "Name": "PRSCHEDULEVERIFY",
  "Type": "Table",
  "Description": "PR43730;",
  "Children": [
    {
      "Name": "DESCRIPT",
      "Type": "Field",
      "Description": ""
    },
    {
      "Name": "ENDTIME",
      "Type": "Field",
      "Description": ""
    },
    {
      "Name": "EXPAND",
      "Type": "Field",
      "Description": ""
    },
    {
      "Name": "KTM",
      "Type": "Field",
      "Description": ""
    },
    {
      "Name": "NAGZAMID",
      "Type": "Field",
      "Description": ""
    },
    {
      "Name": "NAGZAMREF",
      "Type": "Field",
      "Description": ""
    },
    {
      "Name": "PARENT",
      "Type": "Field",
      "Description": ""
    },
    {
      "Name": "POZZAMREF",
      "Type": "Field",
      "Description": ""
    },
    {
      "Name": "PRMACHINE",
      "Type": "Field",
      "Description": ""
    },
    {
      "Name": "PROPER",
      "Type": "Field",
      "Description": ""
    },
    {
      "Name": "PRSCHEDGUIDE",
      "Type": "Field",
      "Description": ""
    },
    {
      "Name": "PRSCHEDGUIDEPOS",
      "Type": "Field",
      "Description": ""
    },
    {
      "Name": "PRSCHEDOPER",
      "Type": "Field",
      "Description": ""
    },
    {
      "Name": "PRSCHEDVIEW",
      "Type": "Field",
      "Description": ""
    },
    {
      "Name": "PRSHOPER",
      "Type": "Field",
      "Description": ""
    },
    {
      "Name": "QUANTITY",
      "Type": "Field",
      "Description": ""
    },
    {
      "Name": "QUANTITYR",
      "Type": "Field",
      "Description": ""
    },
    {
      "Name": "REF",
      "Type": "Field",
      "Description": ""
    },
    {
      "Name": "WERSJAREF",
      "Type": "Field",
      "Description": ""
    }
  ]
}