{
  "Name": "PRSCHEDULERESOURCES",
  "Type": "Table",
  "Description": "PR43730;",
  "Children": [
    {
      "Name": "AVQUANTITY",
      "Type": "Field",
      "Description": ""
    },
    {
      "Name": "MINUSQ",
      "Type": "Field",
      "Description": ""
    },
    {
      "Name": "ONDATE",
      "Type": "Field",
      "Description": ""
    },
    {
      "Name": "PLUSQ",
      "Type": "Field",
      "Description": ""
    },
    {
      "Name": "QUANTITY",
      "Type": "Field",
      "Description": ""
    },
    {
      "Name": "QUANTITYAFTER",
      "Type": "Field",
      "Description": ""
    },
    {
      "Name": "REF",
      "Type": "Field",
      "Description": ""
    },
    {
      "Name": "STATUS",
      "Type": "Field",
      "Description": ""
    },
    {
      "Name": "SYMBOL",
      "Type": "Field",
      "Description": ""
    },
    {
      "Name": "USEDQUANTITY",
      "Type": "Field",
      "Description": ""
    }
  ]
}