{
  "Name": "PRSHTYPES",
  "Type": "Table",
  "Description": "typy kart technologicznych\r\n\r\n\r\npole TYPZAM\r\n0-zlecenie KPL(kompletacji)\r\n1-zlecenie procedure (produkcji)\r\n\r\nTYPKALK - pole informuje czy domyslnie zakladac indywidualna kalkulacje dla zlecen\r\n0-nie\r\n1-tak",
  "Children": [
    {
      "Name": "DESCRIPT",
      "Type": "Field",
      "Description": ""
    },
    {
      "Name": "PRSHEETPARSNAME",
      "Type": "Field",
      "Description": ""
    },
    {
      "Name": "SYMBOL",
      "Type": "Field",
      "Description": ""
    },
    {
      "Name": "TYPKALK",
      "Type": "Field",
      "Description": ""
    },
    {
      "Name": "TYPZAM",
      "Type": "Field",
      "Description": ""
    }
  ]
}