{
  "Name": "PRSHEETS",
  "Type": "Table",
  "Description": "karty technologiczne",
  "Children": [
    {
      "Name": "ACCOPER",
      "Type": "Field",
      "Description": ""
    },
    {
      "Name": "AMOUNTINFROM",
      "Type": "Field",
      "Description": ""
    },
    {
      "Name": "AUTODOCIN",
      "Type": "Field",
      "Description": ""
    },
    {
      "Name": "BATCHQUANTITY",
      "Type": "Field",
      "Description": ""
    },
    {
      "Name": "DATAAKC",
      "Type": "Field",
      "Description": ""
    },
    {
      "Name": "DESCRIPT",
      "Type": "Field",
      "Description": ""
    },
    {
      "Name": "FLAGS",
      "Type": "Field",
      "Description": ""
    },
    {
      "Name": "JEDN",
      "Type": "Field",
      "Description": ""
    },
    {
      "Name": "KTM",
      "Type": "Field",
      "Description": ""
    },
    {
      "Name": "NOTE",
      "Type": "Field",
      "Description": ""
    },
    {
      "Name": "PARAMN1",
      "Type": "Field",
      "Description": ""
    },
    {
      "Name": "PARAMN2",
      "Type": "Field",
      "Description": ""
    },
    {
      "Name": "PARAMN3",
      "Type": "Field",
      "Description": ""
    },
    {
      "Name": "PARAMN4",
      "Type": "Field",
      "Description": ""
    },
    {
      "Name": "PARAMN5",
      "Type": "Field",
      "Description": ""
    },
    {
      "Name": "PARAMS1",
      "Type": "Field",
      "Description": ""
    },
    {
      "Name": "PARAMS2",
      "Type": "Field",
      "Description": ""
    },
    {
      "Name": "PARAMS3",
      "Type": "Field",
      "Description": ""
    },
    {
      "Name": "PARAMS4",
      "Type": "Field",
      "Description": ""
    },
    {
      "Name": "PARAMS5",
      "Type": "Field",
      "Description": ""
    },
    {
      "Name": "PRDEPART",
      "Type": "Field",
      "Description": ""
    },
    {
      "Name": "QUANTITY",
      "Type": "Field",
      "Description": ""
    },
    {
      "Name": "REALTIME",
      "Type": "Field",
      "Description": ""
    },
    {
      "Name": "REF",
      "Type": "Field",
      "Description": ""
    },
    {
      "Name": "SHORTAGE",
      "Type": "Field",
      "Description": ""
    },
    {
      "Name": "SHTYPE",
      "Type": "Field",
      "Description": ""
    },
    {
      "Name": "STATUS",
      "Type": "Field",
      "Description": ""
    },
    {
      "Name": "SYMBOL",
      "Type": "Field",
      "Description": ""
    },
    {
      "Name": "SYMBOLVER",
      "Type": "Field",
      "Description": ""
    },
    {
      "Name": "TECHJEDNQUANTITY",
      "Type": "Field",
      "Description": ""
    },
    {
      "Name": "WAREHOUSE",
      "Type": "Field",
      "Description": ""
    },
    {
      "Name": "WERSJA",
      "Type": "Field",
      "Description": ""
    },
    {
      "Name": "WERSJAREF",
      "Type": "Field",
      "Description": ""
    }
  ]
}