{
  "Name": "PRSHMAT",
  "Type": "Table",
  "Description": "surowce do kart technologicznych",
  "Children": [
    {
      "Name": "AUTODOCOUT",
      "Type": "Field",
      "Description": ""
    },
    {
      "Name": "CONDITION",
      "Type": "Field",
      "Description": ""
    },
    {
      "Name": "DESCRIPT",
      "Type": "Field",
      "Description": ""
    },
    {
      "Name": "ECONDITION",
      "Type": "Field",
      "Description": ""
    },
    {
      "Name": "EGROSSQUANTITY",
      "Type": "Field",
      "Description": ""
    },
    {
      "Name": "ENETQUANTITY",
      "Type": "Field",
      "Description": ""
    },
    {
      "Name": "GROSSQUANTITY",
      "Type": "Field",
      "Description": ""
    },
    {
      "Name": "JEDN",
      "Type": "Field",
      "Description": ""
    },
    {
      "Name": "KTM",
      "Type": "Field",
      "Description": ""
    },
    {
      "Name": "MATTYPE",
      "Type": "Field",
      "Description": ""
    },
    {
      "Name": "NETQUANTITY",
      "Type": "Field",
      "Description": ""
    },
    {
      "Name": "NUMBER",
      "Type": "Field",
      "Description": ""
    },
    {
      "Name": "OPERMASTER",
      "Type": "Field",
      "Description": ""
    },
    {
      "Name": "ORD",
      "Type": "Field",
      "Description": ""
    },
    {
      "Name": "PRODTRANSFER",
      "Type": "Field",
      "Description": ""
    },
    {
      "Name": "REF",
      "Type": "Field",
      "Description": ""
    },
    {
      "Name": "REQKTMTAG",
      "Type": "Field",
      "Description": ""
    },
    {
      "Name": "SHEET",
      "Type": "Field",
      "Description": ""
    },
    {
      "Name": "STOPCASCADE",
      "Type": "Field",
      "Description": ""
    },
    {
      "Name": "SUBSHEET",
      "Type": "Field",
      "Description": ""
    },
    {
      "Name": "SUPPLIER",
      "Type": "Field",
      "Description": ""
    },
    {
      "Name": "UNREPORTED",
      "Type": "Field",
      "Description": ""
    },
    {
      "Name": "WAREHOUSE",
      "Type": "Field",
      "Description": ""
    },
    {
      "Name": "WERSJA",
      "Type": "Field",
      "Description": ""
    },
    {
      "Name": "WERSJAREF",
      "Type": "Field",
      "Description": ""
    }
  ]
}