{
  "Name": "QUERYTYPES",
  "Type": "Table",
  "Description": "Typy zapytań",
  "Children": [
    {
      "Name": "ALLOWTABLES",
      "Type": "Field",
      "Description": ""
    },
    {
      "Name": "APPLICATION",
      "Type": "Field",
      "Description": ""
    },
    {
      "Name": "DEFAULTACTION",
      "Type": "Field",
      "Description": ""
    },
    {
      "Name": "FORMODULES",
      "Type": "Field",
      "Description": ""
    },
    {
      "Name": "ICON",
      "Type": "Field",
      "Description": ""
    },
    {
      "Name": "MAINDATABASE",
      "Type": "Field",
      "Description": ""
    },
    {
      "Name": "MAINTABLE",
      "Type": "Field",
      "Description": ""
    },
    {
      "Name": "NAME",
      "Type": "Field",
      "Description": ""
    },
    {
      "Name": "REF",
      "Type": "Field",
      "Description": ""
    },
    {
      "Name": "REPORT",
      "Type": "Field",
      "Description": ""
    },
    {
      "Name": "RIGHTS",
      "Type": "Field",
      "Description": ""
    },
    {
      "Name": "RIGHTSGROUP",
      "Type": "Field",
      "Description": ""
    },
    {
      "Name": "SYMBOL",
      "Type": "Field",
      "Description": ""
    }
  ]
}