{
  "Name": "RDOCTYPE",
  "Type": "Table",
  "Description": "Rekord tabeli zawiera nagłówek zamówienia:\r\n\r\nwięzy:\r\n- pole REJESTR związane z polem DEFREJZAM.SYMBOL\r\n- pole KLIENT związane z polem KLIENCI.REF\r\n- pole UZYKLI związane z polem URZYKLI.REF\r\n- pole MAGAZYN związane z polem DEFMAGAZ.SYMBOL\r\n- pole SPOSDOST związane z polem SPOSDOST.REF\r\n- pole SPOSZAP związane z polem PLATNOSCI.REF\r\n- pole DOZAPLATY wyznaczane jako SUMWARTBRU pomniejszone\r\n  o RABAT (rabat podany w procentach) + KOSZTDOST\r\n- pole FAKTURA związane z polem NAGFAK.REF (set null on delete)\r\n- pole WYSYLKA związane z polem LISTYWYS.SYMBOL\r\n\r\nPo insert,update do pola SYMBFAK należy wpisywać symbol faktury\r\nwskazywanej przez pole FAKTURA.\r\n\r\nZmiana stanu zamówienia (pole STAN)\r\nz 'N' na inny powoduje odjęcie pola ILOSC dla wszystkich\r\npozycji zamówienia od STANYIL.ZAMOWIONO odpowiednich \r\ntowarów na odpowiednich magazynach.\r\n\r\nZmiana stanu zamówienia (pole STAN) na 'R' powoduje\r\nzałożenie dla wszystkich pozycji zamówienia rekordów\r\nz rezerwacjami (tabela STANYREZ). gdzie:\r\nSTANYREZ.MAGAZYN = POZZAM.MAGAZYN,\r\nSTANYREZ.KTM = POZZAM.KTM,\r\nSTANYREZ.WERSJA = POZZAM.WERSJA,\r\nSTANYREZ.ZAMOWIENIE = NAGZAM.REF,\r\nSTANYREZ.DATA = NAGZAM.DATABLOK (jeżeli NULL to bieżemy datę dzisiejszą),\r\nSTANYREZ.DOSTAWA = NAGZAM.DOSTAWA,\r\nSTANYREZ.STATUS = 'R'\r\nSTANYREZ.ILOSC = POZZAM.ILOSC\r\nZałożenie rezerwacji spowoduje próbę ich automatycznego\r\nprzepisania na blokadę (trigger tabeli STANYREZ).\r\n\r\nZmiana stanu zamówienia (pole STAN) na 'Z' powoduje\r\nusunięcie rekordów z tabeli STANYREZ dotyczących danego\r\nzamówienia (STANYREZ.ZAMOWIENIE = NAGZAM.REF)\r\n\r\n\r\nZnaczenie ilosci\r\n- ILOSC - ilosc na zamowieniu\r\n- ILZREAL - ilosci zrealizowane z danego zamowienia.\r\n  Jesli zamowienie jest osobna realizacja, to ilosci zrealizowane ta realizacja\r\n  Jesli zamowienie jest realizacja samego siebie ( kontunuacja przeplywu zamowien ), to suma realizacji\r\n     tej realizacji i realizacji osobnych\r\n- ILREAL - ilosci zrealiowane ta realizacja.\r\n\r\n\r\nPole TYP\r\n0 - zamowienie \"czyste\"\r\n1 - zamowienie ma realizacje czesciowe\r\n2 - realizacja czesciowa\r\n3 - zamowienie zrealizowane\r\n\r\nKPOPREF - ref pozycji zamóweinia, która jest powiazana z danym zamowieniem kompletacji\r\n  jako pozycja nadrzedna\r\nTOFAK - dane zamowienie powstalo w trakcie redagowania dokumentu VAT i jest z nim zwiazane\r\nSKAD - dokument zrodlowy\r\n 0 - dokument gówny (recznie, replikacja itp)\r\n 1 - z dokumentu magazynowego\r\n 2 - z faktury\r\n\r\nAUTODYSP_MAG - trzy parametry ustawiane przez procedure OPER_MAG_CHECK_VAL celem\r\n    automatycznego zakladania POZZAMDYSP w przypadku dyspozyckji/realizacji zamówien. \r\nSTATUS - dowolnego przeznaczenia, wg potrzeb\r\nFAKDEPEND - zamówienie jest \"zalezne\" od dok. VAT - nie można ręcznie poprawiać ilosci,\r\n  wykorzystywane rowniez przy korektach dok. VAT.",
  "Children": [
    {
      "Name": "AMORTGRP",
      "Type": "Field",
      "Description": ""
    },
    {
      "Name": "FACRATE",
      "Type": "Field",
      "Description": ""
    },
    {
      "Name": "NAME",
      "Type": "Field",
      "Description": ""
    },
    {
      "Name": "SYMBOL",
      "Type": "Field",
      "Description": ""
    },
    {
      "Name": "TACRATE",
      "Type": "Field",
      "Description": ""
    }
  ]
}