{
  "Name": "REGISEVENTS",
  "Type": "Table",
  "Description": "PR17988",
  "Children": [
    {
      "Name": "IDEVENT",
      "Type": "Field",
      "Description": ""
    },
    {
      "Name": "IDGATE",
      "Type": "Field",
      "Description": ""
    },
    {
      "Name": "IDIDENT",
      "Type": "Field",
      "Description": ""
    },
    {
      "Name": "REF",
      "Type": "Field",
      "Description": ""
    },
    {
      "Name": "STATUS",
      "Type": "Field",
      "Description": ""
    },
    {
      "Name": "TIMEEVENT",
      "Type": "Field",
      "Description": ""
    }
  ]
}