{
  "Name": "RKDOKROZ",
  "Type": "Table",
  "Description": "PR11867",
  "Children": [
    {
      "Name": "ANULATA",
      "Type": "Field",
      "Description": ""
    },
    {
      "Name": "KWOTA",
      "Type": "Field",
      "Description": ""
    },
    {
      "Name": "REF",
      "Type": "Field",
      "Description": ""
    },
    {
      "Name": "RKDOKPOZ",
      "Type": "Field",
      "Description": ""
    },
    {
      "Name": "RKSTANWAL",
      "Type": "Field",
      "Description": ""
    }
  ]
}