{
  "Name": "RKSTNKAS",
  "Type": "Table",
  "Description": "tabela zawiera definicje stanowisk kasowych",
  "Children": [
    {
      "Name": "BANK",
      "Type": "Field",
      "Description": ""
    },
    {
      "Name": "COMPANY",
      "Type": "Field",
      "Description": ""
    },
    {
      "Name": "DOMOPERACJA",
      "Type": "Field",
      "Description": ""
    },
    {
      "Name": "DZIENNY",
      "Type": "Field",
      "Description": ""
    },
    {
      "Name": "GENNUMDOK",
      "Type": "Field",
      "Description": ""
    },
    {
      "Name": "GENNUMRAP",
      "Type": "Field",
      "Description": ""
    },
    {
      "Name": "KASABANK",
      "Type": "Field",
      "Description": ""
    },
    {
      "Name": "KILKADZIENNIE",
      "Type": "Field",
      "Description": ""
    },
    {
      "Name": "KOD",
      "Type": "Field",
      "Description": ""
    },
    {
      "Name": "KONTO",
      "Type": "Field",
      "Description": ""
    },
    {
      "Name": "NAZWA",
      "Type": "Field",
      "Description": ""
    },
    {
      "Name": "NUMDOK",
      "Type": "Field",
      "Description": ""
    },
    {
      "Name": "NUMRAP",
      "Type": "Field",
      "Description": ""
    },
    {
      "Name": "ODDZIAL",
      "Type": "Field",
      "Description": ""
    },
    {
      "Name": "OTWKILKA",
      "Type": "Field",
      "Description": ""
    },
    {
      "Name": "PIN",
      "Type": "Field",
      "Description": ""
    },
    {
      "Name": "REDSYMBOL",
      "Type": "Field",
      "Description": ""
    },
    {
      "Name": "REJESTR",
      "Type": "Field",
      "Description": ""
    },
    {
      "Name": "SALDOM",
      "Type": "Field",
      "Description": ""
    },
    {
      "Name": "WALUTA",
      "Type": "Field",
      "Description": ""
    },
    {
      "Name": "WALUTOWA",
      "Type": "Field",
      "Description": ""
    }
  ]
}