{
  "Name": "S_NAVIGATOR",
  "Type": "Table",
  "Description": "PR38683",
  "Children": [
    {
      "Name": "ACTIONID",
      "Type": "Field",
      "Description": ""
    },
    {
      "Name": "APPLICATIONS",
      "Type": "Field",
      "Description": ""
    },
    {
      "Name": "BEGINGROUP",
      "Type": "Field",
      "Description": ""
    },
    {
      "Name": "CHANGEDFIELDS",
      "Type": "Field",
      "Description": ""
    },
    {
      "Name": "CHILDRENCOUNT",
      "Type": "Field",
      "Description": ""
    },
    {
      "Name": "EHRMLINK",
      "Type": "Field",
      "Description": ""
    },
    {
      "Name": "FORADMIN",
      "Type": "Field",
      "Description": ""
    },
    {
      "Name": "FORMODULES",
      "Type": "Field",
      "Description": ""
    },
    {
      "Name": "GLOBALCONTEXT",
      "Type": "Field",
      "Description": ""
    },
    {
      "Name": "GLOBALSHORTCUT",
      "Type": "Field",
      "Description": ""
    },
    {
      "Name": "GLOBALSUFFIX",
      "Type": "Field",
      "Description": ""
    },
    {
      "Name": "GLOBALVALUE",
      "Type": "Field",
      "Description": ""
    },
    {
      "Name": "GROUPPROCEDURE",
      "Type": "Field",
      "Description": ""
    },
    {
      "Name": "HINT",
      "Type": "Field",
      "Description": ""
    },
    {
      "Name": "INITIALIZING",
      "Type": "Field",
      "Description": ""
    },
    {
      "Name": "ISEHRM",
      "Type": "Field",
      "Description": ""
    },
    {
      "Name": "ISNAVBAR",
      "Type": "Field",
      "Description": ""
    },
    {
      "Name": "ISTOOLBAR",
      "Type": "Field",
      "Description": ""
    },
    {
      "Name": "ISWINDOW",
      "Type": "Field",
      "Description": ""
    },
    {
      "Name": "ITEMTYPE",
      "Type": "Field",
      "Description": ""
    },
    {
      "Name": "KINDSTR",
      "Type": "Field",
      "Description": ""
    },
    {
      "Name": "NAME",
      "Type": "Field",
      "Description": ""
    },
    {
      "Name": "NAMESPACE",
      "Type": "Field",
      "Description": ""
    },
    {
      "Name": "NUMBER",
      "Type": "Field",
      "Description": ""
    },
    {
      "Name": "PARENT",
      "Type": "Field",
      "Description": ""
    },
    {
      "Name": "POPUPMENU",
      "Type": "Field",
      "Description": ""
    },
    {
      "Name": "PREV",
      "Type": "Field",
      "Description": ""
    },
    {
      "Name": "REF",
      "Type": "Field",
      "Description": ""
    },
    {
      "Name": "RIBBONGROUP",
      "Type": "Field",
      "Description": ""
    },
    {
      "Name": "RIBBONTAB",
      "Type": "Field",
      "Description": ""
    },
    {
      "Name": "RIGHTS",
      "Type": "Field",
      "Description": ""
    },
    {
      "Name": "RIGHTSGROUP",
      "Type": "Field",
      "Description": ""
    },
    {
      "Name": "SHORTCUT",
      "Type": "Field",
      "Description": ""
    },
    {
      "Name": "SIGNATURE",
      "Type": "Field",
      "Description": ""
    }
  ]
}