{
  "Name": "SDOSTKOSZT",
  "Type": "Table",
  "Description": "koszty dostawy",
  "Children": [
    {
      "Name": "KOSZT",
      "Type": "Field",
      "Description": ""
    },
    {
      "Name": "PLATNOSC",
      "Type": "Field",
      "Description": ""
    },
    {
      "Name": "PROG",
      "Type": "Field",
      "Description": ""
    },
    {
      "Name": "REF",
      "Type": "Field",
      "Description": ""
    },
    {
      "Name": "SPOSDOST",
      "Type": "Field",
      "Description": ""
    }
  ]
}