{
  "Name": "SECURITY_LOG_PARAMS",
  "Type": "Table",
  "Description": "PR17021",
  "Children": [
    {
      "Name": "ACRONYM",
      "Type": "Field",
      "Description": ""
    },
    {
      "Name": "DICTVALUE",
      "Type": "Field",
      "Description": ""
    },
    {
      "Name": "NAME",
      "Type": "Field",
      "Description": ""
    },
    {
      "Name": "REF",
      "Type": "Field",
      "Description": ""
    },
    {
      "Name": "SECURITY_LOG",
      "Type": "Field",
      "Description": ""
    },
    {
      "Name": "USERVALUE",
      "Type": "Field",
      "Description": ""
    }
  ]
}