{
  "Name": "SEGREGATOR",
  "Type": "Table",
  "Description": "tabela zawiera segregatory z CRM",
  "Children": [
    {
      "Name": "ICON",
      "Type": "Field",
      "Description": ""
    },
    {
      "Name": "KLASA",
      "Type": "Field",
      "Description": ""
    },
    {
      "Name": "LISTA",
      "Type": "Field",
      "Description": ""
    },
    {
      "Name": "NAZWA",
      "Type": "Field",
      "Description": ""
    },
    {
      "Name": "NUMER",
      "Type": "Field",
      "Description": ""
    },
    {
      "Name": "ORD",
      "Type": "Field",
      "Description": ""
    },
    {
      "Name": "PIKTOGRAM",
      "Type": "Field",
      "Description": ""
    },
    {
      "Name": "REF",
      "Type": "Field",
      "Description": ""
    },
    {
      "Name": "RIGHTS",
      "Type": "Field",
      "Description": ""
    },
    {
      "Name": "RIGHTSDEF",
      "Type": "Field",
      "Description": ""
    },
    {
      "Name": "RIGHTSGROUP",
      "Type": "Field",
      "Description": ""
    },
    {
      "Name": "RODZIC",
      "Type": "Field",
      "Description": ""
    },
    {
      "Name": "SLODEF",
      "Type": "Field",
      "Description": ""
    },
    {
      "Name": "SYMBOL",
      "Type": "Field",
      "Description": ""
    },
    {
      "Name": "WLASCICIEL",
      "Type": "Field",
      "Description": ""
    }
  ]
}