{
  "Name": "SPEDYTTRAS",
  "Type": "Table",
  "Description": "tabela zawiera powi?zania spedytorów z trasami spedycyjnymi",
  "Children": [
    {
      "Name": "SPEDYTOR",
      "Type": "Field",
      "Description": ""
    },
    {
      "Name": "TRASA",
      "Type": "Field",
      "Description": ""
    }
  ]
}