{
  "Name": "SPRZEDDEFPAR",
  "Type": "Table",
  "Description": "tabela zawiera parametry definicji rozlicze? sprzeda?y",
  "Children": [
    {
      "Name": "NAZWA",
      "Type": "Field",
      "Description": ""
    },
    {
      "Name": "SPRZEDDEF",
      "Type": "Field",
      "Description": ""
    },
    {
      "Name": "SYMBOL",
      "Type": "Field",
      "Description": ""
    },
    {
      "Name": "WARTOSC",
      "Type": "Field",
      "Description": ""
    }
  ]
}