{
  "Name": "SPRZEDPAR",
  "Type": "Table",
  "Description": "tabela zawiera parametry rozlicze? sprzeda?y i warto?ci tych parametrów dla\r\nkonkretnych sprzedawców",
  "Children": [
    {
      "Name": "SPRZEDAWCA",
      "Type": "Field",
      "Description": ""
    },
    {
      "Name": "SPRZEDDEF",
      "Type": "Field",
      "Description": ""
    },
    {
      "Name": "SYMBOL",
      "Type": "Field",
      "Description": ""
    },
    {
      "Name": "WARTOSC",
      "Type": "Field",
      "Description": ""
    }
  ]
}