{
  "Name": "SRVCONTENT",
  "Type": "Table",
  "Description": "tabela zawiera typy standardowych elementów dostarczanych wraz z urz?dzeniami do\r\nserwisu",
  "Children": [
    {
      "Name": "CONTRTYPE",
      "Type": "Field",
      "Description": ""
    },
    {
      "Name": "NAME",
      "Type": "Field",
      "Description": ""
    },
    {
      "Name": "REF",
      "Type": "Field",
      "Description": ""
    }
  ]
}