{
  "Name": "SRVDEFPOS",
  "Type": "Table",
  "Description": "tabela zawiera definicje czynno?ci wykonywanych na urz?dzeniu serwisowanym",
  "Children": [
    {
      "Name": "CONTRTYPE",
      "Type": "Field",
      "Description": ""
    },
    {
      "Name": "CREATEFAK",
      "Type": "Field",
      "Description": ""
    },
    {
      "Name": "DESCRIPT",
      "Type": "Field",
      "Description": ""
    },
    {
      "Name": "PRINTABLE",
      "Type": "Field",
      "Description": ""
    },
    {
      "Name": "REF",
      "Type": "Field",
      "Description": ""
    },
    {
      "Name": "USLUGA",
      "Type": "Field",
      "Description": ""
    }
  ]
}