{
  "Name": "SRVLOCATIONS",
  "Type": "Table",
  "Description": "lokalizacje\r\nTYP:\r\n0 - zaladunku\r\n1 - rozladunku",
  "Children": [
    {
      "Name": "CITY",
      "Type": "Field",
      "Description": ""
    },
    {
      "Name": "DELIVERYPLACE",
      "Type": "Field",
      "Description": ""
    },
    {
      "Name": "DESTINATION",
      "Type": "Field",
      "Description": ""
    },
    {
      "Name": "NAME",
      "Type": "Field",
      "Description": ""
    },
    {
      "Name": "NUMBER",
      "Type": "Field",
      "Description": ""
    },
    {
      "Name": "ORD",
      "Type": "Field",
      "Description": ""
    },
    {
      "Name": "PHONE",
      "Type": "Field",
      "Description": ""
    },
    {
      "Name": "POSTCODE",
      "Type": "Field",
      "Description": ""
    },
    {
      "Name": "RECEIVER",
      "Type": "Field",
      "Description": ""
    },
    {
      "Name": "REF",
      "Type": "Field",
      "Description": ""
    },
    {
      "Name": "SRVREQUEST",
      "Type": "Field",
      "Description": ""
    },
    {
      "Name": "STREET",
      "Type": "Field",
      "Description": ""
    }
  ]
}