{
  "Name": "STANYOPK",
  "Type": "Table",
  "Description": "stany opakowań",
  "Children": [
    {
      "Name": "AKT",
      "Type": "Field",
      "Description": ""
    },
    {
      "Name": "CENAMAG",
      "Type": "Field",
      "Description": ""
    },
    {
      "Name": "CENASPR",
      "Type": "Field",
      "Description": ""
    },
    {
      "Name": "CHODLIWY",
      "Type": "Field",
      "Description": ""
    },
    {
      "Name": "DATA",
      "Type": "Field",
      "Description": ""
    },
    {
      "Name": "DATAZAMK",
      "Type": "Field",
      "Description": ""
    },
    {
      "Name": "DOSTAWA",
      "Type": "Field",
      "Description": ""
    },
    {
      "Name": "GRUPA",
      "Type": "Field",
      "Description": ""
    },
    {
      "Name": "ILOSC",
      "Type": "Field",
      "Description": ""
    },
    {
      "Name": "ILZREAL",
      "Type": "Field",
      "Description": ""
    },
    {
      "Name": "KAUCJA",
      "Type": "Field",
      "Description": ""
    },
    {
      "Name": "KAUCJASTAN",
      "Type": "Field",
      "Description": ""
    },
    {
      "Name": "KAUCJAZREAL",
      "Type": "Field",
      "Description": ""
    },
    {
      "Name": "KTM",
      "Type": "Field",
      "Description": ""
    },
    {
      "Name": "MIARA",
      "Type": "Field",
      "Description": ""
    },
    {
      "Name": "NAZWAT",
      "Type": "Field",
      "Description": ""
    },
    {
      "Name": "POZDOKUM",
      "Type": "Field",
      "Description": ""
    },
    {
      "Name": "REF",
      "Type": "Field",
      "Description": ""
    },
    {
      "Name": "SLODEF",
      "Type": "Field",
      "Description": ""
    },
    {
      "Name": "SLOPOZ",
      "Type": "Field",
      "Description": ""
    },
    {
      "Name": "STAN",
      "Type": "Field",
      "Description": ""
    },
    {
      "Name": "USLUGA",
      "Type": "Field",
      "Description": ""
    },
    {
      "Name": "WARTMAG",
      "Type": "Field",
      "Description": ""
    },
    {
      "Name": "WARTMAGSTAN",
      "Type": "Field",
      "Description": ""
    },
    {
      "Name": "WARTMAGZREAL",
      "Type": "Field",
      "Description": ""
    },
    {
      "Name": "WERSJA",
      "Type": "Field",
      "Description": ""
    },
    {
      "Name": "WERSJAREF",
      "Type": "Field",
      "Description": ""
    },
    {
      "Name": "ZREAL",
      "Type": "Field",
      "Description": ""
    }
  ]
}