{
  "Name": "SYS_SCHEDULEHIST",
  "Type": "Table",
  "Description": "PR58086;",
  "Children": [
    {
      "Name": "ERROR_LEVEL",
      "Type": "Field",
      "Description": ""
    },
    {
      "Name": "INSTANCE_ID",
      "Type": "Field",
      "Description": ""
    },
    {
      "Name": "REF",
      "Type": "Field",
      "Description": ""
    },
    {
      "Name": "RETURN_MSG",
      "Type": "Field",
      "Description": ""
    },
    {
      "Name": "SCHEDULE",
      "Type": "Field",
      "Description": ""
    },
    {
      "Name": "SCHEDULER_SYMBOL",
      "Type": "Field",
      "Description": ""
    },
    {
      "Name": "STARTT",
      "Type": "Field",
      "Description": ""
    },
    {
      "Name": "STOP",
      "Type": "Field",
      "Description": ""
    }
  ]
}