{
  "Name": "SYS_LOCKS",
  "Type": "Table",
  "Description": "BS47208;",
  "Children": [
    {
      "Name": "CONNECTIONID",
      "Type": "Field",
      "Description": ""
    },
    {
      "Name": "LOCKSYMBOL",
      "Type": "Field",
      "Description": ""
    },
    {
      "Name": "SCOUNT",
      "Type": "Field",
      "Description": ""
    }
  ]
}