{
  "Name": "TABKURSP",
  "Type": "Table",
  "Description": "tabela zawiera pozycje kursów walutowych",
  "Children": [
    {
      "Name": "SPRZEDAZY",
      "Type": "Field",
      "Description": ""
    },
    {
      "Name": "SREDNI",
      "Type": "Field",
      "Description": ""
    },
    {
      "Name": "TABKURS",
      "Type": "Field",
      "Description": ""
    },
    {
      "Name": "WALUTA",
      "Type": "Field",
      "Description": ""
    },
    {
      "Name": "ZAKUPU",
      "Type": "Field",
      "Description": ""
    }
  ]
}