{
  "Name": "TOWARY",
  "Type": "Table",
  "Description": "Glówna tabela towarów\r\n\r\nSERIAL - czy towar jest serailizowany w obrocie\r\nSERJEDN - czy numery seryjne są jednostkowe ( na jednostkę miary) - wtedy nei serie, lecz dokłądne numery seryjne\r\nSERCYFR - czy serie/nuymery seryjne sa cyrami - Umożliwia to wprowadzanie numerów seryjnych hednostkowych zakresami\r\nSERPOJEDN - czy numery seryjne są rejestrowane na każdej pozycji pojedynczo. \r\n   Wtedy do pozycji nie jest tworzona rozpiska numerów seryjnych, lecz numer jest bezpośrenio na pozycji.\r\nSERAUTOWYD - czy rozpiska jest w razie czego tworzona automatycznie przy rozchodzie.\r\n\r\nIS(S,Z,C) - czy sa jednostki danego typu rozne od jednostki glownej\r\nD(S,Z,C,M) - refy domyslnych jednostek danego typu\r\n\r\nUSLUGA - ogóny wskaxnik rodzaju asortymentu\r\n0 - towar\r\n1 - usluga\r\n2 - komplet\r\n3 - opakowanie\r\n\r\nDNIWAZN - ilosc dni waznosci towaru. Podpowiada termin ważnosci przy dostawach\r\n  od daty dostawy wg tego parametru\r\nCENA_ZAKN, CENA_ZAKB - ceny zakupu netto i brutto wersji 0\r\n  - sa to rzeczywiste katalogowe ceny zakupu\r\n\r\nCENA_FABN, CENA_FABN - ceny fabryczne netto i brutto wersji 0\r\n  - sa to ceny cennikowe dostawcy glownego wersji 0 (wieksze lub rownei ZAKN)\r\n\r\nCENA_KOSZTN, CENA_KOSZTB - cena kosztowa netto i cena kosztowa brutto - ceny zakupu powiekszone o koszt dostawy ( kwota nieopodatkowana)\r\n\r\n\r\nCENAZAKNL - ostatnia cena zakupu. Naliczana utomwatycznie w momencie akceptacji dokumentu zakupu.\r\n  (niezależnie od procesu naliczania na kartoteke)\r\n\r\nKTC - Kod taryfy celnej",
  "Children": [
    {
      "Name": "AKT",
      "Type": "Field",
      "Description": ""
    },
    {
      "Name": "ALTPOSMODE",
      "Type": "Field",
      "Description": ""
    },
    {
      "Name": "ATRYBUTA",
      "Type": "Field",
      "Description": ""
    },
    {
      "Name": "BKSYMBOL",
      "Type": "Field",
      "Description": ""
    },
    {
      "Name": "BRUTTOTARA",
      "Type": "Field",
      "Description": ""
    },
    {
      "Name": "CENA_FABB",
      "Type": "Field",
      "Description": ""
    },
    {
      "Name": "CENA_FABN",
      "Type": "Field",
      "Description": ""
    },
    {
      "Name": "CENA_KOSZTB",
      "Type": "Field",
      "Description": ""
    },
    {
      "Name": "CENA_KOSZTN",
      "Type": "Field",
      "Description": ""
    },
    {
      "Name": "CENA_ZAKB",
      "Type": "Field",
      "Description": ""
    },
    {
      "Name": "CENA_ZAKN",
      "Type": "Field",
      "Description": ""
    },
    {
      "Name": "CENA_ZAKNL",
      "Type": "Field",
      "Description": ""
    },
    {
      "Name": "CENNIKZEWN",
      "Type": "Field",
      "Description": ""
    },
    {
      "Name": "CHODLIWY",
      "Type": "Field",
      "Description": ""
    },
    {
      "Name": "DC",
      "Type": "Field",
      "Description": ""
    },
    {
      "Name": "DEFMENU",
      "Type": "Field",
      "Description": ""
    },
    {
      "Name": "DM",
      "Type": "Field",
      "Description": ""
    },
    {
      "Name": "DNIWAZN",
      "Type": "Field",
      "Description": ""
    },
    {
      "Name": "DS",
      "Type": "Field",
      "Description": ""
    },
    {
      "Name": "DZ",
      "Type": "Field",
      "Description": ""
    },
    {
      "Name": "GRUPA",
      "Type": "Field",
      "Description": ""
    },
    {
      "Name": "GRUPACLA",
      "Type": "Field",
      "Description": ""
    },
    {
      "Name": "ILOSCWODDZIALE",
      "Type": "Field",
      "Description": ""
    },
    {
      "Name": "ILOSCWOPAK",
      "Type": "Field",
      "Description": ""
    },
    {
      "Name": "INT_DATAOSTPRZETW",
      "Type": "Field",
      "Description": "ZG115055"
    },
    {
      "Name": "INT_ID",
      "Type": "Field",
      "Description": "ZG115055"
    },
    {
      "Name": "INT_SESJAOSTPRZETW",
      "Type": "Field",
      "Description": "ZG115055"
    },
    {
      "Name": "INT_ZRODLO",
      "Type": "Field",
      "Description": "ZG115055"
    },
    {
      "Name": "ISC",
      "Type": "Field",
      "Description": ""
    },
    {
      "Name": "ISS",
      "Type": "Field",
      "Description": ""
    },
    {
      "Name": "ISZ",
      "Type": "Field",
      "Description": ""
    },
    {
      "Name": "KAUCJA",
      "Type": "Field",
      "Description": ""
    },
    {
      "Name": "KOD",
      "Type": "Field",
      "Description": ""
    },
    {
      "Name": "KODKRESK",
      "Type": "Field",
      "Description": ""
    },
    {
      "Name": "KODKRESKADD",
      "Type": "Field",
      "Description": ""
    },
    {
      "Name": "KODPROD",
      "Type": "Field",
      "Description": ""
    },
    {
      "Name": "KODWKASIE",
      "Type": "Field",
      "Description": ""
    },
    {
      "Name": "KODZEWN",
      "Type": "Field",
      "Description": ""
    },
    {
      "Name": "KRAJPOCHODZENIA",
      "Type": "Field",
      "Description": ""
    },
    {
      "Name": "KTC",
      "Type": "Field",
      "Description": ""
    },
    {
      "Name": "KTM",
      "Type": "Field",
      "Description": ""
    },
    {
      "Name": "LASTCENZMIANA",
      "Type": "Field",
      "Description": ""
    },
    {
      "Name": "MAGBREAK",
      "Type": "Field",
      "Description": ""
    },
    {
      "Name": "MARZAMIN",
      "Type": "Field",
      "Description": ""
    },
    {
      "Name": "MIARA",
      "Type": "Field",
      "Description": ""
    },
    {
      "Name": "MIEJSCEWMAG",
      "Type": "Field",
      "Description": ""
    },
    {
      "Name": "MWSMULTINIELACZ",
      "Type": "Field",
      "Description": ""
    },
    {
      "Name": "MWSNAZWA",
      "Type": "Field",
      "Description": ""
    },
    {
      "Name": "NAZWA",
      "Type": "Field",
      "Description": ""
    },
    {
      "Name": "NAZWA_WWW",
      "Type": "Field",
      "Description": ""
    },
    {
      "Name": "OPISPOD",
      "Type": "Field",
      "Description": ""
    },
    {
      "Name": "OPISROZ",
      "Type": "Field",
      "Description": ""
    },
    {
      "Name": "PALETA",
      "Type": "Field",
      "Description": ""
    },
    {
      "Name": "PKWIU",
      "Type": "Field",
      "Description": ""
    },
    {
      "Name": "PRAWA",
      "Type": "Field",
      "Description": ""
    },
    {
      "Name": "PRAWAGRUP",
      "Type": "Field",
      "Description": ""
    },
    {
      "Name": "PRPLANTYPE",
      "Type": "Field",
      "Description": ""
    },
    {
      "Name": "REF",
      "Type": "Field",
      "Description": "PR121376"
    },
    {
      "Name": "REGDATE",
      "Type": "Field",
      "Description": ""
    },
    {
      "Name": "SERAUTOWYD",
      "Type": "Field",
      "Description": ""
    },
    {
      "Name": "SERCYFR",
      "Type": "Field",
      "Description": ""
    },
    {
      "Name": "SERIAL",
      "Type": "Field",
      "Description": ""
    },
    {
      "Name": "SERJEDN",
      "Type": "Field",
      "Description": ""
    },
    {
      "Name": "SERPOJEDYN",
      "Type": "Field",
      "Description": ""
    },
    {
      "Name": "SERWYDANIE",
      "Type": "Field",
      "Description": ""
    },
    {
      "Name": "SRV",
      "Type": "Field",
      "Description": ""
    },
    {
      "Name": "SRVCOUNTERINTERVAL",
      "Type": "Field",
      "Description": ""
    },
    {
      "Name": "SRVDAYSINTERVAL",
      "Type": "Field",
      "Description": ""
    },
    {
      "Name": "STATE",
      "Type": "Field",
      "Description": ""
    },
    {
      "Name": "STAWKACLA",
      "Type": "Field",
      "Description": ""
    },
    {
      "Name": "SUPPLYMETHOD",
      "Type": "Field",
      "Description": ""
    },
    {
      "Name": "SWW",
      "Type": "Field",
      "Description": ""
    },
    {
      "Name": "SYMBOL_DOST",
      "Type": "Field",
      "Description": ""
    },
    {
      "Name": "SYMBOLNORMA",
      "Type": "Field",
      "Description": ""
    },
    {
      "Name": "TOKEN",
      "Type": "Field",
      "Description": ""
    },
    {
      "Name": "USLUGA",
      "Type": "Field",
      "Description": ""
    },
    {
      "Name": "VAT",
      "Type": "Field",
      "Description": ""
    },
    {
      "Name": "VAT2",
      "Type": "Field",
      "Description": ""
    },
    {
      "Name": "VATCHANGED",
      "Type": "Field",
      "Description": ""
    },
    {
      "Name": "WHSEC",
      "Type": "Field",
      "Description": ""
    },
    {
      "Name": "WITRYNA",
      "Type": "Field",
      "Description": ""
    },
    {
      "Name": "X_IAI_ID",
      "Type": "Field",
      "Description": ""
    },
    {
      "Name": "X_IMP_REF",
      "Type": "Field",
      "Description": "ref do tabeli x_imp_towary z ktorej powstal towar"
    },
    {
      "Name": "X_INDEKS_KAT",
      "Type": "Field",
      "Description": "IndeksKatalogowy"
    },
    {
      "Name": "X_INT_GRUPA_ID",
      "Type": "Field",
      "Description": "ML id grupa z cdn; tymczasowo"
    },
    {
      "Name": "X_KOD_TOWARU_SES",
      "Type": "Field",
      "Description": ""
    },
    {
      "Name": "X_MWS_PARTIE",
      "Type": "Field",
      "Description": "Czy towar może być na jednej lokacji z róznych partii\r\nnp chemia nie moze być\r\n0-nie pilnujemy partii/może być z róznych\r\n1-pilnujemy partii/towar nie może być z różnych partii"
    },
    {
      "Name": "X_MWS_SERIE",
      "Type": "Field",
      "Description": "0 - brak numeu seryjnego w towarze\r\n1 - rejestracja na wejsciu i na wyjsciu\r\n2 - rejestracja tylko na wyjsciu"
    },
    {
      "Name": "X_MWS_SLOWNIK_EHRLE",
      "Type": "Field",
      "Description": "który slownik jest wymagany  wartosc taka jak kolumna typ w X_SLOWNIKI_EHRLE\r\n 0 - slownik niewymagany\r\n 1 - slownik programow\r\n 2 - slownik kontraktow"
    },
    {
      "Name": "X_MWS_TYP_LOKACJI",
      "Type": "Field",
      "Description": "Rodzaj lokacji na którą towar ma isc w pierwszej kolejnosci\r\n0-Rzedowy\r\n1-Przeplywowy\r\n2-Kardex"
    },
    {
      "Name": "X_NAZWA2",
      "Type": "Field",
      "Description": "Nazwa2"
    },
    {
      "Name": "X_OPIS",
      "Type": "Field",
      "Description": ""
    },
    {
      "Name": "X_UWAGI",
      "Type": "Field",
      "Description": "Uwagi"
    },
    {
      "Name": "X_UWAGI_MAG_PZ",
      "Type": "Field",
      "Description": "Uwagi dla magazynu PZ"
    },
    {
      "Name": "X_UWAGI_MAG_WZ",
      "Type": "Field",
      "Description": "Uwagi dla magazyny WZ"
    }
  ]
}