{
  "Name": "TOWTYPES",
  "Type": "Table",
  "Description": "typy asortymentu",
  "Children": [
    {
      "Name": "DEFVALPAR1",
      "Type": "Field",
      "Description": ""
    },
    {
      "Name": "DEFVALPAR2",
      "Type": "Field",
      "Description": ""
    },
    {
      "Name": "ID_ZEWN",
      "Type": "Field",
      "Description": "ZG115055"
    },
    {
      "Name": "ISCOMMODITY",
      "Type": "Field",
      "Description": ""
    },
    {
      "Name": "ISHALFPRODUCT",
      "Type": "Field",
      "Description": ""
    },
    {
      "Name": "ISPRODUCT",
      "Type": "Field",
      "Description": ""
    },
    {
      "Name": "ISRAWMAT",
      "Type": "Field",
      "Description": ""
    },
    {
      "Name": "ISSERVICE",
      "Type": "Field",
      "Description": ""
    },
    {
      "Name": "KIND",
      "Type": "Field",
      "Description": ""
    },
    {
      "Name": "NAZWA",
      "Type": "Field",
      "Description": ""
    },
    {
      "Name": "NAZWAPAR1",
      "Type": "Field",
      "Description": ""
    },
    {
      "Name": "NAZWAPAR2",
      "Type": "Field",
      "Description": ""
    },
    {
      "Name": "NAZWAPOJ",
      "Type": "Field",
      "Description": ""
    },
    {
      "Name": "NUMER",
      "Type": "Field",
      "Description": ""
    },
    {
      "Name": "RIGHTS",
      "Type": "Field",
      "Description": ""
    },
    {
      "Name": "RIGHTSGROUP",
      "Type": "Field",
      "Description": ""
    },
    {
      "Name": "SKROTPAR1",
      "Type": "Field",
      "Description": ""
    },
    {
      "Name": "SKROTPAR2",
      "Type": "Field",
      "Description": ""
    },
    {
      "Name": "SYMBOL",
      "Type": "Field",
      "Description": ""
    },
    {
      "Name": "SYSTEMOWY",
      "Type": "Field",
      "Description": ""
    }
  ]
}