{
  "Name": "TURNOVERS",
  "Type": "Table",
  "Description": "obroty na kontach ksi?gowych",
  "Children": [
    {
      "Name": "ACCOUNT",
      "Type": "Field",
      "Description": ""
    },
    {
      "Name": "ACCOUNTING",
      "Type": "Field",
      "Description": ""
    },
    {
      "Name": "BKTYPE",
      "Type": "Field",
      "Description": ""
    },
    {
      "Name": "COMPANY",
      "Type": "Field",
      "Description": ""
    },
    {
      "Name": "CREDIT",
      "Type": "Field",
      "Description": ""
    },
    {
      "Name": "DEBIT",
      "Type": "Field",
      "Description": ""
    },
    {
      "Name": "EBCREDIT",
      "Type": "Field",
      "Description": ""
    },
    {
      "Name": "EBDEBIT",
      "Type": "Field",
      "Description": ""
    },
    {
      "Name": "PERIOD",
      "Type": "Field",
      "Description": ""
    },
    {
      "Name": "YEARID",
      "Type": "Field",
      "Description": ""
    }
  ]
}