{
  "Name": "UFPARAMS",
  "Type": "Table",
  "Description": "Parametry pracy urzadzenia fiskalnego - dla klasy drajwera",
  "Children": [
    {
      "Name": "PARAM",
      "Type": "Field",
      "Description": ""
    },
    {
      "Name": "STANSPRZED",
      "Type": "Field",
      "Description": ""
    },
    {
      "Name": "WARTOSC",
      "Type": "Field",
      "Description": ""
    }
  ]
}