{
  "Name": "UPUSTY",
  "Type": "Table",
  "Description": "Więzy:\r\n- pole KLIENT związane z polem KLIENCI.REF\r\n- pole PLATNOSC związane z polem PLATNOSCI.REF",
  "Children": [
    {
      "Name": "KLIENT",
      "Type": "Field",
      "Description": ""
    },
    {
      "Name": "PLATNOSC",
      "Type": "Field",
      "Description": ""
    },
    {
      "Name": "PROCENT",
      "Type": "Field",
      "Description": ""
    }
  ]
}