{
  "Name": "URZSPR",
  "Type": "Table",
  "Description": "urządzenia sprzedaży",
  "Children": [
    {
      "Name": "CENNIK",
      "Type": "Field",
      "Description": ""
    },
    {
      "Name": "MAGAZYN",
      "Type": "Field",
      "Description": ""
    },
    {
      "Name": "NRLDET",
      "Type": "Field",
      "Description": ""
    },
    {
      "Name": "NRLFAK",
      "Type": "Field",
      "Description": ""
    },
    {
      "Name": "NRLKP",
      "Type": "Field",
      "Description": ""
    },
    {
      "Name": "NRLKW",
      "Type": "Field",
      "Description": ""
    },
    {
      "Name": "NRLPAR",
      "Type": "Field",
      "Description": ""
    },
    {
      "Name": "NRLPZ",
      "Type": "Field",
      "Description": ""
    },
    {
      "Name": "NRLWZ",
      "Type": "Field",
      "Description": ""
    },
    {
      "Name": "OPERATOR",
      "Type": "Field",
      "Description": ""
    },
    {
      "Name": "PODKATALOG",
      "Type": "Field",
      "Description": ""
    },
    {
      "Name": "REJFAK",
      "Type": "Field",
      "Description": ""
    },
    {
      "Name": "RKSTANKAS",
      "Type": "Field",
      "Description": ""
    },
    {
      "Name": "SPOSDOST",
      "Type": "Field",
      "Description": ""
    },
    {
      "Name": "SPRZEDAWCA",
      "Type": "Field",
      "Description": ""
    },
    {
      "Name": "STANSPRZED",
      "Type": "Field",
      "Description": ""
    },
    {
      "Name": "SYMBOL",
      "Type": "Field",
      "Description": ""
    },
    {
      "Name": "TRASA",
      "Type": "Field",
      "Description": ""
    },
    {
      "Name": "TYP",
      "Type": "Field",
      "Description": ""
    }
  ]
}