{
  "Name": "VATCHANGES",
  "Type": "Table",
  "Description": "PR34301",
  "Children": [
    {
      "Name": "APPLYDATE",
      "Type": "Field",
      "Description": ""
    },
    {
      "Name": "FILTR",
      "Type": "Field",
      "Description": ""
    },
    {
      "Name": "MASKAKTM",
      "Type": "Field",
      "Description": ""
    },
    {
      "Name": "MASKAWERSJI",
      "Type": "Field",
      "Description": ""
    },
    {
      "Name": "NEWVAT",
      "Type": "Field",
      "Description": ""
    },
    {
      "Name": "OLDVAT",
      "Type": "Field",
      "Description": ""
    },
    {
      "Name": "REF",
      "Type": "Field",
      "Description": ""
    },
    {
      "Name": "STARTDATE",
      "Type": "Field",
      "Description": ""
    },
    {
      "Name": "STATUS",
      "Type": "Field",
      "Description": ""
    }
  ]
}