{
  "Name": "WEEKS",
  "Type": "Table",
  "Description": "PR30368",
  "Children": [
    {
      "Name": "DESCRIPT",
      "Type": "Field",
      "Description": ""
    },
    {
      "Name": "FIRSTDAY",
      "Type": "Field",
      "Description": ""
    },
    {
      "Name": "LASTDAY",
      "Type": "Field",
      "Description": ""
    },
    {
      "Name": "REF",
      "Type": "Field",
      "Description": ""
    },
    {
      "Name": "WEEKNO",
      "Type": "Field",
      "Description": ""
    },
    {
      "Name": "WEEKYEAR",
      "Type": "Field",
      "Description": ""
    }
  ]
}