{
  "Name": "WHAREAS",
  "Type": "Table",
  "Description": "PR15847",
  "Children": [
    {
      "Name": "AREATYPE",
      "Type": "Field",
      "Description": ""
    },
    {
      "Name": "COORDXB",
      "Type": "Field",
      "Description": ""
    },
    {
      "Name": "COORDXE",
      "Type": "Field",
      "Description": ""
    },
    {
      "Name": "COORDYB",
      "Type": "Field",
      "Description": ""
    },
    {
      "Name": "COORDYE",
      "Type": "Field",
      "Description": ""
    },
    {
      "Name": "DEFAULTPRINTER",
      "Type": "Field",
      "Description": ""
    },
    {
      "Name": "L",
      "Type": "Field",
      "Description": ""
    },
    {
      "Name": "LOCNUMBER",
      "Type": "Field",
      "Description": ""
    },
    {
      "Name": "LOGWHAREAE",
      "Type": "Field",
      "Description": ""
    },
    {
      "Name": "LOGWHAREAEDIST",
      "Type": "Field",
      "Description": ""
    },
    {
      "Name": "LOGWHAREAN",
      "Type": "Field",
      "Description": ""
    },
    {
      "Name": "LOGWHAREANDIST",
      "Type": "Field",
      "Description": ""
    },
    {
      "Name": "LOGWHAREAS",
      "Type": "Field",
      "Description": ""
    },
    {
      "Name": "LOGWHAREASDIST",
      "Type": "Field",
      "Description": ""
    },
    {
      "Name": "LOGWHAREAW",
      "Type": "Field",
      "Description": ""
    },
    {
      "Name": "LOGWHAREAWDIST",
      "Type": "Field",
      "Description": ""
    },
    {
      "Name": "LONGSYMBOL",
      "Type": "Field",
      "Description": ""
    },
    {
      "Name": "MANSYMBOL",
      "Type": "Field",
      "Description": ""
    },
    {
      "Name": "MAXHORDIST",
      "Type": "Field",
      "Description": ""
    },
    {
      "Name": "MAXVERTDIST",
      "Type": "Field",
      "Description": ""
    },
    {
      "Name": "MWSCONSTLOCTYPE",
      "Type": "Field",
      "Description": ""
    },
    {
      "Name": "MWSSTAND",
      "Type": "Field",
      "Description": ""
    },
    {
      "Name": "MWSSTANDNUMBER",
      "Type": "Field",
      "Description": ""
    },
    {
      "Name": "MWSSTANDSEG",
      "Type": "Field",
      "Description": ""
    },
    {
      "Name": "MWSSTANDSEGTYPE",
      "Type": "Field",
      "Description": ""
    },
    {
      "Name": "MWSSTANDSEGTYPEDICT",
      "Type": "Field",
      "Description": ""
    },
    {
      "Name": "NUMBER",
      "Type": "Field",
      "Description": ""
    },
    {
      "Name": "NUMBERINWHSEG",
      "Type": "Field",
      "Description": ""
    },
    {
      "Name": "ORD",
      "Type": "Field",
      "Description": ""
    },
    {
      "Name": "RECRAMP",
      "Type": "Field",
      "Description": ""
    },
    {
      "Name": "REF",
      "Type": "Field",
      "Description": ""
    },
    {
      "Name": "SYMBOL",
      "Type": "Field",
      "Description": ""
    },
    {
      "Name": "W",
      "Type": "Field",
      "Description": ""
    },
    {
      "Name": "WH",
      "Type": "Field",
      "Description": ""
    },
    {
      "Name": "WHSEC",
      "Type": "Field",
      "Description": ""
    },
    {
      "Name": "WHSECDICT",
      "Type": "Field",
      "Description": ""
    },
    {
      "Name": "WHSECROW",
      "Type": "Field",
      "Description": ""
    },
    {
      "Name": "WHSECROWDICT",
      "Type": "Field",
      "Description": ""
    },
    {
      "Name": "WHSEG",
      "Type": "Field",
      "Description": ""
    },
    {
      "Name": "X_ROW_TYPE",
      "Type": "Field",
      "Description": "Typ redalu\r\n0 - rzędowy\r\n1 - przepywowy\r\n2 - KArdex"
    }
  ]
}