{
  "Name": "XK_GOODS_RELOCATE",
  "Type": "Table",
  "Description": "PR30121",
  "Children": [
    {
      "Name": "AAREA",
      "Type": "Field",
      "Description": ""
    },
    {
      "Name": "ACTABC",
      "Type": "Field",
      "Description": ""
    },
    {
      "Name": "ACTDEEP",
      "Type": "Field",
      "Description": ""
    },
    {
      "Name": "ACTDIST",
      "Type": "Field",
      "Description": ""
    },
    {
      "Name": "ACTMWSCONSTLOC",
      "Type": "Field",
      "Description": ""
    },
    {
      "Name": "ACTMWSCONSTLOCS",
      "Type": "Field",
      "Description": ""
    },
    {
      "Name": "BAREA",
      "Type": "Field",
      "Description": ""
    },
    {
      "Name": "BESTDIST",
      "Type": "Field",
      "Description": ""
    },
    {
      "Name": "BESTMWSCONSTLOC",
      "Type": "Field",
      "Description": ""
    },
    {
      "Name": "BESTMWSCONSTLOCS",
      "Type": "Field",
      "Description": ""
    },
    {
      "Name": "BOXCNTPERPERIOD",
      "Type": "Field",
      "Description": ""
    },
    {
      "Name": "CCATEGORY",
      "Type": "Field",
      "Description": ""
    },
    {
      "Name": "CONST",
      "Type": "Field",
      "Description": ""
    },
    {
      "Name": "GOOD",
      "Type": "Field",
      "Description": ""
    },
    {
      "Name": "INTERVAL",
      "Type": "Field",
      "Description": ""
    },
    {
      "Name": "OPT",
      "Type": "Field",
      "Description": ""
    },
    {
      "Name": "OPTABC",
      "Type": "Field",
      "Description": ""
    },
    {
      "Name": "OPTDIST",
      "Type": "Field",
      "Description": ""
    },
    {
      "Name": "ORD",
      "Type": "Field",
      "Description": ""
    },
    {
      "Name": "ORDERED",
      "Type": "Field",
      "Description": ""
    },
    {
      "Name": "PALCNT",
      "Type": "Field",
      "Description": ""
    },
    {
      "Name": "POSCNT",
      "Type": "Field",
      "Description": ""
    },
    {
      "Name": "QUANTITY",
      "Type": "Field",
      "Description": ""
    },
    {
      "Name": "REGDATE",
      "Type": "Field",
      "Description": ""
    },
    {
      "Name": "SHORTAGE",
      "Type": "Field",
      "Description": ""
    },
    {
      "Name": "TAKEFROMUP",
      "Type": "Field",
      "Description": ""
    },
    {
      "Name": "VERS",
      "Type": "Field",
      "Description": ""
    },
    {
      "Name": "WCATEGORY",
      "Type": "Field",
      "Description": ""
    },
    {
      "Name": "WH",
      "Type": "Field",
      "Description": ""
    }
  ]
}