{
  "Name": "DOKUMNAG_OBLILREALONZAM",
  "Type": "Procedure",
  "Description": "PR46616;rocedura po pakceotacji dok. magazynowego\r\nokrela iloci realizowane na podstawie pozycji dok. magazynowego\r\nna pozycjach zamĂłwieĹ„ powiazanych przez WA",
  "Children": []
}