{
  "Name": "EFUNC_PRDATES",
  "Type": "Procedure",
  "Description": "procedura zwraca daty początku i końca okresu danej listy plac\r\nw zaleznosci od drugiego parametru odpowiedniego miesiąca\r\n0 - kosztowego\r\n1 - podatkowego\r\n2 - ubezpieczeniowego",
  "Children": []
}