{
  "Name": "FA_GET_CURRENT_VALUES",
  "Type": "Procedure",
  "Description": "procedura wyciąga aktualne dane o srodku trwalym na podstawie\r\n- kartoteki srodka\r\n- naliczonej amortyzacji\r\n- dokumentow wartosciowych\r\n- dok. zm. amortyzaji?",
  "Children": []
}