{
  "Name": "MAG_OBROTY",
  "Type": "Procedure",
  "Description": "Procedura dla danego KTM'u, MAGAZYN'u i wersji określa zgodnie z podanymi datami:\r\n -- stan i wartosć na początek okresu\r\n - - wartosć i ilosć przychodów ( zawsze dodatnie )\r\n - - wartość ilosc rozchodow ( zawsze dodatnie )\r\n - - wartość i ilosc korekt ( na dokumentach korekt, może być dodatnie lub ujemne )\r\n - - stan iwartość na koneic okresu.",
  "Children": []
}