{
  "Name": "MAG_CHECK_ILOSC",
  "Type": "Procedure",
  "Description": "BS13132;PR35096;rocedura zwraca dostÄ™pnÄ… ilosÄ‡ towaru z uwzgledneiniem blokad\r\ndla parametrĂłw podanych w argumentach, uwzgledniajac blokady danego zamowienia.",
  "Children": []
}