{
  "Name": "NAGFAK_CREATE_DOKMAG",
  "Type": "Procedure",
  "Description": "BS13264;PR13235;PR12453;BS12219;BS11970;PR11039;PR09761;PR08705;BS08177;PR08125;PR08062;PR07920;BS06559;PR06098;PR05849;PR29712;BS33725;PR35083;BS38321;PR44563;PR46363;BS29941;PR56505;BS66086;PR70051;IsEmpty",
  "Children": []
}