{
  "Name": "RPT_WORKREFERENCE",
  "Type": "Procedure",
  "Description": "PR21744;PR21608;BS21129;BS21128;BS21130;PR23143;BS24193;PR24213;BS24297;PR22974;BS25379;PR26329;PR27570;PR22955;BS27945;BS28393;BS28545;BS29335;BS32663;BS37794;BS36260;PR36317;BS44304;BS47816;BS49784;BS50962;PR54992;BS59552;BS61706;PR69559;BS99748;BS109365",
  "Children": []
}