{
  "Name": "RPT_PIT40_V19",
  "Type": "Procedure",
  "Description": "BS20066;PR10334;BS09962;PR09895;PR18469;BS20546;PR24184;BS27459;PR30568;BS36243;PR43559;BS44508;PR45048;PR67819;PR69559;BS70284;IsEmpty",
  "Children": []
}