{
  "Name": "XK_RPT_NAZWAIKTM",
  "Type": "Procedure",
  "Description": "PR30515;PR30883;Zwraca nazwe i kod towaru z grupy kupieckiej jezeli towar jest w grupie kupieckiej odbiorcy",
  "Children": []
}