[
  {
    "Name": "ATRYBUTY",
    "Flag": "SELECT",
    "Granted": "XK_MWS_GEN_MWSORD_OUT",
    "Grantor": "SYSDBA"
  },
  {
    "Name": "COUNTRIES",
    "Flag": "SELECT",
    "Granted": "XK_MWS_GEN_MWSORD_OUT",
    "Grantor": "SYSDBA"
  },
  {
    "Name": "DOCPOS2REAL",
    "Flag": "DELETE",
    "Granted": "XK_MWS_GEN_MWSORD_OUT",
    "Grantor": "SYSDBA"
  },
  {
    "Name": "DOCPOS2REAL",
    "Flag": "SELECT",
    "Granted": "XK_MWS_GEN_MWSORD_OUT",
    "Grantor": "SYSDBA"
  },
  {
    "Name": "DOKUMNAG",
    "Flag": "SELECT",
    "Granted": "XK_MWS_GEN_MWSORD_OUT",
    "Grantor": "SYSDBA"
  },
  {
    "Name": "DOKUMNAG",
    "Flag": "UPDATE",
    "Granted": "XK_MWS_GEN_MWSORD_OUT",
    "Grantor": "SYSDBA"
  },
  {
    "Name": "DOKUMPOZ",
    "Flag": "SELECT",
    "Granted": "XK_MWS_GEN_MWSORD_OUT",
    "Grantor": "SYSDBA"
  },
  {
    "Name": "DOSTAWY",
    "Flag": "SELECT",
    "Granted": "XK_MWS_GEN_MWSORD_OUT",
    "Grantor": "SYSDBA"
  },
  {
    "Name": "KLIENCI",
    "Flag": "SELECT",
    "Granted": "XK_MWS_GEN_MWSORD_OUT",
    "Grantor": "SYSDBA"
  },
  {
    "Name": "MWSACTS",
    "Flag": "INSERT",
    "Granted": "XK_MWS_GEN_MWSORD_OUT",
    "Grantor": "SYSDBA"
  },
  {
    "Name": "MWSACTS",
    "Flag": "SELECT",
    "Granted": "XK_MWS_GEN_MWSORD_OUT",
    "Grantor": "SYSDBA"
  },
  {
    "Name": "MWSACTS",
    "Flag": "UPDATE",
    "Granted": "XK_MWS_GEN_MWSORD_OUT",
    "Grantor": "SYSDBA"
  },
  {
    "Name": "MWSCONSTLOCS",
    "Flag": "SELECT",
    "Granted": "XK_MWS_GEN_MWSORD_OUT",
    "Grantor": "SYSDBA"
  },
  {
    "Name": "MWSCONSTLOCSFORBIDDEN",
    "Flag": "DELETE",
    "Granted": "XK_MWS_GEN_MWSORD_OUT",
    "Grantor": "SYSDBA"
  },
  {
    "Name": "MWSCONSTLOCSFORBIDDEN",
    "Flag": "SELECT",
    "Granted": "XK_MWS_GEN_MWSORD_OUT",
    "Grantor": "SYSDBA"
  },
  {
    "Name": "MWSDOCPOSTOMWSORD",
    "Flag": "DELETE",
    "Granted": "XK_MWS_GEN_MWSORD_OUT",
    "Grantor": "SYSDBA"
  },
  {
    "Name": "MWSDOCPOSTOMWSORD",
    "Flag": "INSERT",
    "Granted": "XK_MWS_GEN_MWSORD_OUT",
    "Grantor": "SYSDBA"
  },
  {
    "Name": "MWSDOCPOSTOMWSORD",
    "Flag": "SELECT",
    "Granted": "XK_MWS_GEN_MWSORD_OUT",
    "Grantor": "SYSDBA"
  },
  {
    "Name": "MWSDOCPOSTOMWSORD",
    "Flag": "UPDATE",
    "Granted": "XK_MWS_GEN_MWSORD_OUT",
    "Grantor": "SYSDBA"
  },
  {
    "Name": "MWSGOODSREFILL",
    "Flag": "DELETE",
    "Granted": "XK_MWS_GEN_MWSORD_OUT",
    "Grantor": "SYSDBA"
  },
  {
    "Name": "MWSGOODSREFILL",
    "Flag": "SELECT",
    "Granted": "XK_MWS_GEN_MWSORD_OUT",
    "Grantor": "SYSDBA"
  },
  {
    "Name": "MWSORDS",
    "Flag": "DELETE",
    "Granted": "XK_MWS_GEN_MWSORD_OUT",
    "Grantor": "SYSDBA"
  },
  {
    "Name": "MWSORDS",
    "Flag": "INSERT",
    "Granted": "XK_MWS_GEN_MWSORD_OUT",
    "Grantor": "SYSDBA"
  },
  {
    "Name": "MWSORDS",
    "Flag": "SELECT",
    "Granted": "XK_MWS_GEN_MWSORD_OUT",
    "Grantor": "SYSDBA"
  },
  {
    "Name": "MWSORDS",
    "Flag": "UPDATE",
    "Granted": "XK_MWS_GEN_MWSORD_OUT",
    "Grantor": "SYSDBA"
  },
  {
    "Name": "MWSORDTYPES",
    "Flag": "SELECT",
    "Granted": "XK_MWS_GEN_MWSORD_OUT",
    "Grantor": "SYSDBA"
  },
  {
    "Name": "MWSSTOCK",
    "Flag": "SELECT",
    "Granted": "XK_MWS_GEN_MWSORD_OUT",
    "Grantor": "SYSDBA"
  },
  {
    "Name": "TOWARY",
    "Flag": "SELECT",
    "Granted": "XK_MWS_GEN_MWSORD_OUT",
    "Grantor": "SYSDBA"
  },
  {
    "Name": "WHSECS",
    "Flag": "SELECT",
    "Granted": "XK_MWS_GEN_MWSORD_OUT",
    "Grantor": "SYSDBA"
  }
]