{
  "Name": "ECALENDARS_VIEW",
  "Type": "View",
  "Description": "BS76187;\r\n\r\nStandardowy kalendarz + pole wskazujace na ostatni rok w kalendarzu, dla ktorego sa wygenerowane dni.",
  "Children": []
}