{
  "Name": "BHPEMPLSORTPOS",
  "FieldsByPosition": [
    "BHPEMPLSORTDEF",
    "KTM",
    "VERS",
    "AMOUNT",
    "UNIT",
    "PERIOD",
    "PERIODTUNIT",
    "WASHAMOUNT",
    "WASHTUNIT",
    "WASHPRICE"
  ]
}