{
  "Name": "BHPPLANPOS",
  "FieldsByPosition": [
    "EMPLOYEE",
    "DATEREAL",
    "STATUS",
    "KTM",
    "VERS",
    "AMOUNT",
    "UNIT",
    "NAGZAM",
    "DESCRIPT",
    "OUTOFPLAN",
    "CHGTIMESTAMP"
  ]
}