{
  "Name": "CALLS",
  "FieldsByPosition": [
    "BEGINCALL",
    "ENDCALL",
    "PICKUPCALL",
    "OPERATOR",
    "TYP",
    "DESTNUMBER",
    "CONNECTIONID",
    "SOURCENUMBER",
    "QUEUE",
    "STATE",
    "HIDDEN"
  ]
}