{
  "Name": "CFAZY",
  "FieldsByPosition": [
    "NAZWA",
    "GRUPA",
    "STOPIEN",
    "NUMER",
    "CONTRTYPE",
    "DOCUMENT",
    "AKTYWNE",
    "ZAKONCZONO",
    "STATE",
    "TOKEN",
    "MSGTEXT",
    "DEFAULTSRVPOSENABLED"
  ]
}