{
  "Name": "CKONTRAKTYE",
  "FieldsByPosition": [
    "CKONTRAKT",
    "NAZWA",
    "PLDATAOD",
    "PLDATADO",
    "REALDATAOD",
    "REALDATADO",
    "STATUS",
    "PLKOSZTR",
    "PLPRZYCHOD",
    "PLKOSZTM",
    "PLKOSZTS",
    "KONTRETAP"
  ]
}