{
  "Name": "DECREEMATCHINGS",
  "FieldsByPosition": [
    "COMPANY",
    "DECREE",
    "BKACCOUNT",
    "SLODEF",
    "SLOPOZ",
    "MATCHINGSYMBOL",
    "SLONAZWA",
    "SLOKOD",
    "CREDIT",
    "DEBIT",
    "DECREEMATCHINGGROUP",
    "MATCHINGGROUPID",
    "BLOCKCALC"
  ]
}