{
  "Name": "DEFDZIALATR",
  "FieldsByPosition": [
    "DZIAL",
    "KLASA",
    "NAGART",
    "NAZWA",
    "NUMER",
    "WARTOSC",
    "TYP",
    "WYSOKOSC",
    "DICTBASE",
    "DICTTABLE",
    "DICTFIELD",
    "DICTINDEX",
    "DICTPREFIX",
    "DICTFILTER",
    "ORD",
    "NLTOBR"
  ]
}