{
  "Name": "DEFDOKUMMAG",
  "FieldsByPosition": [
    "REALZAMREJ",
    "REALZAMTYP",
    "REALZAMOPER",
    "AFTERACKACTION",
    "REDCENSPRZ",
    "OPERACJAMENU",
    "RKZALICZKA",
    "RKDEFOPER",
    "RKPOZOPER",
    "BLOKADARED",
    "ZLECINFAFTERAKCEPT",
    "RIGHTTODOKMAG",
    "BEZFAKTUR",
    "PRODDOKPRZYCH",
    "PRODDOKROZCH",
    "PRODTRYB",
    "MAG2",
    "MAG2FILTER",
    "AFTERACKPROC",
    "MWSORDWAITING",
    "REALZAMAUTO",
    "REALZAMILDOST",
    "REALZAMCLOSE",
    "MWSALLOWMORE",
    "ALTALLOW"
  ]
}