{
  "Name": "DEFREJZAM",
  "FieldsByPosition": [
    "NAZWA",
    "NAZWADRUK",
    "GRUPA",
    "TYPZAM",
    "SZKICE",
    "DODZAM",
    "MODZAM",
    "USUZAM",
    "MODARD",
    "MODTDO",
    "MODSDO",
    "MODTZA",
    "MODSZA",
    "DODPOZ",
    "MODPOZ",
    "USUPOZ",
    "POPKTM",
    "POPWER",
    "POPILO",
    "POPCENN",
    "POPCENW",
    "MODMAG",
    "MODMAG2",
    "REDUSL",
    "NUMBER_GEN",
    "STAN",
    "ARCHIWALNY",
    "STATE",
    "STANMAG",
    "CHECKILOSC",
    "CHECKKLIENTPR",
    "DLAWYSYLKI",
    "GRUPANR",
    "GRUPAICON",
    "USUNPOCHODNE",
    "POZFILTR",
    "RIGHTDODZAM",
    "RIGHTMODZAM",
    "RIGHTUSUZAM",
    "RIGHTMODARD",
    "RIGHTMODTDO",
    "RIGHTMODSDO",
    "RIGHTMODTZA",
    "RIGHTMODSZA",
    "RIGHTDODPOZ",
    "RIGHTMODPOZ",
    "RIGHTUSUPOZ",
    "RIGHTPOPKTM",
    "RIGHTPOPWER",
    "RIGHTPOPILO",
    "RIGHTPOPCENN",
    "RIGHTPOPCENW",
    "RIGHTMODMAG",
    "RIGHTMODMAG2",
    "TOKEN",
    "MODDATA",
    "GENPOZ",
    "RIGHTGENPOZ",
    "EDITSERIAL",
    "ALTALLOW",
    "RIGHTALTALLOW"
  ]
}