{
  "Name": "DISTPOS",
  "FieldsByPosition": [
    "DECREES",
    "BKDOC",
    "ACCOUNT",
    "DEBIT",
    "CREDIT",
    "NUMBER",
    "PERIOD",
    "TRANSDATE",
    "DICTDEF",
    "DICTPOS",
    "SYMBOL",
    "COMPANY",
    "TEMPDICTDEF6",
    "TEMPSYMBOL6",
    "SYMBOL16",
    "TEMPSYMBOL4",
    "SYMBOL20",
    "TEMPSYMBOL5",
    "TEMPSYMBOL3",
    "SYMBOL18",
    "SYMBOL19",
    "SYMBOL17",
    "TEMPSYMBOL2",
    "TEMPSYMBOL",
    "SYMBOL10",
    "SYMBOL11",
    "SYMBOL12",
    "SYMBOL7",
    "SYMBOL8",
    "SYMBOL9",
    "SYMBOL5",
    "SYMBOL15",
    "SYMBOL4",
    "SYMBOL6",
    "SYMBOL13",
    "SYMBOL14",
    "STATUS",
    "TEMPDICTDEF",
    "DESCRIPT",
    "SYMBOL3",
    "TEMPDICTDEF2",
    "TEMPDICTDEF3",
    "TEMPDICTDEF4",
    "SYMBOL2",
    "TEMPDICTDEF5",
    "SYMBOL29",
    "SYMBOL28",
    "SYMBOL30",
    "SYMBOL27",
    "SYMBOL21",
    "SYMBOL25",
    "SYMBOL22",
    "SYMBOL26",
    "SYMBOL23",
    "SYMBOL24",
    "ORD",
    "SYMBOL31",
    "SYMBOL32",
    "SYMBOL33",
    "SYMBOL34",
    "SYMBOL35",
    "SYMBOL36",
    "SYMBOL37",
    "SYMBOL38",
    "SYMBOL39",
    "SYMBOL40"
  ]
}