{
  "Name": "DOKUMNOT",
  "FieldsByPosition": [
    "ODDZIAL",
    "TYP",
    "OKRES",
    "MAGAZYN",
    "MAG2",
    "NUMER",
    "SYMBOL",
    "DATA",
    "DOKUMNAGKOR",
    "WARTOSC",
    "UWAGI",
    "FAKTURA",
    "AKCEPT",
    "DATAAKC",
    "WASDEAKCEPT",
    "BLOKADA",
    "GRUPA",
    "OPERATOR",
    "OLDBKDOCNUM",
    "TOKEN",
    "STATE",
    "COMPANY",
    "BKBLOCKDESCRIPT",
    "BKBLOCK",
    "SLODEF",
    "SLOPOZ",
    "RODZAJ"
  ]
}