{
  "Name": "EBAILIFF",
  "FieldsByPosition": [
    "BAILIFFNAME",
    "NAME",
    "SURNAME",
    "STREET",
    "CITY",
    "POSTCODE",
    "POST",
    "COUNTRY",
    "TELEPHONE",
    "FAX",
    "EMAIL",
    "BANK",
    "ACCOUNT"
  ]
}