{
  "Name": "ECANDIDCONTACTS",
  "FieldsByPosition": [
    "ECANDIDATE",
    "CTYPE",
    "CDATE",
    "STATUS",
    "DESCRIPT",
    "DURATION",
    "COMMENTS",
    "ERECCAND",
    "ERECRUIT",
    "OPERATORS"
  ]
}