{
  "Name": "ECOLLDEDUCTIONS",
  "FieldsByPosition": [
    "PERSON",
    "FROMDATE",
    "DKIND",
    "INITDEDUCTION",
    "ACTDEDUCTION",
    "DEDUCTIONRATE",
    "DEDUCTED",
    "PRIORITY",
    "BAILIFF",
    "COURTCASE",
    "SIGNATURE",
    "TODATE",
    "ART140U1P3",
    "SEQUENCE",
    "LIMITKP4UCP"
  ]
}