{
  "Name": "ECONTRACTSDEF",
  "FieldsByPosition": [
    "DESCRIPTION",
    "EPOINTSTYPESDEF",
    "DOCGROUP",
    "DOCTYPES",
    "POINTPERHOUR",
    "POINTSPERUNIT",
    "NAME",
    "CALCMETHOD",
    "CALCPROC",
    "UNITSPERHOUR",
    "MEANTIME",
    "PROPERS",
    "PRTYPE",
    "DOSTAWCA"
  ]
}