{
  "Name": "ECOSTSPOS",
  "FieldsByPosition": [
    "PERCENT",
    "BKSYMBOL",
    "ECOST",
    "BKSGROUP",
    "DIST3SYMBOL",
    "DIST4SYMBOL",
    "DIST1SYMBOL",
    "DIST2SYMBOL",
    "DIST5SYMBOL",
    "DIST4DDEF",
    "DIST5DDEF",
    "DIST6DDEF",
    "DIST2DDEF",
    "DIST1DDEF",
    "DIST6SYMBOL",
    "DIST3DDEF",
    "MPKDDEF",
    "MPKDPOS"
  ]
}