{
  "Name": "EDECLARATIONS",
  "FieldsByPosition": [
    "STATUS",
    "REFID",
    "FROMDATE",
    "TODATE",
    "REGTIMESTAMP",
    "PERSON",
    "EMONTH",
    "EYEAR",
    "PERIOD",
    "SENDTIMESTAMP",
    "RESPONSETIMESTAMP",
    "REGOPERATOR",
    "CHGOPERATOR",
    "STATE",
    "CHGTIMESTAMP",
    "FILENAME",
    "CORRECTION",
    "ENCLOSUREOWNER",
    "UPOXML",
    "COMPANY",
    "EDEDOCCONFIRM",
    "EDEDOCSEND",
    "DECLGROUP",
    "GROUPNAME",
    "STATUSDICT",
    "EDECLDEF",
    "SQLGENERATED"
  ]
}