{
  "Name": "EMAILWIAD",
  "FieldsByPosition": [
    "DATA",
    "URL",
    "ZALACZNIK",
    "IDODPNA",
    "IDWATKU",
    "FOLDER",
    "KLIENT",
    "STAN",
    "EMAIL",
    "OKRES",
    "CPODMIOT",
    "SEGDOCEL",
    "KONTAKT",
    "OPERATOR",
    "PODMIOTY",
    "PLIK",
    "HTML",
    "KODOWANIE",
    "ID",
    "TRYB",
    "DELIVEREDTO",
    "PREVIOUSMAILTRYB",
    "REFW",
    "PREVIOUSMAIL",
    "IID",
    "ZADANIE",
    "UID",
    "MAILBOX",
    "CC",
    "DOKOGO",
    "FULLHTMLBODY",
    "FULLYLOADED",
    "OD",
    "TRESC",
    "TYTUL",
    "BCC",
    "HASATTACHMENTS",
    "REFL"
  ]
}