{
  "Name": "EMPLFAMILY",
  "FieldsByPosition": [
    "EMPLOYEE",
    "PERSON",
    "CONECTTYPE",
    "FNAME",
    "SNAME",
    "BIRTHDATE",
    "PESEL",
    "FAMILYAID",
    "FAIDFROM",
    "FAIDTO",
    "CAREAID",
    "CAIDFROM",
    "CAIDTO",
    "INSURANCE",
    "EVIDENCENO",
    "PASSPORTNO",
    "NIP",
    "REHABILITYAID",
    "RAIDFROM",
    "RAIDTO",
    "SCHOOLAID",
    "SAIDFROM",
    "SAIDTO",
    "COMMUNE",
    "CITY",
    "POST",
    "STREET",
    "HOUSENO",
    "LOCALNO",
    "PHONE",
    "FAX",
    "POSTCODE",
    "INVALIDITY",
    "INMANAGE",
    "DELIVERANCE",
    "INSURCARDNO",
    "OTHERADDRESS",
    "INSURCARDDATE",
    "INSUREDFROM",
    "INSUREDTO"
  ]
}