{
  "Name": "EMPLEXPOSURES",
  "FieldsByPosition": [
    "EDATE",
    "EXPTYPE",
    "DESCRIPT",
    "EMPLOYEE",
    "EMPLGROUP",
    "PATIENTNAME",
    "CIRCUMSTANCES",
    "PROCEEDING",
    "COMPANY",
    "PLACE",
    "TOOL",
    "ACTIVITY",
    "SOURCE"
  ]
}