{
  "Name": "ERECCANDS",
  "FieldsByPosition": [
    "CANDIDATE",
    "RECPOST",
    "RATING",
    "ENGAGE",
    "CANDMSG",
    "EMAIL",
    "FROMWWW",
    "INFO",
    "MARK",
    "NOTES",
    "PHONE",
    "QNT",
    "RECRUIT",
    "REFERRER",
    "REFUSCAUSE",
    "REGTIMESTAMP",
    "SOURCE",
    "STATUS",
    "TODO",
    "WAGEEXP",
    "WAITING"
  ]
}