{
  "Name": "ETRAININGS",
  "FieldsByPosition": [
    "STATUS",
    "TRAINFIRM",
    "DESCRIPT",
    "TRAINER",
    "SUBJECT",
    "FROMDATE",
    "TODATE",
    "LOCATION",
    "TRAINNEED",
    "ADDPERSONCOST",
    "TOTALCOST",
    "PERSONCOST",
    "DURATION",
    "COSTTYPE",
    "TRAINTYPE",
    "COMPANY"
  ]
}