{
  "Name": "FSBALANCES",
  "FieldsByPosition": [
    "ACCOUNT",
    "DICTDEF",
    "DICTPOS",
    "DICTGRP",
    "DEBIT",
    "CREDIT",
    "CURRENCY",
    "GRPDEBIT",
    "GRPCREDIT",
    "COMPANY",
    "KONTOFK",
    "GRPBTRANAMOUNTBANK",
    "BTRANAMOUNTBANK"
  ]
}