{
  "Name": "HISTZAM",
  "FieldsByPosition": [
    "ZAMOWIENIE",
    "OPERACJA",
    "OPERATOR",
    "DATA",
    "OPIS",
    "FAKTURA",
    "DATAZM",
    "ORG_ID",
    "REALOUT",
    "ORG_REJ",
    "ORG_BLOKADA",
    "ORG_STAN",
    "DPOUT",
    "DBOUT",
    "DKOUT",
    "DDOUT",
    "MAINHISTZAM",
    "MAINZAM",
    "WYSYLKA",
    "CINOUT",
    "SKAD",
    "DOKUMENTMAIN",
    "KISREAL",
    "OLDFAKTURA",
    "REFROMDOKREF",
    "MAGTOFAKJOINED",
    "STATUS",
    "NOBACK",
    "ORG_KSTAN",
    "PROPERSRAP",
    "PRSHORTAGE"
  ]
}