{
  "Name": "INT_IMP_KLI_ZALACZNIKI",
  "FieldsByPosition": [
    "KLIENTID",
    "TYP",
    "WARTOSC",
    "SCIEZKA",
    "GLOWNY",
    "NAZWAPLIKU",
    "ROZSZERZENIE",
    "NAZWA",
    "OPIS",
    "HASH",
    "DEL",
    "REC",
    "RECS",
    "RECI",
    "ZRODLO",
    "DATAINS",
    "SESJA",
    "SKADTABELA",
    "SKADREF",
    "DATAPRZETW",
    "DATAOSTPRZETW",
    "ERROR",
    "ERRORMSG",
    "STATUS",
    "KLIENT"
  ]
}