{
  "Name": "INT_IMP_X_SLOWNIKI",
  "FieldsByPosition": [
    "TYP",
    "AKT",
    "WARTOSC",
    "OTABLE",
    "OREF",
    "SESJA",
    "SKADTABELA",
    "SKADREF",
    "SLOWNIKID",
    "DATAKONIEC",
    "IDSES",
    "DATAPOCZATEK",
    "ERRORZALEZNE",
    "ERROR",
    "TYP_ID",
    "GLOWNY"
  ]
}