{
  "Name": "INT_IMP_ZAM_NAGLOWKI",
  "FieldsByPosition": [
    "NAGID",
    "SYMBOL",
    "TYP",
    "DATAZAM",
    "WYDANIA",
    "ZEWNETRZNY",
    "BN",
    "MAGAZYN",
    "MAGAZYN2",
    "PARTIA",
    "PARTIAID",
    "ZAPLATA",
    "ZAPLATAID",
    "DOSTAWA",
    "DOSTAWAID",
    "SPRZEDAWCA",
    "SPRZEDAWCAID",
    "WALUTA",
    "KURS",
    "UWAGIWEW",
    "UWAGIZEW",
    "UWAGISPED",
    "DATAWYSYLKI",
    "WARTOSCNETTO",
    "WARTOSCBRUTTO",
    "WARTOSCNETTOZL",
    "WARTOSCBRUTTOZL",
    "DOZAPLATY",
    "RABATWYLICZ",
    "RABATPROCENT",
    "RABATWARTOSC",
    "BLOKADA",
    "TYPDOKFAK",
    "TYPDOKMAG",
    "STATUSZAM",
    "HASH",
    "DEL",
    "REC",
    "RECS",
    "RECI",
    "ZRODLO",
    "DATAINS",
    "SESJA",
    "SKADTABELA",
    "SKADREF",
    "DATAPRZETW",
    "DATAOSTPRZETW",
    "ERROR",
    "ERRORMSG",
    "STATUS",
    "ERRORZALEZNE",
    "ZAMOWIENIE",
    "DOKUMENT",
    "KLIENT_SENTE",
    "ODBIORCA_SENTE",
    "KLIENTHIST_SENTE",
    "DOSTAWCA_SENTE",
    "SPOSZAP_SENTE",
    "SPOSDOST_SENTE",
    "MAGAZYN_SENTE",
    "MAG2_SENTE",
    "TYP_SENTE",
    "DATA_SENTE",
    "DOSTAWA_SENTE",
    "OPERATOR_SENTE",
    "ODDZIAL_SENTE",
    "COMPANY_SENTE",
    "WALUTOWY_SENTE",
    "KURS_SENTE",
    "WALUTA_SENTE",
    "TYPDOKVAT_SENTE",
    "TYPDOKMAG_SENTE",
    "SPRZEDAWCA_SENTE",
    "BN_SENTE",
    "TERMDOST_SENTE",
    "KLIENTID",
    "ODBIORCAID",
    "DOSTAWCAID",
    "NUMER",
    "REJESTR_SENTE",
    "X_ZWOLNIJPAKOWANIE"
  ]
}