{
  "Name": "INT_IMP_TOW_ZALACZNIKI",
  "FieldsByPosition": [
    "TOWARID",
    "TYP",
    "WARTOSC",
    "SCIEZKA",
    "GLOWNY",
    "NAZWAPLIKU",
    "ROZSZERZENIE",
    "NAZWA",
    "OPIS",
    "HASH",
    "DEL",
    "REC",
    "RECS",
    "RECI",
    "ZRODLO",
    "DATAINS",
    "SESJA",
    "SKADTABELA",
    "SKADREF",
    "DATAPRZETW",
    "DATAOSTPRZETW",
    "ERROR",
    "ERRORMSG",
    "STATUS",
    "KTM",
    "REF_TOWAR",
    "ERRORZALEZNE",
    "ZALACZNIKID"
  ]
}