{
  "Name": "INT_IMP_ATRYBUTY",
  "FieldsByPosition": [
    "TABELAID",
    "OBIEKTID",
    "ATRYBUT",
    "ATRYBUTID",
    "WARTOSC",
    "WARTOSCID",
    "HASH",
    "DEL",
    "REC",
    "RECS",
    "RECI",
    "ZRODLO",
    "DATAINS",
    "SESJA",
    "SKADTABELA",
    "SKADREF",
    "DATAPRZETW",
    "ERROR",
    "ERRORMSG",
    "STATUS",
    "DEFCECHY",
    "DEFCECHW",
    "ERRORZALEZNE",
    "X_ATRYBUT",
    "DATAOSTPRZETW",
    "OTABLE",
    "OREF",
    "KTM"
  ]
}