{
  "Name": "INTRASTATP",
  "FieldsByPosition": [
    "INTRASTATH",
    "NAME",
    "QUANTITYHELPUNIT",
    "QUANTITY",
    "SYMBDOK",
    "INTRDOSTAWY",
    "VAL",
    "DELIVERYVAL",
    "INTRTRANSPORT",
    "KRAJPOCHODZENIA",
    "KTC",
    "HELPUNIT",
    "FILLPOZDATE",
    "SLODEF",
    "SLOPOZ",
    "VALSTAT",
    "KRAJWYSYLKI",
    "WARDOSTAWY",
    "WEIGHT",
    "REFDOKUMNAG",
    "WYDANIA",
    "KTM",
    "OKRES",
    "NOTA",
    "TNAZWA",
    "STATUSFLAG",
    "SREF",
    "OTABLE",
    "OREF"
  ]
}