{
  "Name": "INWENTA",
  "FieldsByPosition": [
    "MAGAZYN",
    "OKRES",
    "NUMER",
    "SYMBOL",
    "OPIS",
    "CALKOWITY",
    "DATA",
    "ZAMK",
    "INWP",
    "INWM",
    "DATAZAMK",
    "WARTMAG",
    "ORD",
    "MAROZNICE",
    "INWENTAPARENT",
    "INWENTAPARENTS",
    "ZBIORCZY",
    "ZPARTIAMI",
    "ROZLICZENIOWY"
  ]
}