{
  "Name": "KOSZTDOST",
  "FieldsByPosition": [
    "WAGA",
    "ODLEGLOSC",
    "WAGAP",
    "ODLEGLOSCP",
    "SPEDYTOR",
    "KOSZT",
    "ILOSCPAL",
    "ILOSCPALP",
    "SPOSDOSTCENNIK",
    "ILOSCKARTP",
    "ILOSCKART"
  ]
}