{
  "Name": "MAILBOXES",
  "FieldsByPosition": [
    "NAZWA",
    "HOST",
    "PORT",
    "USERNAME",
    "PASS",
    "OPERATOR",
    "TRASHCLEAR",
    "TRASHFOLDER",
    "DRAFTSFOLDER",
    "SENTFOLDER",
    "SMTPHOST",
    "SMTPPORT",
    "SMTPAUTH",
    "SMTPUSERNAME",
    "SMTPPASS",
    "TRASHCLEARMODE",
    "AUTOSYNCHROMODE",
    "SYNCHRODAYSBACK",
    "AUTOLOADMAXSIZE",
    "HIDESTANSTAT",
    "DISPIMAGEBODY",
    "AUTOSYNCHSERV",
    "EMAIL",
    "SMTPUSESSL",
    "USESSL",
    "EMAILFOOTER",
    "GETOPERATORFOOTER",
    "PUBLICBOX",
    "SMTP_UPLOADEMAILTOIMAP"
  ]
}