{
  "Name": "MSGORDTYPPAR",
  "FieldsByPosition": [
    "NAZWA",
    "TYP",
    "DEFVALUE",
    "DICTBASE",
    "DICTTABLE",
    "DICTFIELD",
    "DICTINDEX",
    "DICTPREFIX",
    "DICTFILTER",
    "DICTKEYFIELDS"
  ]
}