{
  "Name": "MWSACTDETS",
  "FieldsByPosition": [
    "NUMBER",
    "MWSORD",
    "MWSACT",
    "WH",
    "WHSEC",
    "WHAREA",
    "GOOD",
    "VERS",
    "QUANTITY",
    "QUANTITYC",
    "LOT",
    "MWSCONSTLOCP",
    "MWSPALLOCP",
    "MWSCONSTLOCL",
    "MWSPALLOCL",
    "QUANTITYL",
    "REC",
    "STATUS",
    "DOCTYPE",
    "DOCID",
    "DOCPOSID",
    "STOCKTAKING",
    "CORTOMWSACT",
    "PLUS",
    "STANCEN",
    "X_PARTIA",
    "X_SERIAL_NO",
    "X_SLOWNIK"
  ]
}