{
  "Name": "MWSACTS",
  "FieldsByPosition": [
    "NUMBER",
    "MWSORD",
    "FROMMWSACT",
    "STATUS",
    "STOCKTAKING",
    "GOOD",
    "VERS",
    "QUANTITY",
    "QUANTITYC",
    "QUANTITYL",
    "MWSCONSTLOCP",
    "MWSPALLOCP",
    "MWSCONSTLOCL",
    "MWSPALLOCL",
    "DOCID",
    "DOCPOSID",
    "DOCTYPE",
    "SETTLMODE",
    "CATEGORY",
    "MINREALTIME",
    "PACKMETH",
    "CLOSEPALLOC",
    "PACKSYMBOL",
    "MWSACCESSORY",
    "WH",
    "WHAREA",
    "WHSEC",
    "REGTIME",
    "ACCEPTTIME",
    "COMMITTIME",
    "REALTIME",
    "TIMESTARTDECL",
    "TIMESTOPDECL",
    "TIMESTART",
    "TIMESTOP",
    "KEYA",
    "KEYB",
    "KEYC",
    "KEYD",
    "FLAGS",
    "DESCRIPT",
    "ORD",
    "PRIORITY",
    "LOT",
    "RECDOC",
    "CORTOMWSACT",
    "PLUS",
    "STANCEN",
    "STATUSBLOCK",
    "BGOOD",
    "BVERS",
    "BMWSCONSTLOCP",
    "BMWSPALLOCP",
    "BMWSCONSTLOCL",
    "BMWSPALLOCL",
    "WHAREAP",
    "WHAREAL",
    "WHAREALOGP",
    "WHAREALOGL",
    "MWSORDSTATUS",
    "DISTTOGO",
    "REALTIMEDECL",
    "GROUPCOMMIT",
    "PALGROUP",
    "DATESTOPDECL",
    "STOCKREQUIRED",
    "SLODEF",
    "SLOPOZ",
    "SLOKOD",
    "WEIGHT",
    "QUANTITYSTRING",
    "VOLUME",
    "MWSPALLOCSYM",
    "MIXEDPALLGROUP",
    "LOADPERCENT",
    "MAXLEVEL",
    "PLANMWSCONSTLOCL",
    "PLANWHAREALOGL",
    "PLANWHAREAL",
    "PACKQUANTITY",
    "PALPACKMETH",
    "PALPACKMETHSHORT",
    "PALPACKQUANTITY",
    "ISPAL",
    "CLONEFROMMWSACT",
    "BLOCKCONSTLOCCHANGE",
    "DEEPP",
    "DEEPL",
    "H",
    "W",
    "L",
    "AUTOGEN",
    "MIXTAKEPAL",
    "MIXLEAVEPAL",
    "MIXMWSCONSTLOCL",
    "MIXMWSPALLOCL",
    "MWSORDTYPE",
    "QUICKSTOCKTACKING",
    "MULTIVERSGOOD",
    "REFILLTRY",
    "QUANTITYREM",
    "VOLUMEREM",
    "STOPNEXTMWSACTS",
    "QUANTITYV",
    "OPERATOR",
    "MISTAKESCNT",
    "MISTAKESCNTQ",
    "MWSORDTYPEDEST",
    "OPTDIST",
    "OPTNUMBER",
    "MANMWSACTS",
    "DATESTOP",
    "FROMDOCPOS2PREPARE",
    "MWSPALLOCSIZE",
    "SEGTYPE",
    "WH2",
    "MWSCONSTLOCCHANGE",
    "BADLABEL",
    "BADLABELTIME",
    "EMWSCONSTLOC",
    "CHECKED",
    "MWSCONSTLOC",
    "QUANTITYP",
    "UNITP",
    "BADMWSCONSTLOC",
    "BADBARCODE",
    "LOCKEDIT",
    "PARAMD1",
    "PARAMD2",
    "PARAMD3",
    "PARAMD4",
    "PARAMN1",
    "PARAMN10",
    "PARAMN11",
    "PARAMN12",
    "PARAMN2",
    "PARAMN3",
    "PARAMN4",
    "PARAMN5",
    "PARAMN6",
    "PARAMN7",
    "PARAMN8",
    "PARAMN9",
    "PARAMS1",
    "PARAMS10",
    "PARAMS11",
    "PARAMS12",
    "PARAMS2",
    "PARAMS3",
    "PARAMS4",
    "PARAMS5",
    "PARAMS6",
    "PARAMS7",
    "PARAMS8",
    "PARAMS9",
    "DOCGROUP",
    "X_PARTIA",
    "X_SERIAL_NO",
    "X_SLOWNIK",
    "X_HAVEFAKE_VERS",
    "X_INSHELVES"
  ]
}