{
  "Name": "MWSCONSTLOCS",
  "FieldsByPosition": [
    "SYMBOL",
    "MWSCONSTLOCTYPE",
    "WHAREA",
    "MWSSTAND",
    "COORDXB",
    "COORDXE",
    "COORDYB",
    "COORDYE",
    "COORDZB",
    "COORDZE",
    "MEASURE",
    "STOCKTAKING",
    "GOODSSELLAV",
    "MWSSTANDLEVEL",
    "WHSEC",
    "WHSECDICT",
    "WHSECROW",
    "WHSECROWDICT",
    "MWSSTANDSEG",
    "MWSSTANDSEGTYPE",
    "MWSSTANDNUMBER",
    "LOCNUMBER",
    "MWSSTANDLEVELNUMBER",
    "L",
    "W",
    "H",
    "VOLUME",
    "WHAREANUMBER",
    "LEVELHEIGHT",
    "STOCKPLAN",
    "ACT",
    "LONGSYMBOL",
    "MWSSTANDSEGTYPEDICT",
    "DEACTREASON",
    "DISTFROMSTARTAREA",
    "WHAREALOGFROMSTARTAREA",
    "LOADCAPACITY",
    "DEEP",
    "WH",
    "ABC",
    "GOODSAV",
    "REFILL",
    "MAXPALLOCQ",
    "ACTCHANGEDATETIME",
    "LOCDEST",
    "CHECKSUM",
    "WCATEGORY",
    "TAKEFROMMIX",
    "MWSOUTACTSCNT",
    "LASTMWSORD",
    "INDYVIDUALLOT",
    "ROUTEROWNUM",
    "X_ROW_TYPE",
    "X_FLOW_GROUP",
    "X_FLOW_ORDER",
    "X_REF_HERMON",
    "X_REASON_BLOK"
  ]
}