{
  "Name": "MWSGOODSREFILL",
  "FieldsByPosition": [
    "DOCPOSID",
    "VERS",
    "QUANTITY",
    "DOCID",
    "DOCTYPE",
    "STATUS",
    "WH",
    "ORDERED",
    "POSQUANTITY",
    "POSQUANTITYORG",
    "GOOD",
    "DICTCODE",
    "TRIED",
    "PRIORITY",
    "DOCDATE",
    "SHIPPINGTYPE",
    "SHIPPINGTYPEDICT",
    "DOCACCDATE",
    "STOCKTAKING",
    "BLOCKMWSORDS",
    "REALDATE",
    "PREPAREGOODS",
    "REALLATER",
    "COLINDEX",
    "CALCMIX",
    "LOT",
    "LASTCHECK",
    "X_PARTIA",
    "X_SERIAL_NO",
    "X_SLOWNIK"
  ]
}