{
  "Name": "MWSORDTYPEDETS",
  "FieldsByPosition": [
    "NAME",
    "ALLOWORDADD",
    "ALLOWORDEDIT",
    "ALLOWORDDEL",
    "ALLOWACTADD",
    "ALLOWACTEDIT",
    "ALLOWACTDEL",
    "EXT",
    "DOCOUT",
    "CLOSEONCOMMIT",
    "REALMODE"
  ]
}