{
  "Name": "MWSPALLOCS",
  "FieldsByPosition": [
    "SYMBOL",
    "MWSPALLOCTYPE",
    "MWSCONSTLOC",
    "STATUS",
    "FROMMWSACT",
    "FROMDOCID",
    "FROMDOCPOSID",
    "FROMDOCTYPE",
    "OUTSYMBOL",
    "DOCGROUP",
    "SEGTYPE",
    "MANMWSACTS",
    "WHSEC",
    "X_MWSCARTCOLOUR"
  ]
}