{
  "Name": "MWSSTANDS",
  "FieldsByPosition": [
    "WH",
    "WHSEC",
    "SYMBOL",
    "STORIESQUANT",
    "LOADCAPACITY",
    "MWSSTANDTYPE",
    "L",
    "W",
    "MWSSTANDSEGQ",
    "WHSECROW",
    "NUMBER",
    "ORD",
    "WHSECDICT",
    "WHSECROWDICT"
  ]
}