{
  "Name": "MWSSTANDLEVELTYPES",
  "FieldsByPosition": [
    "MWSSTANDTYPE",
    "L",
    "W",
    "H",
    "LOADCAPACITY",
    "LEVELHEIGHT",
    "VOLUME",
    "NUMBER",
    "MWSCONSTLOCTYPE",
    "ACT",
    "MAXPALLOCQ",
    "X_DEFAULT_GOODSAV"
  ]
}