{
  "Name": "MWSSUPCLR",
  "FieldsByPosition": [
    "REGOPER",
    "REGDATE",
    "DOCIDFROM",
    "GOODFROM",
    "VERSFROM",
    "QUANTITYFROM",
    "DOCIDTO",
    "GOODTO",
    "VERSTO",
    "QUANTITYTO",
    "GROUPID",
    "SUPFROM",
    "SUPTO",
    "DICTSUPFROM",
    "DICTSUPTO",
    "ATR1FROM",
    "ATR2FROM",
    "ATR1TO",
    "ATR2TO"
  ]
}