{
  "Name": "NOTIFICATION",
  "FieldsByPosition": [
    "NAME",
    "MODE",
    "MODULE",
    "LASTDATE",
    "NEXTDATE",
    "INTERVAL",
    "ACT",
    "MONDAYSTART",
    "MONDAYSTOP",
    "TUESDAYSTART",
    "TUESDAYSTOP",
    "WEDNESDAYSTART",
    "WEDNESDAYSTOP",
    "THURSDAYSTART",
    "THURSDAYSTOP",
    "FRIDAYSTART",
    "FRIDAYSTOP",
    "SATURDAYSTART",
    "SATURDAYSTOP",
    "SUNDAYSTART",
    "SUNDAYSTOP",
    "INTERVALTYPE",
    "INTERVALTYPEPARAM"
  ]
}