{
  "Name": "OPERATOR",
  "FieldsByPosition": [
    "IMIE",
    "NAZWISKO",
    "NAZWA",
    "EMAIL",
    "TELEFON",
    "TELEFONKOM",
    "SPRZEDAWCA",
    "GRUPA",
    "ODDZIAL",
    "ADMINISTRATOR",
    "SZEF",
    "ZEWNETRZNY",
    "HASLO",
    "LOGIN",
    "USERID",
    "DEFMEDIUMS",
    "APPLICATIONS",
    "ZASTEPCA",
    "TOKEN",
    "STATE",
    "OPERSKROT",
    "CANGETMESSAGES",
    "AUTOPRESENCELISTSNAG",
    "AKTYWNY",
    "EMPLOYEE",
    "ODDZIALY",
    "PRZELOZONY",
    "MWSCHECKNEEDED",
    "ZASTEPCAOD",
    "ZASTEPCADO",
    "MODULES",
    "EMAILEDITFOLDER",
    "CERTDS",
    "DEFAULTPRINTER",
    "CERTBY",
    "AUTOOKRES",
    "UUID",
    "EXTMAILCLIENT",
    "EMAILFOOTER",
    "VOIPLOGIN",
    "VOIPQUEUES",
    "DOMAIN",
    "DOMAINLOGIN"
  ]
}