{
  "Name": "PMCONTRACTS",
  "FieldsByPosition": [
    "SYMBOL",
    "TYPE",
    "ORGREF",
    "ORGSYMBOL",
    "SOURCE",
    "PMPLAN",
    "PMCONTRTYPE",
    "STARTDATE",
    "DICTDEF",
    "DICTPOS",
    "SUBJECT",
    "CVALUE",
    "STATUS",
    "ACTDEPARTMENT",
    "WARRANTY",
    "GRI",
    "PAYER",
    "DATEFROM",
    "DATETO",
    "PAYMENT",
    "PARTIALPAYMENT",
    "FINALPAYMENT",
    "PAYMENTDESC",
    "FLAGS",
    "REGDEPARTMENT",
    "DESCRIPT",
    "ANNOTATION",
    "PERCENT"
  ]
}