{
  "Name": "PMINSURANCES",
  "FieldsByPosition": [
    "PMCONTRACT",
    "DICTDEF",
    "DICTPOS",
    "INSTYPE",
    "CURRENCY",
    "INSVAL",
    "CURRATE",
    "INSVALPLN",
    "EXPDATE",
    "CGETDATE",
    "CEXPDATE",
    "REQDATE",
    "DELDATE",
    "STATUS",
    "DISCRATE",
    "DESCRIPT"
  ]
}