{
  "Name": "PMPOSITIONS",
  "FieldsByPosition": [
    "PMELEMENT",
    "PMPLAN",
    "NAME",
    "SYMBOL",
    "KTM",
    "DESCRIPT",
    "QUANTITY",
    "POSITIONTYPE",
    "CALCPRICE",
    "CALCVAL",
    "BUDPRICE",
    "BUDVAL",
    "BUDVALR",
    "INTQ",
    "OFEQ",
    "EXTQ",
    "EXTVAL",
    "REALQ",
    "REALVAL",
    "USEDQ",
    "USEDPRICE",
    "USEDVAL",
    "READRIGHTS",
    "WRITERIGHTS",
    "READRIGHTSGROUP",
    "WRITERIGHTSGROUP",
    "UNIT",
    "VERSION",
    "VERSIONNUM",
    "MAINREF",
    "EREALVAL",
    "EREALPRICE",
    "EREALQ",
    "KOLOR"
  ]
}