{
  "Name": "POZSAD",
  "FieldsByPosition": [
    "FAKTURA",
    "NUMER",
    "OPIS",
    "PODSTAWA",
    "GRUPACLA",
    "STAWKACLA",
    "CLO",
    "WARTNET",
    "GR_VAT",
    "VAT",
    "CLOVAT",
    "ORD",
    "PSTAWKACLA",
    "PCLO",
    "PWARTNET",
    "PGRUPACLA",
    "PPODSTAWA",
    "PGR_VAT",
    "PVAT",
    "PCLOVAT",
    "REFK"
  ]
}