{
  "Name": "PRDACCOUNTING",
  "FieldsByPosition": [
    "DECREE",
    "COMPANY",
    "ACCOUNT",
    "PRDSYMBOL",
    "SIDE",
    "AMOUNT",
    "PERIODCOUNT",
    "FIRSTPERIOD",
    "FREQUENCY",
    "DEDUCTACCOUNT",
    "DEDUCTAMOUNT",
    "DEDUCTEDAMOUNT",
    "PRDGROUP",
    "DESCRIPT",
    "STATUS",
    "DIST1DDEF",
    "DIST1SYMBOL",
    "DIST2DDEF",
    "DIST2SYMBOL",
    "DIST3DDEF",
    "DIST3SYMBOL",
    "DIST4DDEF",
    "DIST4SYMBOL",
    "DIST5DDEF",
    "DIST5SYMBOL",
    "SDATE",
    "FROMSDATE",
    "DIST6DDEF",
    "DIST6SYMBOL",
    "DECREEPERIOD",
    "FIRSTDEDUCTAMOUNT",
    "FIRSTPRDVERSION"
  ]
}