{
  "Name": "PROMOCJE",
  "FieldsByPosition": [
    "RODZAJ",
    "NAZWA",
    "OPIS",
    "ZDJECIE",
    "WYKLUCZ",
    "DATAOD",
    "DATADO",
    "TYP",
    "WARTOSC",
    "LICZBA",
    "CECHA",
    "WARTCECHY",
    "MINILOSC",
    "GRUPAKLI",
    "WYNIK",
    "UPUST",
    "PROCENT",
    "KTM",
    "KTMMASKA",
    "ODKTM",
    "DOKTM",
    "WERSJA",
    "ILOSC",
    "SZABLON",
    "STATE",
    "WERSJAREF",
    "PLATNOSC",
    "SPOSDOST",
    "TABRAB",
    "OPERLAST",
    "DATALAST",
    "PROCENTRAB",
    "PRIORYTET",
    "BN",
    "PROCEDURA",
    "REPLICAT",
    "TOKEN",
    "ODDZIAL",
    "MAGAZYN",
    "PROMTYP",
    "CPLTYPYPKT",
    "ZPAKIETEM"
  ]
}