{
  "Name": "PROPERSRAPS",
  "FieldsByPosition": [
    "PERSON",
    "EMPLOYEE",
    "AMOUNT",
    "ECONTRACTSDEF",
    "ECONTRACTSPOSDEF",
    "PRSCHEDOPER",
    "MAKETIME",
    "SETUPTIME",
    "MAKETIMEFROM",
    "MAKETIMETO",
    "REGTIME",
    "DOCID",
    "STATUS",
    "OPERATOR",
    "PARAMN1",
    "PARAMI1",
    "PARAMI2",
    "PARAMI3",
    "NORMREALIZATION",
    "MAKETIMEHOURS",
    "PRSCHEDGUIDE",
    "PRGRUPAROZL",
    "CALCAMOUNTRESULT",
    "PRGENGROUP"
  ]
}