{
  "Name": "PRORDANALMAT",
  "FieldsByPosition": [
    "CONNECTIONID",
    "NREF",
    "PREFPROD",
    "PREF",
    "VERS",
    "WH",
    "ONDATE",
    "QUANTITY",
    "QUANTITYAV",
    "MAXAVDATE",
    "FROMPREF",
    "STATUS",
    "QBEFORE",
    "QAFTER",
    "FROMNREF",
    "GOOD"
  ]
}