{
  "Name": "PRSCHEDULEVERIFY",
  "FieldsByPosition": [
    "PARENT",
    "POZZAMREF",
    "NAGZAMREF",
    "NAGZAMID",
    "KTM",
    "WERSJAREF",
    "PRSCHEDGUIDE",
    "PRSCHEDGUIDEPOS",
    "PRSCHEDOPER",
    "QUANTITY",
    "QUANTITYR",
    "PRSHOPER",
    "PROPER",
    "PRMACHINE",
    "DESCRIPT",
    "EXPAND",
    "PRSCHEDVIEW",
    "ENDTIME"
  ]
}