{
  "Name": "PRSCHEDULES",
  "FieldsByPosition": [
    "SYMBOL",
    "PLANS",
    "STATUS",
    "FROMDATE",
    "TODATE",
    "TECHJEDNQUANTITY",
    "PRSCHMETHOD",
    "DESCRIPT",
    "PRDEPART",
    "MAIN",
    "PRSCHEDGROUP",
    "MINTIMEBETWEENOPERS",
    "ROUNDSTARTTIME"
  ]
}