{
  "Name": "PRSHMAT",
  "FieldsByPosition": [
    "SHEET",
    "OPERMASTER",
    "NUMBER",
    "DESCRIPT",
    "MATTYPE",
    "KTM",
    "WERSJA",
    "WERSJAREF",
    "JEDN",
    "ENETQUANTITY",
    "NETQUANTITY",
    "EGROSSQUANTITY",
    "GROSSQUANTITY",
    "ECONDITION",
    "CONDITION",
    "SUBSHEET",
    "ORD",
    "SUPPLIER",
    "WAREHOUSE",
    "REQKTMTAG",
    "UNREPORTED",
    "AUTODOCOUT",
    "STOPCASCADE",
    "PRODTRANSFER"
  ]
}