{
  "Name": "PRSHORTAGES",
  "FieldsByPosition": [
    "PRSHORTAGESTYPE",
    "KTM",
    "PERSON",
    "EMPLOYEE",
    "AMOUNT",
    "PRNAGZAM",
    "PRPOZZAM",
    "PRSCHEDGUIDE",
    "PRSCHEDOPER",
    "PRDEPART",
    "STATUS",
    "DOKUMNAG",
    "DOKUMPOZ",
    "PRSCHEDZAM",
    "PRSCHEDGUIDESPOS",
    "AMOUNTZREAL",
    "PRSCHEDOPERDECL",
    "OPERATOR",
    "REGDATE",
    "AMOUNTREAL",
    "NOAMOUNTINFLUENCE",
    "REQKTMTAG",
    "HEADERGROUPWERSJAREF",
    "UWAGI",
    "HEADERGROUP",
    "HEADERGROUPAMOUNT",
    "WERSJAREF",
    "PRGRUPAROZL",
    "SHORTAGERATIO",
    "PROPERSRAP"
  ]
}