{
  "Name": "PRTOOLSDEFDOCS",
  "FieldsByPosition": [
    "NAME",
    "DESCRIPT",
    "INSSUE",
    "OUTSIDE",
    "NUMBERGEN",
    "OPERRIGHTS",
    "EDITEMPLOYEE",
    "EDITPRSCHEDZAM",
    "EDITPRSCHEDGUIDE",
    "EDITPRMACHINE",
    "EDITSLODEF",
    "AUTHORIZATION",
    "AUTHORIZATIONDICTFIELD"
  ]
}