{
  "Name": "PRTOOLSHISTORY",
  "FieldsByPosition": [
    "PRTOOLS",
    "DATEREAL",
    "DATEACTION",
    "WEAR",
    "HSACTION",
    "EMPLOYEES",
    "PRDEPART",
    "AMOUNT",
    "PRTOOLSDOC",
    "PRTOOLSDOCPOS",
    "TOOLTYPE",
    "INVNO",
    "PRICE",
    "PRDSDEF",
    "PRSCHEDGUIDE",
    "PRSCHEDZAM",
    "PRMACHINE",
    "SLODEF",
    "SLOPOZ"
  ]
}