{
  "Name": "RESTDOCS",
  "FieldsByPosition": [
    "FXDASSET",
    "DOCTYPE",
    "SYMBOL",
    "DESCRIPT",
    "DOCDATE",
    "REGOPER",
    "REGDATE",
    "NAMORTGRP",
    "NTACRATE",
    "NFACRATE",
    "OAMORTGRP",
    "OTACRATE",
    "OFACRATE"
  ]
}