{
  "Name": "RKSTNKAS",
  "FieldsByPosition": [
    "NAZWA",
    "DZIENNY",
    "KASABANK",
    "REJESTR",
    "KONTO",
    "WALUTA",
    "SALDOM",
    "OTWKILKA",
    "BANK",
    "NUMDOK",
    "NUMRAP",
    "KILKADZIENNIE",
    "DOMOPERACJA",
    "GENNUMDOK",
    "GENNUMRAP",
    "ODDZIAL",
    "WALUTOWA",
    "REDSYMBOL",
    "COMPANY",
    "PIN"
  ]
}