{
  "Name": "ROZRACHROZ",
  "FieldsByPosition": [
    "SLODEF",
    "SLOPOZ",
    "KONTOFK",
    "SYMBFAK",
    "DOKTYP",
    "DOKREF",
    "WALUTA",
    "WINIEN",
    "MA",
    "ROZMASTER",
    "PAYDAY",
    "STABLE",
    "SREF",
    "ZRODLO"
  ]
}