{
  "Name": "ROZRACHP",
  "FieldsByPosition": [
    "SLODEF",
    "SLOPOZ",
    "SYMBFAK",
    "OPERACJA",
    "KONTOFK",
    "BKDOC",
    "DECREES",
    "KLIENT",
    "FAKTURA",
    "DATA",
    "WINIEN",
    "MA",
    "WALUTA",
    "KURS",
    "WINIENZL",
    "MAZL",
    "SKAD",
    "NOTADOKUM",
    "INTERESTDATE",
    "STABLE",
    "SREF",
    "DTRATEDIFF",
    "CTRATEDIFF",
    "ODDZIAL",
    "FSCLRACCH",
    "SETTLCREATE",
    "FSCLACCP",
    "FSOPERTYPE",
    "COMPANY",
    "STRANSDATE",
    "TRESC"
  ]
}