{
  "Name": "RP_REPLICAT",
  "FieldsByPosition": [
    "REPLICAT_TYPE",
    "PARAMS",
    "SD_TABLE",
    "EI_TYPE",
    "OVERWRITE",
    "SD_FILEPATH",
    "S_OBJ",
    "D_OBJ",
    "REF_ID",
    "STRANSBLOCK",
    "DTRANSBLOCK",
    "SIGNATURE"
  ]
}