{
  "Name": "SHAREHOLDERS",
  "FieldsByPosition": [
    "FNAME",
    "SNAME",
    "BIRTHDATE",
    "TAXOFICE",
    "SHARE",
    "COUNTRY",
    "PROVINCE",
    "POWIAT",
    "COMMUNITY",
    "STREET",
    "HOUSENO",
    "LOCALNO",
    "CITY",
    "POST",
    "POSTCODE",
    "ID",
    "COMPID"
  ]
}