{
  "Name": "SLODEF",
  "FieldsByPosition": [
    "NAZWA",
    "TYP",
    "PREDEF",
    "CRM",
    "KASA",
    "PREFIXFK",
    "GRIDNAME",
    "GRIDNAMEDICT",
    "FORMNAME",
    "FIRMA",
    "TRYBRED",
    "MAG",
    "OPAK",
    "KARTOTEKA",
    "ANALITYKA",
    "KODLN",
    "STATE",
    "TOKEN",
    "ISDIST",
    "MASTERTABLE",
    "LOGISTYKA",
    "PERSONEL",
    "BKBROWSEWINDOW",
    "PRODUKCJA",
    "NAZWAFIELD",
    "KODFIELD",
    "NIPFIELD",
    "KODKSFIELD",
    "ISCOMPANY",
    "MULTIDIST",
    "SYMBOL",
    "DICTPOSFIELD",
    "COMPANY",
    "INTERNALUPDATE",
    "PATTERN_REF",
    "PATTERNREF",
    "FORYEAR",
    "PREV_YEAR_SLODEF",
    "WPKPERCOMPANY"
  ]
}