{
  "Name": "SPOSDOST",
  "FieldsByPosition": [
    "NAZWA",
    "KOSZT",
    "PROG",
    "OPIS",
    "CZAS",
    "WITRYNA",
    "USLUGA",
    "TRASY",
    "LISTYWYS",
    "STATE",
    "TOKEN",
    "LP",
    "KALKULATORKOSZT",
    "AUTOZMIANA",
    "ODBNIEZNANY",
    "PLATNIK",
    "KONTOFK",
    "UWAGI",
    "INTRDOSTAWY",
    "INTRTRANSPORT",
    "KALKULATORROZLICZ",
    "STAWKASPED",
    "KOSZTRECZNY",
    "KALKULATORKOSZTPAR",
    "ILDNIODBPOWYD",
    "AFTERACKACTION",
    "RODZAJWYS",
    "USEILDNIODB",
    "ID_ZEWN",
    "MWSGENALWAYS",
    "MWSPRIORITY",
    "MWSGENALLWAYS",
    "CZYEDE",
    "PUNKTYODBIORU",
    "TYPOPK",
    "X_LABEL_FORMAT",
    "X_SERVICE_CODE"
  ]
}