{
  "Name": "SPRZEDZESTP",
  "FieldsByPosition": [
    "DATA",
    "WARTNET",
    "WARTBRU",
    "KOSZT",
    "ZYSK",
    "PROWIZJA",
    "DOWYPLATY",
    "STAN",
    "CHECKED",
    "PROCENT",
    "WSPOLCZYNNIKKOR",
    "KONTRAHENT",
    "VAL1",
    "VAL2",
    "VAL3"
  ]
}