{
  "Name": "SRVOPERATIONS",
  "FieldsByPosition": [
    "CONTRTYPE",
    "NAME",
    "FROMSTATUS",
    "TOSTATUS",
    "REALIZE",
    "PREACTION",
    "POSTACTION",
    "GETNUMBER",
    "GETNUMBER2",
    "OPERRIGHT",
    "MODFIELD",
    "MODVALUE",
    "MSGGEN",
    "DEFZADAN",
    "OPERATOR",
    "DESCRIPT",
    "REQFIELDS",
    "RIGHTSDEF",
    "RIGHTS",
    "RIGHTSGROUP",
    "EDITDESCRIPT",
    "OPERUCZEST"
  ]
}