{
  "Name": "STANYIL",
  "FieldsByPosition": [
    "KTM",
    "WERSJA",
    "ILOSC",
    "CENA",
    "ILOSCPOD",
    "WARTOSC",
    "ZAMOWIONO",
    "ZAREZERW",
    "ZABLOKOW",
    "KOLOR",
    "NAZWAT",
    "CHODLIWY",
    "GRUPA",
    "USLUGA",
    "MIARA",
    "AKT",
    "ODDZIAL",
    "GLOWNY",
    "STATE",
    "TOKEN",
    "STANMIN",
    "STANMAX",
    "MINMAXSTAN",
    "DATADOST",
    "MIEJSCEWMAG",
    "ILOSCWOLNA",
    "CENANETA",
    "CENABRUA",
    "CENANETB",
    "CENABRUB",
    "ILOSCPOT",
    "SYMBOL_DOST",
    "PRAWAGRUP",
    "WNAZWA",
    "MIARA1",
    "ILOSCJM1",
    "ILOSCJM2",
    "MIARA2",
    "ITCLASS",
    "ROICLASS",
    "ALTPOSMODE"
  ]
}