{
  "Name": "TYPYOPK",
  "FieldsByPosition": [
    "SYMBOL",
    "NAZWA",
    "WYMIARY",
    "KODKRESK",
    "DLUGOSC",
    "PALETA",
    "SZEROKOSC",
    "WYSOKOSC",
    "USLUGA",
    "X_DHL_SYMBOL"
  ]
}