{
  "Name": "TYPZAM",
  "FieldsByPosition": [
    "NAZWA",
    "ZEWN",
    "WYDANIA",
    "MIEDZY",
    "SPOSDOST",
    "MAGAZYN",
    "MAG2",
    "KOMPLETILPELNE",
    "CENAMAGZAM",
    "DOSTMAGZAM",
    "DANEDOD",
    "PRSCHEDULE",
    "NAZWADRUKMLP",
    "NAZWADRUKDLP",
    "NAZWADRUKMLM",
    "WALUTOWE",
    "FILTRMAG",
    "FILTRMAG2",
    "DANEDODSTAT",
    "OUTONPOZZAMENABLED",
    "EDI",
    "GENERUJ",
    "KILOSCRECZNA",
    "PRADDZAMGUIDEPROC",
    "PRDICTPRIORITY",
    "BROWSENAGZAMGRIDNAME",
    "TRANSPORT",
    "EKSPORT",
    "ALTALLOW"
  ]
}