{
  "Name": "URZSPRTYP",
  "FieldsByPosition": [
    "IMPBEFORE",
    "IMPFAK",
    "IMPKAS",
    "IMPKH",
    "EXPTOW",
    "EXPKH",
    "EXPMAG",
    "EXPROZRACH",
    "EXPKONF",
    "EXPAFTER",
    "BAZA",
    "BEFOREEXE",
    "AFTEREXE",
    "EXPZAM",
    "EXPFAK",
    "BAZAIMP",
    "BAZATEMP",
    "EKSPORT",
    "IMPZAM",
    "PROCEDURAWERYF",
    "PROCEDURAIMP",
    "PROCEDURAEXP",
    "EXPSPED",
    "EXPDOK"
  ]
}