{
  "Name": "X_IMP_DOKUMPOZ",
  "FieldsByPosition": [
    "NAGID",
    "POZID",
    "NUMER",
    "IDARTYKULU",
    "JEDNOSTKA",
    "VAT",
    "MAGAZYN",
    "MAG2",
    "ILOSC",
    "ILOSCPOTW",
    "CENANETTO",
    "CENABRUTTO",
    "WARTOSCNETTO",
    "WARTOSCBRUTTO",
    "UWAGI",
    "IDPOZKORYGOWANEJ",
    "SREF",
    "SREFDOKUMNAG",
    "NAGIMPREF",
    "STATUS",
    "DATAPRZET",
    "IDSTATUS",
    "ERRMSG"
  ]
}