{
  "Name": "X_IMP_TOWPLIKI",
  "FieldsByPosition": [
    "IDZDJECIA",
    "IDARTYKULU",
    "INDEKSKATALOGOWY",
    "ZDJECIE",
    "GLOWNE",
    "NAZWA",
    "STATUS",
    "DATAPRZET",
    "IDSTATUS",
    "ERRMSG",
    "ILPROB"
  ]
}