{
  "Name": "ZAPYTPARAM",
  "FieldsByPosition": [
    "NAZWA",
    "NUMER",
    "WARTOSC",
    "TRYB",
    "TYP",
    "DICTBASE",
    "DICTTABLE",
    "DICTFIELD",
    "DICTINDEX",
    "DICTPREFIX",
    "DICTFILTER",
    "DICTKEYFIELDS",
    "ORD",
    "EDITABLE",
    "ISMULTISELECT",
    "GRIDFILTERCONTROL"
  ]
}