{
  "Name": "ZLECDEF",
  "FieldsByPosition": [
    "SYMBOL",
    "NAZWA",
    "ZAMFAK",
    "AUTOGEN",
    "DEFCYKL",
    "DEFCYKLTYP",
    "DEFCYKLCONST",
    "DATATYP",
    "TYP",
    "FAKREJ",
    "FAKTYP",
    "ZAMTYP",
    "ZAMREJ",
    "TERMDOST",
    "DEFSPOSZAP"
  ]
}