[
  {
    "Name": "S_USERLOGINS",
    "Flag": "DELETE",
    "Granted": "SYS_SET_USERINFO",
    "Grantor": "SYSDBA"
  },
  {
    "Name": "S_USERLOGINS",
    "Flag": "DELETE",
    "Granted": "SYS_SET_USERINFO",
    "Grantor": "PMICHON"
  },
  {
    "Name": "S_USERLOGINS",
    "Flag": "DELETE",
    "Granted": "SYS_SET_USERINFO",
    "Grantor": "JOLSZEWSKI"
  },
  {
    "Name": "S_USERLOGINS",
    "Flag": "INSERT",
    "Granted": "SYS_SET_USERINFO",
    "Grantor": "SYSDBA"
  },
  {
    "Name": "S_USERLOGINS",
    "Flag": "INSERT",
    "Granted": "SYS_SET_USERINFO",
    "Grantor": "PMICHON"
  },
  {
    "Name": "S_USERLOGINS",
    "Flag": "INSERT",
    "Granted": "SYS_SET_USERINFO",
    "Grantor": "JOLSZEWSKI"
  },
  {
    "Name": "S_USERLOGINS",
    "Flag": "REFERENCES",
    "Granted": "SYS_SET_USERINFO",
    "Grantor": "SYSDBA"
  },
  {
    "Name": "S_USERLOGINS",
    "Flag": "REFERENCES",
    "Granted": "SYS_SET_USERINFO",
    "Grantor": "PMICHON"
  },
  {
    "Name": "S_USERLOGINS",
    "Flag": "REFERENCES",
    "Granted": "SYS_SET_USERINFO",
    "Grantor": "JOLSZEWSKI"
  },
  {
    "Name": "S_USERLOGINS",
    "Flag": "SELECT",
    "Granted": "SYS_SET_USERINFO",
    "Grantor": "SYSDBA"
  },
  {
    "Name": "S_USERLOGINS",
    "Flag": "SELECT",
    "Granted": "SYS_SET_USERINFO",
    "Grantor": "PMICHON"
  },
  {
    "Name": "S_USERLOGINS",
    "Flag": "SELECT",
    "Granted": "SYS_SET_USERINFO",
    "Grantor": "JOLSZEWSKI"
  },
  {
    "Name": "S_USERLOGINS",
    "Flag": "UPDATE",
    "Granted": "SYS_SET_USERINFO",
    "Grantor": "SYSDBA"
  },
  {
    "Name": "S_USERLOGINS",
    "Flag": "UPDATE",
    "Granted": "SYS_SET_USERINFO",
    "Grantor": "PMICHON"
  },
  {
    "Name": "S_USERLOGINS",
    "Flag": "UPDATE",
    "Granted": "SYS_SET_USERINFO",
    "Grantor": "JOLSZEWSKI"
  },
  {
    "Name": "S_USERS",
    "Flag": "DELETE",
    "Granted": "SYS_SET_USERINFO",
    "Grantor": "SYSDBA"
  },
  {
    "Name": "S_USERS",
    "Flag": "DELETE",
    "Granted": "SYS_SET_USERINFO",
    "Grantor": "PMICHON"
  },
  {
    "Name": "S_USERS",
    "Flag": "DELETE",
    "Granted": "SYS_SET_USERINFO",
    "Grantor": "JOLSZEWSKI"
  },
  {
    "Name": "S_USERS",
    "Flag": "INSERT",
    "Granted": "SYS_SET_USERINFO",
    "Grantor": "SYSDBA"
  },
  {
    "Name": "S_USERS",
    "Flag": "INSERT",
    "Granted": "SYS_SET_USERINFO",
    "Grantor": "PMICHON"
  },
  {
    "Name": "S_USERS",
    "Flag": "INSERT",
    "Granted": "SYS_SET_USERINFO",
    "Grantor": "JOLSZEWSKI"
  },
  {
    "Name": "S_USERS",
    "Flag": "REFERENCES",
    "Granted": "SYS_SET_USERINFO",
    "Grantor": "SYSDBA"
  },
  {
    "Name": "S_USERS",
    "Flag": "REFERENCES",
    "Granted": "SYS_SET_USERINFO",
    "Grantor": "PMICHON"
  },
  {
    "Name": "S_USERS",
    "Flag": "REFERENCES",
    "Granted": "SYS_SET_USERINFO",
    "Grantor": "JOLSZEWSKI"
  },
  {
    "Name": "S_USERS",
    "Flag": "SELECT",
    "Granted": "SYS_SET_USERINFO",
    "Grantor": "SYSDBA"
  },
  {
    "Name": "S_USERS",
    "Flag": "SELECT",
    "Granted": "SYS_SET_USERINFO",
    "Grantor": "PMICHON"
  },
  {
    "Name": "S_USERS",
    "Flag": "SELECT",
    "Granted": "SYS_SET_USERINFO",
    "Grantor": "JOLSZEWSKI"
  },
  {
    "Name": "S_USERS",
    "Flag": "UPDATE",
    "Granted": "SYS_SET_USERINFO",
    "Grantor": "SYSDBA"
  },
  {
    "Name": "S_USERS",
    "Flag": "UPDATE",
    "Granted": "SYS_SET_USERINFO",
    "Grantor": "PMICHON"
  },
  {
    "Name": "S_USERS",
    "Flag": "UPDATE",
    "Granted": "SYS_SET_USERINFO",
    "Grantor": "JOLSZEWSKI"
  }
]