[
  {
    "Name": "SYS_SCHEDULE",
    "Flag": "SELECT",
    "Granted": "SYS_SCHEDULER_GET_METHODS",
    "Grantor": "SYSDBA"
  },
  {
    "Name": "SYS_SCHEDULE",
    "Flag": "UPDATE",
    "Granted": "SYS_SCHEDULER_GET_METHODS",
    "Grantor": "SYSDBA"
  },
  {
    "Name": "SYS_SCHEDULE_ACTIVITY_RULES",
    "Flag": "SELECT",
    "Granted": "SYS_SCHEDULER_GET_METHODS",
    "Grantor": "SYSDBA"
  }
]