[
  {
    "Name": "DEFMAGAZ",
    "Flag": "SELECT",
    "Granted": "EDE_UNIVERSAL_SHIPMENT_REQUEST",
    "Grantor": "SYSDBA"
  },
  {
    "Name": "DOKUMNAG",
    "Flag": "SELECT",
    "Granted": "EDE_UNIVERSAL_SHIPMENT_REQUEST",
    "Grantor": "SYSDBA"
  },
  {
    "Name": "KLIENCI",
    "Flag": "SELECT",
    "Granted": "EDE_UNIVERSAL_SHIPMENT_REQUEST",
    "Grantor": "SYSDBA"
  },
  {
    "Name": "LISTYWYSD",
    "Flag": "SELECT",
    "Granted": "EDE_UNIVERSAL_SHIPMENT_REQUEST",
    "Grantor": "SYSDBA"
  },
  {
    "Name": "LISTYWYSDPOZ",
    "Flag": "SELECT",
    "Granted": "EDE_UNIVERSAL_SHIPMENT_REQUEST",
    "Grantor": "SYSDBA"
  },
  {
    "Name": "LISTYWYSDROZ_OPK",
    "Flag": "SELECT",
    "Granted": "EDE_UNIVERSAL_SHIPMENT_REQUEST",
    "Grantor": "SYSDBA"
  },
  {
    "Name": "NAGFAK",
    "Flag": "SELECT",
    "Granted": "EDE_UNIVERSAL_SHIPMENT_REQUEST",
    "Grantor": "SYSDBA"
  },
  {
    "Name": "NAGZAM",
    "Flag": "SELECT",
    "Granted": "EDE_UNIVERSAL_SHIPMENT_REQUEST",
    "Grantor": "SYSDBA"
  },
  {
    "Name": "ODBIORCY",
    "Flag": "SELECT",
    "Granted": "EDE_UNIVERSAL_SHIPMENT_REQUEST",
    "Grantor": "SYSDBA"
  },
  {
    "Name": "OPERATOR",
    "Flag": "SELECT",
    "Granted": "EDE_UNIVERSAL_SHIPMENT_REQUEST",
    "Grantor": "SYSDBA"
  },
  {
    "Name": "SPEDYTKONTA",
    "Flag": "SELECT",
    "Granted": "EDE_UNIVERSAL_SHIPMENT_REQUEST",
    "Grantor": "SYSDBA"
  },
  {
    "Name": "SPEDYTORZY",
    "Flag": "SELECT",
    "Granted": "EDE_UNIVERSAL_SHIPMENT_REQUEST",
    "Grantor": "SYSDBA"
  },
  {
    "Name": "SPEDYTWYS",
    "Flag": "SELECT",
    "Granted": "EDE_UNIVERSAL_SHIPMENT_REQUEST",
    "Grantor": "SYSDBA"
  },
  {
    "Name": "TYPYOPK",
    "Flag": "SELECT",
    "Granted": "EDE_UNIVERSAL_SHIPMENT_REQUEST",
    "Grantor": "SYSDBA"
  }
]