{
  "Name": "POZFAK_BU_OBL_POZ",
  "Type": "Trigger",
  "Description": "PR09389;PR09330;BS08948;PR08650;BS08557;PR08392;PR08344;PR07920;PR06685;PR06629;BS19266;BS25623;PR29688;BS31620;BS32437;PR35083;BS44888;BS48135;BS52805;BS70028;BS74310",
  "Children": []
}