{
  "Name": "POZZAM_BI_OBL_POZ",
  "Type": "Trigger",
  "Description": "PR04211;PR11606;PR09389;PR09330;PR08650;PR08344;BS07938;BS19266;PR29688;PR35083;BS43643;BS43561;BS48553;PR49701;BS49790;BS70028;;",
  "Children": []
}