{
  "Name": "X_IMP_ODBIORCY_WAPRO_INF_AD0",
  "Type": "Trigger",
  "Description": "wysya komunikat z informacją o usunitej pozycji to x_imp_pozycjeusuwane w celu komunikacji z WAPRO\r\nXXX138130",
  "Children": []
}