{
  "Name": "EMPLTAXINFO.ALLOBLOCKDATE",
  "Type": "Field",
  "Description": "BS99051;\r\nData oswiadczenia pracownika, że w danym roku jego dochody przekrocza kwote stanowiaca gorna granice pierwszego przedzialu skali podatkowej",
  "Children": []
}