{
  "Name": "TOWARY.X_MWS_SLOWNIK_EHRLE",
  "Type": "Field",
  "Description": "który slownik jest wymagany  wartosc taka jak kolumna typ w X_SLOWNIKI_EHRLE\r\n 0 - slownik niewymagany\r\n 1 - slownik programow\r\n 2 - slownik kontraktow",
  "Children": []
}