{
  "Name": "X_IMP_DOKUMNAG.MWSSTATUS",
  "Type": "Field",
  "Description": "Status:\r\n1 - przynajmniej jedno zlecenie do grupy spedycyjnej  zostalo wygenerowane\r\n2 - przynajmniej jedno zlecenie z grupy spedycyjnej zostalo pobrane do realizacji\r\n5 - wszystkie zlecenia dla calej grupy spedycyjnej zostaly zrealizowane",
  "Children": []
}