{
  "Name": "X_MWS_INTEGRACJA_LOG.STATUS",
  "Type": "Field",
  "Description": "1 wpis zwiazany z bledem  (jego wykonanie zakonczylo sie niepowodzeniem albo wpis niesie informacje o bledzie)\r\n0 wpis bez bledow",
  "Children": []
}