[
  {
    "Name": "GLOBALPARAMS",
    "Flag": "DELETE",
    "Granted": "CLEAR_GLOBAL_PARAMS",
    "Grantor": "SYSDBA"
  },
  {
    "Name": "GLOBALPARAMS",
    "Flag": "DELETE",
    "Granted": "CLEAR_GLOBAL_PARAMS",
    "Grantor": "PMICHON"
  },
  {
    "Name": "GLOBALPARAMS",
    "Flag": "DELETE",
    "Granted": "CLEAR_GLOBAL_PARAMS",
    "Grantor": "JOLSZEWSKI"
  },
  {
    "Name": "GLOBALPARAMS",
    "Flag": "INSERT",
    "Granted": "CLEAR_GLOBAL_PARAMS",
    "Grantor": "SYSDBA"
  },
  {
    "Name": "GLOBALPARAMS",
    "Flag": "INSERT",
    "Granted": "CLEAR_GLOBAL_PARAMS",
    "Grantor": "PMICHON"
  },
  {
    "Name": "GLOBALPARAMS",
    "Flag": "INSERT",
    "Granted": "CLEAR_GLOBAL_PARAMS",
    "Grantor": "JOLSZEWSKI"
  },
  {
    "Name": "GLOBALPARAMS",
    "Flag": "REFERENCES",
    "Granted": "CLEAR_GLOBAL_PARAMS",
    "Grantor": "SYSDBA"
  },
  {
    "Name": "GLOBALPARAMS",
    "Flag": "REFERENCES",
    "Granted": "CLEAR_GLOBAL_PARAMS",
    "Grantor": "PMICHON"
  },
  {
    "Name": "GLOBALPARAMS",
    "Flag": "REFERENCES",
    "Granted": "CLEAR_GLOBAL_PARAMS",
    "Grantor": "JOLSZEWSKI"
  },
  {
    "Name": "GLOBALPARAMS",
    "Flag": "SELECT",
    "Granted": "CLEAR_GLOBAL_PARAMS",
    "Grantor": "SYSDBA"
  },
  {
    "Name": "GLOBALPARAMS",
    "Flag": "SELECT",
    "Granted": "CLEAR_GLOBAL_PARAMS",
    "Grantor": "PMICHON"
  },
  {
    "Name": "GLOBALPARAMS",
    "Flag": "SELECT",
    "Granted": "CLEAR_GLOBAL_PARAMS",
    "Grantor": "JOLSZEWSKI"
  },
  {
    "Name": "GLOBALPARAMS",
    "Flag": "UPDATE",
    "Granted": "CLEAR_GLOBAL_PARAMS",
    "Grantor": "SYSDBA"
  },
  {
    "Name": "GLOBALPARAMS",
    "Flag": "UPDATE",
    "Granted": "CLEAR_GLOBAL_PARAMS",
    "Grantor": "PMICHON"
  },
  {
    "Name": "GLOBALPARAMS",
    "Flag": "UPDATE",
    "Granted": "CLEAR_GLOBAL_PARAMS",
    "Grantor": "JOLSZEWSKI"
  }
]